# theta eps_gi_pp(times NBIN) eps_gi_cc(times NBIN) eps_gi_sp(times NBIN) eps_gi_ss(times NBIN) 
1.000000e-02  -2.881661e-07  -1.210091e-06  2.881661e-07  1.210091e-06  0.000000e+00  0.000000e+00  0.000000e+00  0.000000e+00  
1.026287e-02  -2.881661e-07  -1.210091e-06  2.881661e-07  1.210091e-06  0.000000e+00  0.000000e+00  0.000000e+00  0.000000e+00  
1.053266e-02  -2.881661e-07  -1.210091e-06  2.881661e-07  1.210091e-06  0.000000e+00  0.000000e+00  0.000000e+00  0.000000e+00  
1.080954e-02  -2.881661e-07  -1.210091e-06  2.881661e-07  1.210091e-06  0.000000e+00  0.000000e+00  0.000000e+00  0.000000e+00  
1.109369e-02  -2.881661e-07  -1.210091e-06  2.881661e-07  1.210091e-06  0.000000e+00  0.000000e+00  0.000000e+00  0.000000e+00  
1.138532e-02  -2.881661e-07  -1.210091e-06  2.881661e-07  1.210091e-06  0.000000e+00  0.000000e+00  0.000000e+00  0.000000e+00  
1.168461e-02  -2.881661e-07  -1.210091e-06  2.881661e-07  1.210091e-06  0.000000e+00  0.000000e+00  0.000000e+00  0.000000e+00  
1.199177e-02  -2.881661e-07  -1.210091e-06  2.881661e-07  1.210091e-06  0.000000e+00  0.000000e+00  0.000000e+00  0.000000e+00  
1.230700e-02  -2.881661e-07  -1.210091e-06  2.881661e-07  1.210091e-06  0.000000e+00  0.000000e+00  0.000000e+00  0.000000e+00  
1.263052e-02  -2.881660e-07  -1.210091e-06  2.881660e-07  1.210091e-06  0.000000e+00  0.000000e+00  0.000000e+00  0.000000e+00  
1.296255e-02  -2.881660e-07  -1.210091e-06  2.881660e-07  1.210091e-06  0.000000e+00  0.000000e+00  0.000000e+00  0.000000e+00  
1.330330e-02  -2.881660e-07  -1.210091e-06  2.881660e-07  1.210091e-06  0.000000e+00  0.000000e+00  0.000000e+00  0.000000e+00  
1.365301e-02  -2.881660e-07  -1.210091e-06  2.881660e-07  1.210091e-06  0.000000e+00  0.000000e+00  0.000000e+00  0.000000e+00  
1.401191e-02  -2.881660e-07  -1.210091e-06  2.881660e-07  1.210091e-06  0.000000e+00  0.000000e+00  0.000000e+00  0.000000e+00  
1.438025e-02  -2.881660e-07  -1.210091e-06  2.881660e-07  1.210091e-06  0.000000e+00  0.000000e+00  0.000000e+00  0.000000e+00  
1.475827e-02  -2.881660e-07  -1.210091e-06  2.881660e-07  1.210091e-06  0.000000e+00  0.000000e+00  0.000000e+00  0.000000e+00  
1.514623e-02  -2.881660e-07  -1.210091e-06  2.881660e-07  1.210091e-06  0.000000e+00  0.000000e+00  0.000000e+00  0.000000e+00  
1.554439e-02  -2.881660e-07  -1.210091e-06  2.881660e-07  1.210091e-06  0.000000e+00  0.000000e+00  0.000000e+00  0.000000e+00  
1.595301e-02  -2.881660e-07  -1.210091e-06  2.881660e-07  1.210091e-06  0.000000e+00  0.000000e+00  0.000000e+00  0.000000e+00  
1.637238e-02  -2.881660e-07  -1.210091e-06  2.881660e-07  1.210091e-06  0.000000e+00  0.000000e+00  0.000000e+00  0.000000e+00  
1.680276e-02  -2.881660e-07  -1.210091e-06  2.881660e-07  1.210091e-06  0.000000e+00  0.000000e+00  0.000000e+00  0.000000e+00  
1.724447e-02  -2.881660e-07  -1.210091e-06  2.881660e-07  1.210091e-06  0.000000e+00  0.000000e+00  0.000000e+00  0.000000e+00  
1.769778e-02  -2.881660e-07  -1.210091e-06  2.881660e-07  1.210091e-06  0.000000e+00  0.000000e+00  0.000000e+00  0.000000e+00  
1.816301e-02  -2.881660e-07  -1.210090e-06  2.881660e-07  1.210090e-06  0.000000e+00  0.000000e+00  0.000000e+00  0.000000e+00  
1.864047e-02  -2.881660e-07  -1.210090e-06  2.881660e-07  1.210090e-06  0.000000e+00  0.000000e+00  0.000000e+00  0.000000e+00  
1.913048e-02  -2.881660e-07  -1.210090e-06  2.881660e-07  1.210090e-06  0.000000e+00  0.000000e+00  0.000000e+00  0.000000e+00  
1.963337e-02  -2.881660e-07  -1.210090e-06  2.881660e-07  1.210090e-06  0.000000e+00  0.000000e+00  0.000000e+00  0.000000e+00  
2.014949e-02  -2.881660e-07  -1.210090e-06  2.881660e-07  1.210090e-06  0.000000e+00  0.000000e+00  0.000000e+00  0.000000e+00  
2.067917e-02  -2.881660e-07  -1.210090e-06  2.881660e-07  1.210090e-06  0.000000e+00  0.000000e+00  0.000000e+00  0.000000e+00  
2.122277e-02  -2.881660e-07  -1.210090e-06  2.881660e-07  1.210090e-06  0.000000e+00  0.000000e+00  0.000000e+00  0.000000e+00  
2.178066e-02  -2.881660e-07  -1.210090e-06  2.881660e-07  1.210090e-06  0.000000e+00  0.000000e+00  0.000000e+00  0.000000e+00  
2.235322e-02  -2.881660e-07  -1.210090e-06  2.881660e-07  1.210090e-06  0.000000e+00  0.000000e+00  0.000000e+00  0.000000e+00  
2.294083e-02  -2.881660e-07  -1.210090e-06  2.881660e-07  1.210090e-06  0.000000e+00  0.000000e+00  0.000000e+00  0.000000e+00  
2.354389e-02  -2.881660e-07  -1.210090e-06  2.881660e-07  1.210090e-06  0.000000e+00  0.000000e+00  0.000000e+00  0.000000e+00  
2.416280e-02  -2.881660e-07  -1.210090e-06  2.881660e-07  1.210090e-06  0.000000e+00  0.000000e+00  0.000000e+00  0.000000e+00  
2.479798e-02  -2.881659e-07  -1.210090e-06  2.881659e-07  1.210090e-06  0.000000e+00  0.000000e+00  0.000000e+00  0.000000e+00  
2.544986e-02  -2.881659e-07  -1.210090e-06  2.881659e-07  1.210090e-06  0.000000e+00  0.000000e+00  0.000000e+00  0.000000e+00  
2.611887e-02  -2.881659e-07  -1.210090e-06  2.881659e-07  1.210090e-06  0.000000e+00  0.000000e+00  0.000000e+00  0.000000e+00  
2.680547e-02  -2.881659e-07  -1.210090e-06  2.881659e-07  1.210090e-06  0.000000e+00  0.000000e+00  0.000000e+00  0.000000e+00  
2.751012e-02  -2.881659e-07  -1.210090e-06  2.881659e-07  1.210090e-06  0.000000e+00  0.000000e+00  0.000000e+00  0.000000e+00  
2.823329e-02  -2.881659e-07  -1.210090e-06  2.881659e-07  1.210090e-06  0.000000e+00  0.000000e+00  0.000000e+00  0.000000e+00  
2.897547e-02  -2.881659e-07  -1.210090e-06  2.881659e-07  1.210090e-06  0.000000e+00  0.000000e+00  0.000000e+00  0.000000e+00  
2.973716e-02  -2.881659e-07  -1.210090e-06  2.881659e-07  1.210090e-06  0.000000e+00  0.000000e+00  0.000000e+00  0.000000e+00  
3.051888e-02  -2.881659e-07  -1.210090e-06  2.881659e-07  1.210090e-06  0.000000e+00  0.000000e+00  0.000000e+00  0.000000e+00  
3.132114e-02  -2.881659e-07  -1.210089e-06  2.881659e-07  1.210089e-06  0.000000e+00  0.000000e+00  0.000000e+00  0.000000e+00  
3.214450e-02  -2.881658e-07  -1.210089e-06  2.881658e-07  1.210089e-06  0.000000e+00  0.000000e+00  0.000000e+00  0.000000e+00  
3.298950e-02  -2.881658e-07  -1.210089e-06  2.881658e-07  1.210089e-06  0.000000e+00  0.000000e+00  0.000000e+00  0.000000e+00  
3.385671e-02  -2.881658e-07  -1.210089e-06  2.881658e-07  1.210089e-06  0.000000e+00  0.000000e+00  0.000000e+00  0.000000e+00  
3.474672e-02  -2.881658e-07  -1.210089e-06  2.881658e-07  1.210089e-06  0.000000e+00  0.000000e+00  0.000000e+00  0.000000e+00  
3.566012e-02  -2.881658e-07  -1.210089e-06  2.881658e-07  1.210089e-06  0.000000e+00  0.000000e+00  0.000000e+00  0.000000e+00  
3.659753e-02  -2.881658e-07  -1.210089e-06  2.881658e-07  1.210089e-06  0.000000e+00  0.000000e+00  0.000000e+00  0.000000e+00  
3.755959e-02  -2.881658e-07  -1.210089e-06  2.881658e-07  1.210089e-06  0.000000e+00  0.000000e+00  0.000000e+00  0.000000e+00  
3.854694e-02  -2.881657e-07  -1.210089e-06  2.881657e-07  1.210089e-06  0.000000e+00  0.000000e+00  0.000000e+00  0.000000e+00  
3.956024e-02  -2.881657e-07  -1.210089e-06  2.881657e-07  1.210089e-06  0.000000e+00  0.000000e+00  0.000000e+00  0.000000e+00  
4.060018e-02  -2.881657e-07  -1.210088e-06  2.881657e-07  1.210088e-06  0.000000e+00  0.000000e+00  0.000000e+00  0.000000e+00  
4.166746e-02  -2.881657e-07  -1.210088e-06  2.881657e-07  1.210088e-06  0.000000e+00  0.000000e+00  0.000000e+00  0.000000e+00  
4.276279e-02  -2.881657e-07  -1.210088e-06  2.881657e-07  1.210088e-06  0.000000e+00  0.000000e+00  0.000000e+00  0.000000e+00  
4.388692e-02  -2.881656e-07  -1.210088e-06  2.881656e-07  1.210088e-06  0.000000e+00  0.000000e+00  0.000000e+00  0.000000e+00  
4.504060e-02  -2.881656e-07  -1.210088e-06  2.881656e-07  1.210088e-06  0.000000e+00  0.000000e+00  0.000000e+00  0.000000e+00  
4.622460e-02  -2.881656e-07  -1.210088e-06  2.881656e-07  1.210088e-06  0.000000e+00  0.000000e+00  0.000000e+00  0.000000e+00  
4.743973e-02  -2.881656e-07  -1.210087e-06  2.881656e-07  1.210087e-06  0.000000e+00  0.000000e+00  0.000000e+00  0.000000e+00  
4.868680e-02  -2.881655e-07  -1.210087e-06  2.881655e-07  1.210087e-06  0.000000e+00  0.000000e+00  0.000000e+00  0.000000e+00  
4.996665e-02  -2.881655e-07  -1.210087e-06  2.881655e-07  1.210087e-06  0.000000e+00  0.000000e+00  0.000000e+00  0.000000e+00  
5.128015e-02  -2.881655e-07  -1.210087e-06  2.881655e-07  1.210087e-06  0.000000e+00  0.000000e+00  0.000000e+00  0.000000e+00  
5.262818e-02  -2.881654e-07  -1.210087e-06  2.881654e-07  1.210087e-06  0.000000e+00  0.000000e+00  0.000000e+00  0.000000e+00  
5.401164e-02  -2.881654e-07  -1.210086e-06  2.881654e-07  1.210086e-06  0.000000e+00  0.000000e+00  0.000000e+00  0.000000e+00  
5.543147e-02  -2.881654e-07  -1.210086e-06  2.881654e-07  1.210086e-06  0.000000e+00  0.000000e+00  0.000000e+00  0.000000e+00  
5.688863e-02  -2.881653e-07  -1.210086e-06  2.881653e-07  1.210086e-06  0.000000e+00  0.000000e+00  0.000000e+00  0.000000e+00  
5.838409e-02  -2.881653e-07  -1.210086e-06  2.881653e-07  1.210086e-06  0.000000e+00  0.000000e+00  0.000000e+00  0.000000e+00  
5.991886e-02  -2.881653e-07  -1.210085e-06  2.881653e-07  1.210085e-06  0.000000e+00  0.000000e+00  0.000000e+00  0.000000e+00  
6.149397e-02  -2.881652e-07  -1.210085e-06  2.881652e-07  1.210085e-06  0.000000e+00  0.000000e+00  0.000000e+00  0.000000e+00  
6.311050e-02  -2.881652e-07  -1.210085e-06  2.881652e-07  1.210085e-06  0.000000e+00  0.000000e+00  0.000000e+00  0.000000e+00  
6.476951e-02  -2.881651e-07  -1.210084e-06  2.881651e-07  1.210084e-06  0.000000e+00  0.000000e+00  0.000000e+00  0.000000e+00  
6.647214e-02  -2.881651e-07  -1.210084e-06  2.881651e-07  1.210084e-06  0.000000e+00  0.000000e+00  0.000000e+00  0.000000e+00  
6.821953e-02  -2.881650e-07  -1.210084e-06  2.881650e-07  1.210084e-06  0.000000e+00  0.000000e+00  0.000000e+00  0.000000e+00  
7.001285e-02  -2.881650e-07  -1.210083e-06  2.881650e-07  1.210083e-06  0.000000e+00  0.000000e+00  0.000000e+00  0.000000e+00  
7.185331e-02  -2.881649e-07  -1.210083e-06  2.881649e-07  1.210083e-06  0.000000e+00  0.000000e+00  0.000000e+00  0.000000e+00  
7.374215e-02  -2.881648e-07  -1.210083e-06  2.881648e-07  1.210083e-06  0.000000e+00  0.000000e+00  0.000000e+00  0.000000e+00  
7.568065e-02  -2.881648e-07  -1.210082e-06  2.881648e-07  1.210082e-06  0.000000e+00  0.000000e+00  0.000000e+00  0.000000e+00  
7.767011e-02  -2.881647e-07  -1.210082e-06  2.881647e-07  1.210082e-06  0.000000e+00  0.000000e+00  0.000000e+00  0.000000e+00  
7.971186e-02  -2.881646e-07  -1.210081e-06  2.881646e-07  1.210081e-06  0.000000e+00  0.000000e+00  0.000000e+00  0.000000e+00  
8.180728e-02  -2.881645e-07  -1.210081e-06  2.881645e-07  1.210081e-06  0.000000e+00  0.000000e+00  0.000000e+00  0.000000e+00  
8.395779e-02  -2.881645e-07  -1.210080e-06  2.881645e-07  1.210080e-06  0.000000e+00  0.000000e+00  0.000000e+00  0.000000e+00  
8.616483e-02  -2.881644e-07  -1.210079e-06  2.881644e-07  1.210079e-06  0.000000e+00  0.000000e+00  0.000000e+00  0.000000e+00  
8.842989e-02  -2.881643e-07  -1.210079e-06  2.881643e-07  1.210079e-06  0.000000e+00  0.000000e+00  0.000000e+00  0.000000e+00  
9.075449e-02  -2.881642e-07  -1.210078e-06  2.881642e-07  1.210078e-06  0.000000e+00  0.000000e+00  0.000000e+00  0.000000e+00  
9.314020e-02  -2.881641e-07  -1.210077e-06  2.881641e-07  1.210077e-06  0.000000e+00  0.000000e+00  0.000000e+00  0.000000e+00  
9.558862e-02  -2.881640e-07  -1.210077e-06  2.881640e-07  1.210077e-06  0.000000e+00  0.000000e+00  0.000000e+00  0.000000e+00  
9.810140e-02  -2.881639e-07  -1.210076e-06  2.881639e-07  1.210076e-06  0.000000e+00  0.000000e+00  0.000000e+00  0.000000e+00  
1.006802e-01  -2.881637e-07  -1.210075e-06  2.881637e-07  1.210075e-06  0.000000e+00  0.000000e+00  0.000000e+00  0.000000e+00  
1.033269e-01  -2.881636e-07  -1.210074e-06  2.881636e-07  1.210074e-06  0.000000e+00  0.000000e+00  0.000000e+00  0.000000e+00  
1.060431e-01  -2.881635e-07  -1.210073e-06  2.881635e-07  1.210073e-06  0.000000e+00  0.000000e+00  0.000000e+00  0.000000e+00  
1.088307e-01  -2.881633e-07  -1.210072e-06  2.881633e-07  1.210072e-06  0.000000e+00  0.000000e+00  0.000000e+00  0.000000e+00  
1.116916e-01  -2.881632e-07  -1.210072e-06  2.881632e-07  1.210072e-06  0.000000e+00  0.000000e+00  0.000000e+00  0.000000e+00  
1.146277e-01  -2.881630e-07  -1.210070e-06  2.881630e-07  1.210070e-06  0.000000e+00  0.000000e+00  0.000000e+00  0.000000e+00  
1.176409e-01  -2.881629e-07  -1.210069e-06  2.881629e-07  1.210069e-06  0.000000e+00  0.000000e+00  0.000000e+00  0.000000e+00  
1.207334e-01  -2.881627e-07  -1.210068e-06  2.881627e-07  1.210068e-06  0.000000e+00  0.000000e+00  0.000000e+00  0.000000e+00  
1.239072e-01  -2.881625e-07  -1.210067e-06  2.881625e-07  1.210067e-06  0.000000e+00  0.000000e+00  0.000000e+00  0.000000e+00  
1.271644e-01  -2.881623e-07  -1.210066e-06  2.881623e-07  1.210066e-06  0.000000e+00  0.000000e+00  0.000000e+00  0.000000e+00  
1.305072e-01  -2.881621e-07  -1.210064e-06  2.881621e-07  1.210064e-06  0.000000e+00  0.000000e+00  0.000000e+00  0.000000e+00  
1.339380e-01  -2.881619e-07  -1.210063e-06  2.881619e-07  1.210063e-06  0.000000e+00  0.000000e+00  0.000000e+00  0.000000e+00  
1.374588e-01  -2.881617e-07  -1.210061e-06  2.881617e-07  1.210061e-06  0.000000e+00  0.000000e+00  0.000000e+00  0.000000e+00  
1.410723e-01  -2.881615e-07  -1.210060e-06  2.881615e-07  1.210060e-06  0.000000e+00  0.000000e+00  0.000000e+00  0.000000e+00  
1.447807e-01  -2.881612e-07  -1.210058e-06  2.881612e-07  1.210058e-06  0.000000e+00  0.000000e+00  0.000000e+00  0.000000e+00  
1.485867e-01  -2.881610e-07  -1.210056e-06  2.881610e-07  1.210056e-06  0.000000e+00  0.000000e+00  0.000000e+00  0.000000e+00  
1.524926e-01  -2.881607e-07  -1.210055e-06  2.881607e-07  1.210055e-06  0.000000e+00  0.000000e+00  0.000000e+00  0.000000e+00  
1.565013e-01  -2.881604e-07  -1.210053e-06  2.881604e-07  1.210053e-06  0.000000e+00  0.000000e+00  0.000000e+00  0.000000e+00  
1.606153e-01  -2.881601e-07  -1.210051e-06  2.881601e-07  1.210051e-06  0.000000e+00  0.000000e+00  0.000000e+00  0.000000e+00  
1.648375e-01  -2.881598e-07  -1.210049e-06  2.881598e-07  1.210049e-06  0.000000e+00  0.000000e+00  0.000000e+00  0.000000e+00  
1.691706e-01  -2.881595e-07  -1.210046e-06  2.881595e-07  1.210046e-06  0.000000e+00  0.000000e+00  0.000000e+00  0.000000e+00  
1.736177e-01  -2.881591e-07  -1.210044e-06  2.881591e-07  1.210044e-06  0.000000e+00  0.000000e+00  0.000000e+00  0.000000e+00  
1.781817e-01  -2.881587e-07  -1.210041e-06  2.881587e-07  1.210041e-06  0.000000e+00  0.000000e+00  0.000000e+00  0.000000e+00  
1.828656e-01  -2.881583e-07  -1.210039e-06  2.881583e-07  1.210039e-06  0.000000e+00  0.000000e+00  0.000000e+00  0.000000e+00  
1.876727e-01  -2.881579e-07  -1.210036e-06  2.881579e-07  1.210036e-06  0.000000e+00  0.000000e+00  0.000000e+00  0.000000e+00  
1.926062e-01  -2.881575e-07  -1.210033e-06  2.881575e-07  1.210033e-06  0.000000e+00  0.000000e+00  0.000000e+00  0.000000e+00  
1.976693e-01  -2.881570e-07  -1.210030e-06  2.881570e-07  1.210030e-06  0.000000e+00  0.000000e+00  0.000000e+00  0.000000e+00  
2.028655e-01  -2.881566e-07  -1.210027e-06  2.881566e-07  1.210027e-06  0.000000e+00  0.000000e+00  0.000000e+00  0.000000e+00  
2.081984e-01  -2.881560e-07  -1.210023e-06  2.881560e-07  1.210023e-06  0.000000e+00  0.000000e+00  0.000000e+00  0.000000e+00  
2.136714e-01  -2.881555e-07  -1.210020e-06  2.881555e-07  1.210020e-06  0.000000e+00  0.000000e+00  0.000000e+00  0.000000e+00  
2.192883e-01  -2.881549e-07  -1.210016e-06  2.881549e-07  1.210016e-06  0.000000e+00  0.000000e+00  0.000000e+00  0.000000e+00  
2.250528e-01  -2.881544e-07  -1.210012e-06  2.881544e-07  1.210012e-06  0.000000e+00  0.000000e+00  0.000000e+00  0.000000e+00  
2.309689e-01  -2.881537e-07  -1.210008e-06  2.881537e-07  1.210008e-06  0.000000e+00  0.000000e+00  0.000000e+00  0.000000e+00  
2.370405e-01  -2.881531e-07  -1.210003e-06  2.881531e-07  1.210003e-06  0.000000e+00  0.000000e+00  0.000000e+00  0.000000e+00  
2.432717e-01  -2.881524e-07  -1.209998e-06  2.881524e-07  1.209998e-06  0.000000e+00  0.000000e+00  0.000000e+00  0.000000e+00  
2.496667e-01  -2.881516e-07  -1.209994e-06  2.881516e-07  1.209994e-06  0.000000e+00  0.000000e+00  0.000000e+00  0.000000e+00  
2.562298e-01  -2.881509e-07  -1.209988e-06  2.881509e-07  1.209988e-06  0.000000e+00  0.000000e+00  0.000000e+00  0.000000e+00  
2.629654e-01  -2.881501e-07  -1.209983e-06  2.881501e-07  1.209983e-06  0.000000e+00  0.000000e+00  0.000000e+00  0.000000e+00  
2.698781e-01  -2.881492e-07  -1.209977e-06  2.881492e-07  1.209977e-06  0.000000e+00  0.000000e+00  0.000000e+00  0.000000e+00  
2.769725e-01  -2.881483e-07  -1.209971e-06  2.881483e-07  1.209971e-06  0.000000e+00  0.000000e+00  0.000000e+00  0.000000e+00  
2.842534e-01  -2.881474e-07  -1.209965e-06  2.881474e-07  1.209965e-06  0.000000e+00  0.000000e+00  0.000000e+00  0.000000e+00  
2.917257e-01  -2.881464e-07  -1.209958e-06  2.881464e-07  1.209958e-06  0.000000e+00  0.000000e+00  0.000000e+00  0.000000e+00  
2.993945e-01  -2.881453e-07  -1.209951e-06  2.881453e-07  1.209951e-06  0.000000e+00  0.000000e+00  0.000000e+00  0.000000e+00  
3.072648e-01  -2.881442e-07  -1.209943e-06  2.881442e-07  1.209943e-06  0.000000e+00  0.000000e+00  0.000000e+00  0.000000e+00  
3.153420e-01  -2.881431e-07  -1.209936e-06  2.881431e-07  1.209936e-06  0.000000e+00  0.000000e+00  0.000000e+00  0.000000e+00  
3.236316e-01  -2.881418e-07  -1.209927e-06  2.881418e-07  1.209927e-06  0.000000e+00  0.000000e+00  0.000000e+00  0.000000e+00  
3.321391e-01  -2.881405e-07  -1.209919e-06  2.881405e-07  1.209919e-06  0.000000e+00  0.000000e+00  0.000000e+00  0.000000e+00  
3.408702e-01  -2.881392e-07  -1.209909e-06  2.881392e-07  1.209909e-06  0.000000e+00  0.000000e+00  0.000000e+00  0.000000e+00  
3.498308e-01  -2.881377e-07  -1.209900e-06  2.881377e-07  1.209900e-06  0.000000e+00  0.000000e+00  0.000000e+00  0.000000e+00  
3.590270e-01  -2.881362e-07  -1.209889e-06  2.881362e-07  1.209889e-06  0.000000e+00  0.000000e+00  0.000000e+00  0.000000e+00  
3.684649e-01  -2.881346e-07  -1.209879e-06  2.881346e-07  1.209879e-06  0.000000e+00  0.000000e+00  0.000000e+00  0.000000e+00  
3.781509e-01  -2.881330e-07  -1.209867e-06  2.881330e-07  1.209867e-06  0.000000e+00  0.000000e+00  0.000000e+00  0.000000e+00  
3.880915e-01  -2.881312e-07  -1.209856e-06  2.881312e-07  1.209856e-06  0.000000e+00  0.000000e+00  0.000000e+00  0.000000e+00  
3.982935e-01  -2.881293e-07  -1.209843e-06  2.881293e-07  1.209843e-06  0.000000e+00  0.000000e+00  0.000000e+00  0.000000e+00  
4.087636e-01  -2.881274e-07  -1.209830e-06  2.881274e-07  1.209830e-06  0.000000e+00  0.000000e+00  0.000000e+00  0.000000e+00  
4.195090e-01  -2.881253e-07  -1.209816e-06  2.881253e-07  1.209816e-06  0.000000e+00  0.000000e+00  0.000000e+00  0.000000e+00  
4.305368e-01  -2.881232e-07  -1.209801e-06  2.881232e-07  1.209801e-06  0.000000e+00  0.000000e+00  0.000000e+00  0.000000e+00  
4.418546e-01  -2.881209e-07  -1.209786e-06  2.881209e-07  1.209786e-06  0.000000e+00  0.000000e+00  0.000000e+00  0.000000e+00  
4.534698e-01  -2.881185e-07  -1.209770e-06  2.881185e-07  1.209770e-06  0.000000e+00  0.000000e+00  0.000000e+00  0.000000e+00  
4.653904e-01  -2.881159e-07  -1.209752e-06  2.881159e-07  1.209752e-06  0.000000e+00  0.000000e+00  0.000000e+00  0.000000e+00  
4.776244e-01  -2.881133e-07  -1.209734e-06  2.881133e-07  1.209734e-06  0.000000e+00  0.000000e+00  0.000000e+00  0.000000e+00  
4.901799e-01  -2.881104e-07  -1.209715e-06  2.881104e-07  1.209715e-06  0.000000e+00  0.000000e+00  0.000000e+00  0.000000e+00  
5.030655e-01  -2.881075e-07  -1.209695e-06  2.881075e-07  1.209695e-06  0.000000e+00  0.000000e+00  0.000000e+00  0.000000e+00  
5.162898e-01  -2.881044e-07  -1.209674e-06  2.881044e-07  1.209674e-06  0.000000e+00  0.000000e+00  0.000000e+00  0.000000e+00  
5.298618e-01  -2.881011e-07  -1.209652e-06  2.881011e-07  1.209652e-06  0.000000e+00  0.000000e+00  0.000000e+00  0.000000e+00  
5.437905e-01  -2.880976e-07  -1.209629e-06  2.880976e-07  1.209629e-06  0.000000e+00  0.000000e+00  0.000000e+00  0.000000e+00  
5.580854e-01  -2.880940e-07  -1.209604e-06  2.880940e-07  1.209604e-06  0.000000e+00  0.000000e+00  0.000000e+00  0.000000e+00  
5.727561e-01  -2.880901e-07  -1.209578e-06  2.880901e-07  1.209578e-06  0.000000e+00  0.000000e+00  0.000000e+00  0.000000e+00  
5.878124e-01  -2.880861e-07  -1.209551e-06  2.880861e-07  1.209551e-06  0.000000e+00  0.000000e+00  0.000000e+00  0.000000e+00  
6.032645e-01  -2.880818e-07  -1.209522e-06  2.880818e-07  1.209522e-06  0.000000e+00  0.000000e+00  0.000000e+00  0.000000e+00  
6.191228e-01  -2.880773e-07  -1.209492e-06  2.880773e-07  1.209492e-06  0.000000e+00  0.000000e+00  0.000000e+00  0.000000e+00  
6.353980e-01  -2.880726e-07  -1.209460e-06  2.880726e-07  1.209460e-06  0.000000e+00  0.000000e+00  0.000000e+00  0.000000e+00  
6.521011e-01  -2.880676e-07  -1.209427e-06  2.880676e-07  1.209426e-06  0.000000e+00  0.000000e+00  0.000000e+00  0.000000e+00  
6.692432e-01  -2.880624e-07  -1.209391e-06  2.880624e-07  1.209391e-06  0.000000e+00  0.000000e+00  0.000000e+00  0.000000e+00  
6.868359e-01  -2.880569e-07  -1.209354e-06  2.880569e-07  1.209354e-06  0.000000e+00  0.000000e+00  0.000000e+00  0.000000e+00  
7.048911e-01  -2.880511e-07  -1.209315e-06  2.880510e-07  1.209315e-06  0.000000e+00  0.000000e+00  0.000000e+00  0.000000e+00  
7.234209e-01  -2.880449e-07  -1.209273e-06  2.880449e-07  1.209273e-06  0.000000e+00  0.000000e+00  0.000000e+00  0.000000e+00  
7.424378e-01  -2.880385e-07  -1.209230e-06  2.880385e-07  1.209230e-06  0.000000e+00  0.000000e+00  0.000000e+00  0.000000e+00  
7.619546e-01  -2.880317e-07  -1.209184e-06  2.880317e-07  1.209184e-06  0.000000e+00  0.000000e+00  0.000000e+00  0.000000e+00  
7.819845e-01  -2.880245e-07  -1.209136e-06  2.880245e-07  1.209136e-06  0.000000e+00  0.000000e+00  0.000000e+00  0.000000e+00  
8.025409e-01  -2.880170e-07  -1.209085e-06  2.880170e-07  1.209085e-06  0.000000e+00  0.000000e+00  0.000000e+00  0.000000e+00  
8.236377e-01  -2.880091e-07  -1.209031e-06  2.880090e-07  1.209031e-06  0.000000e+00  0.000000e+00  0.000000e+00  0.000000e+00  
8.452891e-01  -2.880007e-07  -1.208975e-06  2.880007e-07  1.208975e-06  0.000000e+00  0.000000e+00  0.000000e+00  0.000000e+00  
8.675096e-01  -2.879919e-07  -1.208916e-06  2.879919e-07  1.208915e-06  0.000000e+00  0.000000e+00  0.000000e+00  0.000000e+00  
8.903143e-01  -2.879826e-07  -1.208853e-06  2.879826e-07  1.208853e-06  0.000000e+00  0.000000e+00  0.000000e+00  0.000000e+00  
9.137184e-01  -2.879729e-07  -1.208787e-06  2.879728e-07  1.208787e-06  0.000000e+00  0.000000e+00  0.000000e+00  0.000000e+00  
9.377378e-01  -2.879626e-07  -1.208718e-06  2.879625e-07  1.208717e-06  0.000000e+00  0.000000e+00  0.000000e+00  0.000000e+00  
9.623886e-01  -2.879518e-07  -1.208645e-06  2.879517e-07  1.208644e-06  0.000000e+00  0.000000e+00  0.000000e+00  0.000000e+00  
9.876873e-01  -2.879403e-07  -1.208568e-06  2.879403e-07  1.208567e-06  0.000000e+00  0.000000e+00  0.000000e+00  0.000000e+00  
1.013651e+00  -2.879283e-07  -1.208487e-06  2.879283e-07  1.208486e-06  0.000000e+00  0.000000e+00  0.000000e+00  0.000000e+00  
1.040298e+00  -2.879157e-07  -1.208402e-06  2.879156e-07  1.208401e-06  0.000000e+00  0.000000e+00  0.000000e+00  0.000000e+00  
1.067644e+00  -2.879024e-07  -1.208312e-06  2.879023e-07  1.208311e-06  0.000000e+00  0.000000e+00  0.000000e+00  0.000000e+00  
1.095710e+00  -2.878883e-07  -1.208217e-06  2.878882e-07  1.208216e-06  0.000000e+00  0.000000e+00  0.000000e+00  0.000000e+00  
1.124513e+00  -2.878735e-07  -1.208117e-06  2.878734e-07  1.208116e-06  0.000000e+00  0.000000e+00  0.000000e+00  0.000000e+00  
1.154074e+00  -2.878580e-07  -1.208012e-06  2.878579e-07  1.208011e-06  0.000000e+00  0.000000e+00  0.000000e+00  0.000000e+00  
1.184412e+00  -2.878416e-07  -1.207902e-06  2.878415e-07  1.207901e-06  0.000000e+00  0.000000e+00  0.000000e+00  0.000000e+00  
1.215547e+00  -2.878243e-07  -1.207786e-06  2.878242e-07  1.207784e-06  0.000000e+00  0.000000e+00  0.000000e+00  0.000000e+00  
1.247501e+00  -2.878062e-07  -1.207663e-06  2.878060e-07  1.207662e-06  0.000000e+00  0.000000e+00  0.000000e+00  0.000000e+00  
1.280294e+00  -2.877870e-07  -1.207534e-06  2.877868e-07  1.207532e-06  0.000000e+00  0.000000e+00  0.000000e+00  0.000000e+00  
1.313950e+00  -2.877669e-07  -1.207401e-06  2.877667e-07  1.207399e-06  0.000000e+00  0.000000e+00  0.000000e+00  0.000000e+00  
1.348491e+00  -2.877456e-07  -1.207258e-06  2.877454e-07  1.207256e-06  0.000000e+00  0.000000e+00  0.000000e+00  0.000000e+00  
1.383939e+00  -2.877233e-07  -1.207104e-06  2.877230e-07  1.207102e-06  0.000000e+00  0.000000e+00  0.000000e+00  0.000000e+00  
1.420319e+00  -2.876997e-07  -1.206946e-06  2.876995e-07  1.206943e-06  0.000000e+00  0.000000e+00  0.000000e+00  0.000000e+00  
1.457656e+00  -2.876749e-07  -1.206781e-06  2.876747e-07  1.206779e-06  0.000000e+00  0.000000e+00  0.000000e+00  0.000000e+00  
1.495974e+00  -2.876488e-07  -1.206606e-06  2.876485e-07  1.206602e-06  0.000000e+00  0.000000e+00  0.000000e+00  0.000000e+00  
1.535300e+00  -2.876213e-07  -1.206420e-06  2.876210e-07  1.206417e-06  0.000000e+00  0.000000e+00  0.000000e+00  0.000000e+00  
1.575659e+00  -2.875924e-07  -1.206225e-06  2.875920e-07  1.206222e-06  0.000000e+00  0.000000e+00  0.000000e+00  0.000000e+00  
1.617079e+00  -2.875619e-07  -1.206020e-06  2.875615e-07  1.206016e-06  0.000000e+00  0.000000e+00  0.000000e+00  0.000000e+00  
1.659588e+00  -2.875298e-07  -1.205804e-06  2.875293e-07  1.205799e-06  0.000000e+00  0.000000e+00  0.000000e+00  0.000000e+00  
1.703214e+00  -2.874960e-07  -1.205576e-06  2.874955e-07  1.205571e-06  0.000000e+00  0.000000e+00  0.000000e+00  0.000000e+00  
1.747987e+00  -2.874604e-07  -1.205337e-06  2.874598e-07  1.205331e-06  0.000000e+00  0.000000e+00  0.000000e+00  0.000000e+00  
1.793938e+00  -2.874230e-07  -1.205085e-06  2.874223e-07  1.205078e-06  0.000000e+00  0.000000e+00  0.000000e+00  0.000000e+00  
1.841096e+00  -2.873835e-07  -1.204816e-06  2.873828e-07  1.204809e-06  0.000000e+00  0.000000e+00  0.000000e+00  0.000000e+00  
1.889494e+00  -2.873420e-07  -1.204540e-06  2.873412e-07  1.204532e-06  0.000000e+00  0.000000e+00  0.000000e+00  0.000000e+00  
1.939164e+00  -2.872982e-07  -1.204245e-06  2.872973e-07  1.204236e-06  0.000000e+00  0.000000e+00  0.000000e+00  0.000000e+00  
1.990139e+00  -2.872522e-07  -1.203935e-06  2.872512e-07  1.203926e-06  0.000000e+00  0.000000e+00  0.000000e+00  0.000000e+00  
2.042455e+00  -2.872037e-07  -1.203609e-06  2.872026e-07  1.203598e-06  0.000000e+00  0.000000e+00  0.000000e+00  0.000000e+00  
2.096146e+00  -2.871526e-07  -1.203266e-06  2.871514e-07  1.203254e-06  0.000000e+00  0.000000e+00  0.000000e+00  0.000000e+00  
2.151249e+00  -2.870989e-07  -1.202905e-06  2.870975e-07  1.202891e-06  0.000000e+00  0.000000e+00  0.000000e+00  0.000000e+00  
2.207799e+00  -2.870423e-07  -1.202525e-06  2.870408e-07  1.202510e-06  0.000000e+00  0.000000e+00  0.000000e+00  0.000000e+00  
2.265837e+00  -2.869827e-07  -1.202124e-06  2.869811e-07  1.202108e-06  0.000000e+00  0.000000e+00  0.000000e+00  0.000000e+00  
2.325400e+00  -2.869200e-07  -1.201703e-06  2.869182e-07  1.201685e-06  0.000000e+00  0.000000e+00  0.000000e+00  0.000000e+00  
2.386529e+00  -2.868540e-07  -1.201260e-06  2.868520e-07  1.201239e-06  0.000000e+00  0.000000e+00  0.000000e+00  0.000000e+00  
2.449265e+00  -2.867845e-07  -1.200793e-06  2.867823e-07  1.200771e-06  0.000000e+00  0.000000e+00  0.000000e+00  0.000000e+00  
2.513650e+00  -2.867114e-07  -1.200302e-06  2.867089e-07  1.200277e-06  0.000000e+00  0.000000e+00  0.000000e+00  0.000000e+00  
2.579728e+00  -2.866344e-07  -1.199785e-06  2.866316e-07  1.199758e-06  0.000000e+00  0.000000e+00  0.000000e+00  0.000000e+00  
2.647542e+00  -2.865533e-07  -1.199242e-06  2.865503e-07  1.199211e-06  0.000000e+00  0.000000e+00  0.000000e+00  0.000000e+00  
2.717139e+00  -2.864680e-07  -1.198670e-06  2.864646e-07  1.198636e-06  0.000000e+00  0.000000e+00  0.000000e+00  0.000000e+00  
2.788566e+00  -2.863782e-07  -1.198068e-06  2.863745e-07  1.198030e-06  0.000000e+00  0.000000e+00  0.000000e+00  0.000000e+00  
2.861871e+00  -2.862838e-07  -1.197434e-06  2.862796e-07  1.197393e-06  0.000000e+00  0.000000e+00  0.000000e+00  0.000000e+00  
2.937102e+00  -2.861843e-07  -1.196768e-06  2.861797e-07  1.196722e-06  0.000000e+00  0.000000e+00  0.000000e+00  0.000000e+00  
3.014311e+00  -2.860797e-07  -1.196068e-06  2.860745e-07  1.196016e-06  0.000000e+00  0.000000e+00  0.000000e+00  0.000000e+00  
3.093550e+00  -2.859695e-07  -1.195330e-06  2.859638e-07  1.195274e-06  0.000000e+00  0.000000e+00  0.000000e+00  0.000000e+00  
3.174871e+00  -2.858537e-07  -1.194555e-06  2.858473e-07  1.194492e-06  0.000000e+00  0.000000e+00  0.000000e+00  0.000000e+00  
3.258331e+00  -2.857317e-07  -1.193740e-06  2.857247e-07  1.193670e-06  0.000000e+00  0.000000e+00  0.000000e+00  0.000000e+00  
3.343984e+00  -2.856034e-07  -1.192882e-06  2.855956e-07  1.192805e-06  0.000000e+00  0.000000e+00  0.000000e+00  0.000000e+00  
3.431889e+00  -2.854684e-07  -1.191981e-06  2.854598e-07  1.191895e-06  0.000000e+00  0.000000e+00  0.000000e+00  0.000000e+00  
3.522105e+00  -2.853264e-07  -1.191032e-06  2.853169e-07  1.190938e-06  0.000000e+00  0.000000e+00  0.000000e+00  0.000000e+00  
3.614692e+00  -2.851770e-07  -1.190035e-06  2.851664e-07  1.189931e-06  0.000000e+00  0.000000e+00  0.000000e+00  0.000000e+00  
3.709713e+00  -2.850199e-07  -1.188988e-06  2.850081e-07  1.188871e-06  0.000000e+00  0.000000e+00  0.000000e+00  0.000000e+00  
3.807232e+00  -2.848546e-07  -1.187886e-06  2.848416e-07  1.187757e-06  0.000000e+00  0.000000e+00  0.000000e+00  0.000000e+00  
3.907315e+00  -2.846807e-07  -1.186728e-06  2.846663e-07  1.186586e-06  0.000000e+00  0.000000e+00  0.000000e+00  0.000000e+00  
4.010029e+00  -2.844979e-07  -1.185511e-06  2.844819e-07  1.185391e-06  0.000000e+00  0.000000e+00  0.000000e+00  0.000000e+00  
4.115442e+00  -2.843056e-07  -1.184270e-06  2.842879e-07  1.184095e-06  0.000000e+00  0.000000e+00  0.000000e+00  0.000000e+00  
4.223627e+00  -2.841034e-07  -1.182927e-06  2.840838e-07  1.182733e-06  0.000000e+00  0.000000e+00  0.000000e+00  0.000000e+00  
4.334655e+00  -2.838908e-07  -1.181515e-06  2.838691e-07  1.181300e-06  0.000000e+00  0.000000e+00  0.000000e+00  0.000000e+00  
4.448603e+00  -2.836673e-07  -1.180032e-06  2.836433e-07  1.179795e-06  0.000000e+00  0.000000e+00  0.000000e+00  0.000000e+00  
4.565545e+00  -2.834324e-07  -1.178475e-06  2.834058e-07  1.178212e-06  0.000000e+00  0.000000e+00  0.000000e+00  0.000000e+00  
4.685562e+00  -2.831855e-07  -1.176840e-06  2.831560e-07  1.176549e-06  0.000000e+00  0.000000e+00  0.000000e+00  0.000000e+00  
4.808734e+00  -2.829259e-07  -1.175123e-06  2.828932e-07  1.174801e-06  0.000000e+00  0.000000e+00  0.000000e+00  0.000000e+00  
4.935143e+00  -2.826531e-07  -1.173321e-06  2.826170e-07  1.172964e-06  0.000000e+00  0.000000e+00  0.000000e+00  0.000000e+00  
5.064876e+00  -2.823665e-07  -1.171429e-06  2.823265e-07  1.171034e-06  0.000000e+00  0.000000e+00  0.000000e+00  0.000000e+00  
5.198019e+00  -2.820654e-07  -1.169444e-06  2.820210e-07  1.169007e-06  0.000000e+00  0.000000e+00  0.000000e+00  0.000000e+00  
5.334662e+00  -2.817491e-07  -1.167362e-06  2.817000e-07  1.166878e-06  0.000000e+00  0.000000e+00  0.000000e+00  0.000000e+00  
5.474896e+00  -2.814168e-07  -1.165177e-06  2.813624e-07  1.164642e-06  0.000000e+00  0.000000e+00  0.000000e+00  0.000000e+00  
5.618818e+00  -2.810679e-07  -1.162886e-06  2.810077e-07  1.162302e-06  0.000000e+00  0.000000e+00  0.000000e+00  0.000000e+00  
5.766522e+00  -2.807015e-07  -1.160491e-06  2.806348e-07  1.159837e-06  0.000000e+00  0.000000e+00  0.000000e+00  0.000000e+00  
5.918110e+00  -2.803168e-07  -1.157973e-06  2.802430e-07  1.157250e-06  0.000000e+00  0.000000e+00  0.000000e+00  0.000000e+00  
6.073682e+00  -2.799130e-07  -1.155333e-06  2.798314e-07  1.154534e-06  0.000000e+00  0.000000e+00  0.000000e+00  0.000000e+00  
6.233344e+00  -2.794891e-07  -1.152568e-06  2.793990e-07  1.151684e-06  0.000000e+00  0.000000e+00  0.000000e+00  0.000000e+00  
6.397203e+00  -2.790445e-07  -1.149671e-06  2.789447e-07  1.148695e-06  0.000000e+00  0.000000e+00  0.000000e+00  0.000000e+00  
6.565369e+00  -2.785780e-07  -1.146637e-06  2.784675e-07  1.145559e-06  0.000000e+00  0.000000e+00  0.000000e+00  0.000000e+00  
6.737956e+00  -2.780886e-07  -1.143462e-06  2.779665e-07  1.142271e-06  0.000000e+00  0.000000e+00  0.000000e+00  0.000000e+00  
6.915080e+00  -2.775754e-07  -1.140138e-06  2.774403e-07  1.138821e-06  0.000000e+00  0.000000e+00  0.000000e+00  0.000000e+00  
7.096861e+00  -2.770373e-07  -1.136660e-06  2.768880e-07  1.135208e-06  0.000000e+00  0.000000e+00  0.000000e+00  0.000000e+00  
7.283419e+00  -2.764733e-07  -1.133023e-06  2.763083e-07  1.131421e-06  0.000000e+00  0.000000e+00  0.000000e+00  0.000000e+00  
7.474882e+00  -2.758822e-07  -1.129222e-06  2.756998e-07  1.127453e-06  0.000000e+00  0.000000e+00  0.000000e+00  0.000000e+00  
7.671378e+00  -2.752630e-07  -1.125249e-06  2.750615e-07  1.123298e-06  0.000000e+00  0.000000e+00  0.000000e+00  0.000000e+00  
7.873039e+00  -2.746144e-07  -1.121099e-06  2.743918e-07  1.118948e-06  0.000000e+00  0.000000e+00  0.000000e+00  0.000000e+00  
8.080002e+00  -2.739352e-07  -1.116765e-06  2.736894e-07  1.114393e-06  0.000000e+00  0.000000e+00  0.000000e+00  0.000000e+00  
8.292405e+00  -2.732243e-07  -1.112242e-06  2.729529e-07  1.109628e-06  0.000000e+00  0.000000e+00  0.000000e+00  0.000000e+00  
8.510391e+00  -2.724804e-07  -1.107523e-06  2.721808e-07  1.104643e-06  0.000000e+00  0.000000e+00  0.000000e+00  0.000000e+00  
8.734108e+00  -2.717021e-07  -1.102602e-06  2.713715e-07  1.099430e-06  0.000000e+00  0.000000e+00  0.000000e+00  0.000000e+00  
8.963706e+00  -2.708883e-07  -1.097472e-06  2.705223e-07  1.093952e-06  0.000000e+00  0.000000e+00  0.000000e+00  0.000000e+00  
9.199339e+00  -2.700363e-07  -1.092101e-06  2.696340e-07  1.088253e-06  0.000000e+00  0.000000e+00  0.000000e+00  0.000000e+00  
9.441167e+00  -2.691472e-07  -1.086538e-06  2.687036e-07  1.082291e-06  0.000000e+00  0.000000e+00  0.000000e+00  0.000000e+00  
9.689352e+00  -2.682186e-07  -1.080728e-06  2.677296e-07  1.076082e-06  0.000000e+00  0.000000e+00  0.000000e+00  0.000000e+00  
9.944060e+00  -2.672489e-07  -1.074709e-06  2.667101e-07  1.069603e-06  0.000000e+00  0.000000e+00  0.000000e+00  0.000000e+00  
1.020546e+01  -2.662369e-07  -1.068454e-06  2.656433e-07  1.062844e-06  0.000000e+00  0.000000e+00  0.000000e+00  0.000000e+00  
1.047374e+01  -2.651811e-07  -1.061956e-06  2.645275e-07  1.055802e-06  0.000000e+00  0.000000e+00  0.000000e+00  0.000000e+00  
1.074907e+01  -2.640803e-07  -1.055213e-06  2.633607e-07  1.048458e-06  0.000000e+00  0.000000e+00  0.000000e+00  0.000000e+00  
1.103164e+01  -2.629329e-07  -1.048218e-06  2.621411e-07  1.040806e-06  0.000000e+00  0.000000e+00  0.000000e+00  0.000000e+00  
1.132163e+01  -2.617378e-07  -1.040969e-06  2.608669e-07  1.032813e-06  0.000000e+00  0.000000e+00  0.000000e+00  0.000000e+00  
1.161925e+01  -2.604934e-07  -1.033460e-06  2.595359e-07  1.024523e-06  0.000000e+00  0.000000e+00  0.000000e+00  0.000000e+00  
1.192469e+01  -2.591987e-07  -1.025662e-06  2.581464e-07  1.015908e-06  0.000000e+00  0.000000e+00  0.000000e+00  0.000000e+00  
1.223816e+01  -2.578522e-07  -1.017629e-06  2.566963e-07  1.006966e-06  0.000000e+00  0.000000e+00  0.000000e+00  0.000000e+00  
1.255987e+01  -2.564528e-07  -1.009328e-06  2.551837e-07  9.976686e-07  0.000000e+00  0.000000e+00  0.000000e+00  0.000000e+00  
1.289004e+01  -2.549993e-07  -1.000763e-06  2.536067e-07  9.880178e-07  0.000000e+00  0.000000e+00  0.000000e+00  0.000000e+00  
1.322888e+01  -2.534906e-07  -9.918706e-07  2.519633e-07  9.780083e-07  0.000000e+00  0.000000e+00  0.000000e+00  0.000000e+00  
1.357664e+01  -2.519258e-07  -9.828391e-07  2.502515e-07  9.676546e-07  0.000000e+00  0.000000e+00  0.000000e+00  0.000000e+00  
1.393353e+01  -2.503038e-07  -9.734718e-07  2.484701e-07  9.569103e-07  0.000000e+00  0.000000e+00  0.000000e+00  0.000000e+00  
1.429981e+01  -2.486238e-07  -9.638403e-07  2.466155e-07  9.457921e-07  0.000000e+00  0.000000e+00  0.000000e+00  0.000000e+00  
1.467572e+01  -2.468851e-07  -9.539692e-07  2.446875e-07  9.342897e-07  0.000000e+00  0.000000e+00  0.000000e+00  0.000000e+00  
1.506150e+01  -2.450870e-07  -9.438098e-07  2.426840e-07  9.224121e-07  0.000000e+00  0.000000e+00  0.000000e+00  0.000000e+00  
1.545743e+01  -2.432290e-07  -9.334171e-07  2.406033e-07  9.101558e-07  0.000000e+00  0.000000e+00  0.000000e+00  0.000000e+00  
1.586377e+01  -2.413109e-07  -9.227673e-07  2.384438e-07  8.975140e-07  0.000000e+00  0.000000e+00  0.000000e+00  0.000000e+00  
1.628079e+01  -2.393323e-07  -9.118765e-07  2.362038e-07  8.844766e-07  0.000000e+00  0.000000e+00  0.000000e+00  0.000000e+00  
1.670877e+01  -2.372929e-07  -9.007465e-07  2.338822e-07  8.710812e-07  0.000000e+00  0.000000e+00  0.000000e+00  0.000000e+00  
1.714800e+01  -2.351935e-07  -8.894045e-07  2.314773e-07  8.572829e-07  0.000000e+00  0.000000e+00  0.000000e+00  0.000000e+00  
1.759878e+01  -2.330340e-07  -8.778502e-07  2.289888e-07  8.431226e-07  0.000000e+00  0.000000e+00  0.000000e+00  0.000000e+00  
1.806141e+01  -2.308149e-07  -8.660949e-07  2.264149e-07  8.285971e-07  0.000000e+00  0.000000e+00  0.000000e+00  0.000000e+00  
1.853620e+01  -2.285369e-07  -8.541507e-07  2.237559e-07  8.136918e-07  0.000000e+00  0.000000e+00  0.000000e+00  0.000000e+00  
1.902347e+01  -2.262012e-07  -8.420181e-07  2.209920e-07  7.983936e-07  0.000000e+00  0.000000e+00  0.000000e+00  0.000000e+00  
1.952355e+01  -2.237892e-07  -8.296963e-07  2.181609e-07  7.828273e-07  0.000000e+00  0.000000e+00  0.000000e+00  0.000000e+00  
2.003677e+01  -2.213410e-07  -8.172791e-07  2.152396e-07  7.668137e-07  0.000000e+00  0.000000e+00  0.000000e+00  0.000000e+00  
2.056349e+01  -2.188388e-07  -8.047183e-07  2.122378e-07  7.506884e-07  0.000000e+00  0.000000e+00  0.000000e+00  0.000000e+00  
2.110405e+01  -2.162843e-07  -7.920340e-07  2.091406e-07  7.339187e-07  0.000000e+00  0.000000e+00  0.000000e+00  0.000000e+00  
2.165882e+01  -2.136793e-07  -7.792579e-07  2.059698e-07  7.172741e-07  0.000000e+00  0.000000e+00  0.000000e+00  0.000000e+00  
2.222818e+01  -2.110260e-07  -7.663990e-07  2.027045e-07  7.001167e-07  0.000000e+00  0.000000e+00  0.000000e+00  0.000000e+00  
2.281250e+01  -2.083268e-07  -7.534746e-07  1.993548e-07  6.825488e-07  0.000000e+00  0.000000e+00  0.000000e+00  0.000000e+00  
2.341219e+01  -2.055843e-07  -7.405021e-07  1.959423e-07  6.651066e-07  0.000000e+00  0.000000e+00  0.000000e+00  0.000000e+00  
2.402763e+01  -2.028009e-07  -7.274923e-07  1.924445e-07  6.474209e-07  0.000000e+00  0.000000e+00  0.000000e+00  0.000000e+00  
2.465926e+01  -1.999802e-07  -7.144745e-07  1.888410e-07  6.291262e-07  0.000000e+00  0.000000e+00  0.000000e+00  0.000000e+00  
2.530749e+01  -1.971246e-07  -7.014598e-07  1.851732e-07  6.108536e-07  0.000000e+00  0.000000e+00  0.000000e+00  0.000000e+00  
2.597276e+01  -1.942348e-07  -6.884478e-07  1.814614e-07  5.926321e-07  0.000000e+00  0.000000e+00  0.000000e+00  0.000000e+00  
2.665552e+01  -1.913195e-07  -6.754889e-07  1.776729e-07  5.742064e-07  0.000000e+00  0.000000e+00  0.000000e+00  0.000000e+00  
2.735623e+01  -1.883795e-07  -6.625807e-07  1.737383e-07  5.552205e-07  0.000000e+00  0.000000e+00  0.000000e+00  0.000000e+00  
2.807535e+01  -1.854183e-07  -6.497488e-07  1.698852e-07  5.370617e-07  0.000000e+00  0.000000e+00  0.000000e+00  0.000000e+00  
2.881338e+01  -1.824380e-07  -6.369154e-07  1.658484e-07  5.179898e-07  0.000000e+00  0.000000e+00  0.000000e+00  0.000000e+00  
2.957081e+01  -1.794445e-07  -6.242396e-07  1.618195e-07  4.994127e-07  0.000000e+00  0.000000e+00  0.000000e+00  0.000000e+00  
3.034816e+01  -1.764402e-07  -6.116665e-07  1.577416e-07  4.806671e-07  0.000000e+00  0.000000e+00  0.000000e+00  0.000000e+00  
3.114593e+01  -1.734287e-07  -5.992071e-07  1.536376e-07  4.622581e-07  0.000000e+00  0.000000e+00  0.000000e+00  0.000000e+00  
3.196468e+01  -1.704129e-07  -5.868712e-07  1.494132e-07  4.434287e-07  0.000000e+00  0.000000e+00  0.000000e+00  0.000000e+00  
3.280495e+01  -1.673988e-07  -5.746969e-07  1.452661e-07  4.251101e-07  0.000000e+00  0.000000e+00  0.000000e+00  0.000000e+00  
3.366731e+01  -1.643844e-07  -5.625904e-07  1.409716e-07  4.064376e-07  0.000000e+00  0.000000e+00  0.000000e+00  0.000000e+00  
3.455234e+01  -1.613774e-07  -5.506331e-07  1.366504e-07  3.879677e-07  0.000000e+00  0.000000e+00  0.000000e+00  0.000000e+00  
3.546064e+01  -1.583762e-07  -5.388677e-07  1.324279e-07  3.699937e-07  0.000000e+00  0.000000e+00  0.000000e+00  0.000000e+00  
3.639281e+01  -1.553921e-07  -5.272599e-07  1.281139e-07  3.520455e-07  0.000000e+00  0.000000e+00  0.000000e+00  0.000000e+00  
3.734949e+01  -1.524177e-07  -5.157948e-07  1.238062e-07  3.342535e-07  0.000000e+00  0.000000e+00  0.000000e+00  0.000000e+00  
3.833131e+01  -1.494714e-07  -5.045279e-07  1.195188e-07  3.167900e-07  0.000000e+00  0.000000e+00  0.000000e+00  0.000000e+00  
3.933894e+01  -1.465351e-07  -4.934340e-07  1.151104e-07  2.992937e-07  0.000000e+00  0.000000e+00  0.000000e+00  0.000000e+00  
4.037307e+01  -1.436273e-07  -4.824902e-07  1.109101e-07  2.825663e-07  0.000000e+00  0.000000e+00  0.000000e+00  0.000000e+00  
4.143437e+01  -1.407330e-07  -4.716807e-07  1.065065e-07  2.656143e-07  0.000000e+00  0.000000e+00  0.000000e+00  0.000000e+00  
4.252358e+01  -1.378767e-07  -4.610858e-07  1.023299e-07  2.494397e-07  0.000000e+00  0.000000e+00  0.000000e+00  0.000000e+00  
4.364142e+01  -1.350490e-07  -4.506543e-07  9.800918e-08  2.331260e-07  0.000000e+00  0.000000e+00  0.000000e+00  0.000000e+00  
4.478864e+01  -1.322528e-07  -4.404131e-07  9.387716e-08  2.175814e-07  0.000000e+00  0.000000e+00  0.000000e+00  0.000000e+00  
4.596602e+01  -1.294870e-07  -4.303237e-07  8.967977e-08  2.020994e-07  0.000000e+00  0.000000e+00  0.000000e+00  0.000000e+00  
4.717435e+01  -1.267467e-07  -4.203812e-07  8.554667e-08  1.870949e-07  0.000000e+00  0.000000e+00  0.000000e+00  0.000000e+00  
4.841445e+01  -1.240477e-07  -4.106547e-07  8.139017e-08  1.722835e-07  0.000000e+00  0.000000e+00  0.000000e+00  0.000000e+00  
4.968714e+01  -1.213820e-07  -4.010503e-07  7.732691e-08  1.579548e-07  0.000000e+00  0.000000e+00  0.000000e+00  0.000000e+00  
5.099329e+01  -1.187534e-07  -3.916778e-07  7.326855e-08  1.439875e-07  0.000000e+00  0.000000e+00  0.000000e+00  0.000000e+00  
5.233378e+01  -1.161753e-07  -3.824536e-07  6.936055e-08  1.305540e-07  0.000000e+00  0.000000e+00  0.000000e+00  0.000000e+00  
5.370950e+01  -1.136217e-07  -3.733657e-07  6.539701e-08  1.173364e-07  0.000000e+00  0.000000e+00  0.000000e+00  0.000000e+00  
5.512139e+01  -1.111059e-07  -3.644411e-07  6.165203e-08  1.048412e-07  0.000000e+00  0.000000e+00  0.000000e+00  0.000000e+00  
5.657039e+01  -1.086231e-07  -3.556778e-07  5.785327e-08  9.253117e-08  0.000000e+00  0.000000e+00  0.000000e+00  0.000000e+00  
5.805749e+01  -1.061837e-07  -3.471079e-07  5.424997e-08  8.087442e-08  0.000000e+00  0.000000e+00  0.000000e+00  0.000000e+00  
5.958367e+01  -1.037858e-07  -3.386829e-07  5.052349e-08  6.926983e-08  0.000000e+00  0.000000e+00  0.000000e+00  0.000000e+00  
6.114998e+01  -1.014233e-07  -3.303896e-07  4.707161e-08  5.848875e-08  0.000000e+00  0.000000e+00  0.000000e+00  0.000000e+00  
6.275746e+01  -9.909947e-08  -3.222442e-07  4.355628e-08  4.786747e-08  0.000000e+00  0.000000e+00  0.000000e+00  0.000000e+00  
6.440720e+01  -9.680749e-08  -3.142459e-07  4.021149e-08  3.782326e-08  0.000000e+00  0.000000e+00  0.000000e+00  0.000000e+00  
6.610030e+01  -9.457120e-08  -3.064665e-07  3.689891e-08  2.813436e-08  0.000000e+00  0.000000e+00  0.000000e+00  0.000000e+00  
6.783791e+01  -9.236346e-08  -2.987964e-07  3.375626e-08  1.900324e-08  0.000000e+00  0.000000e+00  0.000000e+00  0.000000e+00  
6.962120e+01  -9.019153e-08  -2.912525e-07  3.061377e-08  1.015431e-08  0.000000e+00  0.000000e+00  0.000000e+00  0.000000e+00  
7.145137e+01  -8.805738e-08  -2.838532e-07  2.763877e-08  1.882421e-09  0.000000e+00  0.000000e+00  0.000000e+00  0.000000e+00  
7.332964e+01  -8.597803e-08  -2.766240e-07  2.476341e-08  -6.020905e-09  0.000000e+00  0.000000e+00  0.000000e+00  0.000000e+00  
7.525730e+01  -8.391849e-08  -2.695070e-07  2.193889e-08  -1.357971e-08  0.000000e+00  0.000000e+00  0.000000e+00  0.000000e+00  
7.723562e+01  -8.189580e-08  -2.625290e-07  1.926664e-08  -2.061981e-08  0.000000e+00  0.000000e+00  0.000000e+00  0.000000e+00  
7.926595e+01  -7.990972e-08  -2.556871e-07  1.663223e-08  -2.735205e-08  0.000000e+00  0.000000e+00  0.000000e+00  0.000000e+00  
8.134966e+01  -7.795625e-08  -2.489767e-07  1.410045e-08  -3.367653e-08  0.000000e+00  0.000000e+00  0.000000e+00  0.000000e+00  
8.348813e+01  -7.604194e-08  -2.424050e-07  1.169571e-08  -3.957558e-08  0.000000e+00  0.000000e+00  0.000000e+00  0.000000e+00  
8.568283e+01  -7.416305e-08  -2.359649e-07  9.383941e-09  -4.509542e-08  0.000000e+00  0.000000e+00  0.000000e+00  0.000000e+00  
8.793521e+01  -7.231922e-08  -2.296551e-07  7.193254e-09  -5.022603e-08  0.000000e+00  0.000000e+00  0.000000e+00  0.000000e+00  
9.024681e+01  -7.051610e-08  -2.234906e-07  5.082684e-09  -5.498855e-08  0.000000e+00  0.000000e+00  0.000000e+00  0.000000e+00  
9.261917e+01  -6.873975e-08  -2.174322e-07  3.043966e-09  -5.944434e-08  0.000000e+00  0.000000e+00  0.000000e+00  0.000000e+00  
9.505390e+01  -6.699830e-08  -2.114960e-07  1.154555e-09  -6.348808e-08  0.000000e+00  0.000000e+00  0.000000e+00  0.000000e+00  
9.755263e+01  -6.529031e-08  -2.056897e-07  -6.837871e-10  -6.725579e-08  0.000000e+00  0.000000e+00  0.000000e+00  0.000000e+00  
1.001170e+02  -6.361450e-08  -2.000008e-07  -2.398910e-09  -7.065417e-08  0.000000e+00  0.000000e+00  0.000000e+00  0.000000e+00  
1.027489e+02  -6.197214e-08  -1.944305e-07  -4.037628e-09  -7.376578e-08  0.000000e+00  0.000000e+00  0.000000e+00  0.000000e+00  
1.054499e+02  -6.036193e-08  -1.889913e-07  -5.568697e-09  -7.655267e-08  0.000000e+00  0.000000e+00  0.000000e+00  0.000000e+00  
1.082219e+02  -5.878346e-08  -1.836537e-07  -7.004207e-09  -7.903724e-08  0.000000e+00  0.000000e+00  0.000000e+00  0.000000e+00  
1.110668e+02  -5.724819e-08  -1.784379e-07  -8.382430e-09  -8.127917e-08  0.000000e+00  0.000000e+00  0.000000e+00  0.000000e+00  
1.139864e+02  -5.573147e-08  -1.733246e-07  -9.648321e-09  -8.321734e-08  0.000000e+00  0.000000e+00  0.000000e+00  0.000000e+00  
1.169829e+02  -5.424896e-08  -1.683331e-07  -1.082868e-08  -8.489456e-08  0.000000e+00  0.000000e+00  0.000000e+00  0.000000e+00  
1.200580e+02  -5.279232e-08  -1.634375e-07  -1.193940e-08  -8.633603e-08  0.000000e+00  0.000000e+00  0.000000e+00  0.000000e+00  
1.232141e+02  -5.136525e-08  -1.586500e-07  -1.296386e-08  -8.753056e-08  0.000000e+00  0.000000e+00  0.000000e+00  0.000000e+00  
1.264531e+02  -4.996734e-08  -1.539674e-07  -1.391158e-08  -8.850030e-08  0.000000e+00  0.000000e+00  0.000000e+00  0.000000e+00  
1.297772e+02  -4.859818e-08  -1.493885e-07  -1.478219e-08  -8.925114e-08  0.000000e+00  0.000000e+00  0.000000e+00  0.000000e+00  
1.331887e+02  -4.725736e-08  -1.449114e-07  -1.557273e-08  -8.979002e-08  0.000000e+00  0.000000e+00  0.000000e+00  0.000000e+00  
1.366899e+02  -4.594447e-08  -1.405347e-07  -1.629892e-08  -9.013468e-08  0.000000e+00  0.000000e+00  0.000000e+00  0.000000e+00  
1.402831e+02  -4.465911e-08  -1.362565e-07  -1.695954e-08  -9.030099e-08  0.000000e+00  0.000000e+00  0.000000e+00  0.000000e+00  
1.439708e+02  -4.340245e-08  -1.320775e-07  -1.754775e-08  -9.028567e-08  0.000000e+00  0.000000e+00  0.000000e+00  0.000000e+00  
1.477555e+02  -4.217407e-08  -1.279976e-07  -1.807587e-08  -9.010946e-08  0.000000e+00  0.000000e+00  0.000000e+00  0.000000e+00  
1.516396e+02  -4.096861e-08  -1.240055e-07  -1.853915e-08  -8.977472e-08  0.000000e+00  0.000000e+00  0.000000e+00  0.000000e+00  
1.556258e+02  -3.978915e-08  -1.201066e-07  -1.894347e-08  -8.929497e-08  0.000000e+00  0.000000e+00  0.000000e+00  0.000000e+00  
1.597168e+02  -3.863519e-08  -1.162990e-07  -1.929241e-08  -8.868092e-08  0.000000e+00  0.000000e+00  0.000000e+00  0.000000e+00  
1.639154e+02  -3.750650e-08  -1.125813e-07  -1.958657e-08  -8.793987e-08  0.000000e+00  0.000000e+00  0.000000e+00  0.000000e+00  
1.682243e+02  -3.640172e-08  -1.089513e-07  -1.983005e-08  -8.708232e-08  0.000000e+00  0.000000e+00  0.000000e+00  0.000000e+00  
1.726465e+02  -3.532177e-08  -1.054100e-07  -2.002220e-08  -8.611488e-08  0.000000e+00  0.000000e+00  0.000000e+00  0.000000e+00  
1.771849e+02  -3.426611e-08  -1.019536e-07  -2.016865e-08  -8.504895e-08  0.000000e+00  0.000000e+00  0.000000e+00  0.000000e+00  
1.818427e+02  -3.323336e-08  -9.857973e-08  -2.026959e-08  -8.389100e-08  0.000000e+00  0.000000e+00  0.000000e+00  0.000000e+00  
1.866229e+02  -3.222463e-08  -9.529258e-08  -2.032865e-08  -8.264963e-08  0.000000e+00  0.000000e+00  0.000000e+00  0.000000e+00  
1.915287e+02  -3.123864e-08  -9.208480e-08  -2.034707e-08  -8.133184e-08  0.000000e+00  0.000000e+00  0.000000e+00  0.000000e+00  
1.965635e+02  -3.027543e-08  -8.895915e-08  -2.032801e-08  -7.994611e-08  0.000000e+00  0.000000e+00  0.000000e+00  0.000000e+00  
2.017307e+02  -2.933445e-08  -8.591305e-08  -2.027340e-08  -7.849927e-08  0.000000e+00  0.000000e+00  0.000000e+00  0.000000e+00  
2.070337e+02  -2.841540e-08  -8.294548e-08  -2.018597e-08  -7.699881e-08  0.000000e+00  0.000000e+00  0.000000e+00  0.000000e+00  
2.124761e+02  -2.751779e-08  -8.005469e-08  -2.006688e-08  -7.545030e-08  0.000000e+00  0.000000e+00  0.000000e+00  0.000000e+00  
2.180616e+02  -2.664156e-08  -7.724041e-08  -1.991843e-08  -7.386025e-08  0.000000e+00  0.000000e+00  0.000000e+00  0.000000e+00  
2.237939e+02  -2.578624e-08  -7.450102e-08  -1.974286e-08  -7.223491e-08  0.000000e+00  0.000000e+00  0.000000e+00  0.000000e+00  
2.296768e+02  -2.495154e-08  -7.183545e-08  -1.954217e-08  -7.058021e-08  0.000000e+00  0.000000e+00  0.000000e+00  0.000000e+00  
2.357145e+02  -2.413715e-08  -6.924252e-08  -1.931854e-08  -6.890130e-08  0.000000e+00  0.000000e+00  0.000000e+00  0.000000e+00  
2.419108e+02  -2.334304e-08  -6.672145e-08  -1.907345e-08  -6.720347e-08  0.000000e+00  0.000000e+00  0.000000e+00  0.000000e+00  
2.482700e+02  -2.256833e-08  -6.427186e-08  -1.880864e-08  -6.549128e-08  0.000000e+00  0.000000e+00  0.000000e+00  0.000000e+00  
2.547964e+02  -2.181380e-08  -6.189121e-08  -1.852599e-08  -6.376955e-08  0.000000e+00  0.000000e+00  0.000000e+00  0.000000e+00  
2.614944e+02  -2.107786e-08  -5.957740e-08  -1.822720e-08  -6.204256e-08  0.000000e+00  0.000000e+00  0.000000e+00  0.000000e+00  
2.683684e+02  -2.036037e-08  -5.733062e-08  -1.791396e-08  -6.031436e-08  0.000000e+00  0.000000e+00  0.000000e+00  0.000000e+00  
2.754232e+02  -1.966141e-08  -5.514972e-08  -1.758776e-08  -5.858879e-08  0.000000e+00  0.000000e+00  0.000000e+00  0.000000e+00  
2.826633e+02  -1.898140e-08  -5.303358e-08  -1.725003e-08  -5.686923e-08  0.000000e+00  0.000000e+00  0.000000e+00  0.000000e+00  
2.900938e+02  -1.831823e-08  -5.098105e-08  -1.690221e-08  -5.515896e-08  0.000000e+00  0.000000e+00  0.000000e+00  0.000000e+00  
2.977197e+02  -1.767310e-08  -4.899099e-08  -1.654576e-08  -5.346113e-08  0.000000e+00  0.000000e+00  0.000000e+00  0.000000e+00  
3.055460e+02  -1.704566e-08  -4.706228e-08  -1.618186e-08  -5.177840e-08  0.000000e+00  0.000000e+00  0.000000e+00  0.000000e+00  
3.135780e+02  -1.643503e-08  -4.519373e-08  -1.581179e-08  -5.011340e-08  0.000000e+00  0.000000e+00  0.000000e+00  0.000000e+00  
3.218212e+02  -1.584136e-08  -4.338435e-08  -1.543668e-08  -4.846837e-08  0.000000e+00  0.000000e+00  0.000000e+00  0.000000e+00  
3.302811e+02  -1.526416e-08  -4.163272e-08  -1.505766e-08  -4.684562e-08  0.000000e+00  0.000000e+00  0.000000e+00  0.000000e+00  
3.389633e+02  -1.470326e-08  -3.993780e-08  -1.467582e-08  -4.524702e-08  0.000000e+00  0.000000e+00  0.000000e+00  0.000000e+00  
3.478738e+02  -1.415839e-08  -3.829841e-08  -1.429209e-08  -4.367431e-08  0.000000e+00  0.000000e+00  0.000000e+00  0.000000e+00  
3.570186e+02  -1.362927e-08  -3.671339e-08  -1.390742e-08  -4.212904e-08  0.000000e+00  0.000000e+00  0.000000e+00  0.000000e+00  
3.664037e+02  -1.311563e-08  -3.518156e-08  -1.352271e-08  -4.061263e-08  0.000000e+00  0.000000e+00  0.000000e+00  0.000000e+00  
3.760355e+02  -1.261720e-08  -3.370174e-08  -1.313868e-08  -3.912625e-08  0.000000e+00  0.000000e+00  0.000000e+00  0.000000e+00  
3.859206e+02  -1.213368e-08  -3.227273e-08  -1.275609e-08  -3.767094e-08  0.000000e+00  0.000000e+00  0.000000e+00  0.000000e+00  
3.960654e+02  -1.166483e-08  -3.089340e-08  -1.237573e-08  -3.624772e-08  0.000000e+00  0.000000e+00  0.000000e+00  0.000000e+00  
4.064770e+02  -1.121036e-08  -2.956255e-08  -1.199810e-08  -3.485723e-08  0.000000e+00  0.000000e+00  0.000000e+00  0.000000e+00  
4.171623e+02  -1.077004e-08  -2.827903e-08  -1.162399e-08  -3.350023e-08  0.000000e+00  0.000000e+00  0.000000e+00  0.000000e+00  
4.281284e+02  -1.034350e-08  -2.704160e-08  -1.125393e-08  -3.217729e-08  0.000000e+00  0.000000e+00  0.000000e+00  0.000000e+00  
4.393828e+02  -9.930514e-09  -2.584913e-08  -1.088834e-08  -3.088865e-08  0.000000e+00  0.000000e+00  0.000000e+00  0.000000e+00  
4.509331e+02  -9.530799e-09  -2.470046e-08  -1.052767e-08  -2.963464e-08  0.000000e+00  0.000000e+00  0.000000e+00  0.000000e+00  
4.627870e+02  -9.144111e-09  -2.359446e-08  -1.017236e-08  -2.841546e-08  0.000000e+00  0.000000e+00  0.000000e+00  0.000000e+00  
4.749525e+02  -8.770090e-09  -2.252988e-08  -9.822789e-09  -2.723119e-08  0.000000e+00  0.000000e+00  0.000000e+00  0.000000e+00  
4.874378e+02  -8.408531e-09  -2.150569e-08  -9.479286e-09  -2.608180e-08  0.000000e+00  0.000000e+00  0.000000e+00  0.000000e+00  
5.002514e+02  -8.059099e-09  -2.052068e-08  -9.142152e-09  -2.496724e-08  0.000000e+00  0.000000e+00  0.000000e+00  0.000000e+00  
5.134017e+02  -7.721592e-09  -1.957382e-08  -8.811677e-09  -2.388736e-08  0.000000e+00  0.000000e+00  0.000000e+00  0.000000e+00  
5.268978e+02  -7.395693e-09  -1.866396e-08  -8.488055e-09  -2.284189e-08  0.000000e+00  0.000000e+00  0.000000e+00  0.000000e+00  
5.407486e+02  -7.081127e-09  -1.779000e-08  -8.171507e-09  -2.183057e-08  0.000000e+00  0.000000e+00  0.000000e+00  0.000000e+00  
5.549635e+02  -6.777617e-09  -1.695086e-08  -7.862197e-09  -2.085303e-08  0.000000e+00  0.000000e+00  0.000000e+00  0.000000e+00  
5.695521e+02  -6.484908e-09  -1.614551e-08  -7.560263e-09  -1.990887e-08  0.000000e+00  0.000000e+00  0.000000e+00  0.000000e+00  
5.845242e+02  -6.202691e-09  -1.537285e-08  -7.265800e-09  -1.899762e-08  0.000000e+00  0.000000e+00  0.000000e+00  0.000000e+00  
5.998899e+02  -5.930711e-09  -1.463186e-08  -6.978892e-09  -1.811874e-08  0.000000e+00  0.000000e+00  0.000000e+00  0.000000e+00  
6.156595e+02  -5.668709e-09  -1.392155e-08  -6.699630e-09  -1.727176e-08  0.000000e+00  0.000000e+00  0.000000e+00  0.000000e+00  
6.318436e+02  -5.416422e-09  -1.324093e-08  -6.428021e-09  -1.645606e-08  0.000000e+00  0.000000e+00  0.000000e+00  0.000000e+00  
6.484532e+02  -5.173573e-09  -1.258899e-08  -6.164107e-09  -1.567106e-08  0.000000e+00  0.000000e+00  0.000000e+00  0.000000e+00  
6.654994e+02  -4.939904e-09  -1.196479e-08  -5.907877e-09  -1.491611e-08  0.000000e+00  0.000000e+00  0.000000e+00  0.000000e+00  
6.829937e+02  -4.715164e-09  -1.136740e-08  -5.659315e-09  -1.419055e-08  0.000000e+00  0.000000e+00  0.000000e+00  0.000000e+00  
7.009479e+02  -4.499080e-09  -1.079588e-08  -5.418382e-09  -1.349370e-08  0.000000e+00  0.000000e+00  0.000000e+00  0.000000e+00  
7.193741e+02  -4.291403e-09  -1.024932e-08  -5.185034e-09  -1.282488e-08  0.000000e+00  0.000000e+00  0.000000e+00  0.000000e+00  
7.382846e+02  -4.091893e-09  -9.726862e-09  -4.959204e-09  -1.218337e-08  0.000000e+00  0.000000e+00  0.000000e+00  0.000000e+00  
7.576923e+02  -3.900304e-09  -9.227645e-09  -4.740813e-09  -1.156845e-08  0.000000e+00  0.000000e+00  0.000000e+00  0.000000e+00  
7.776101e+02  -3.716387e-09  -8.750821e-09  -4.529775e-09  -1.097939e-08  0.000000e+00  0.000000e+00  0.000000e+00  0.000000e+00  
7.980515e+02  -3.539911e-09  -8.295578e-09  -4.325991e-09  -1.041547e-08  0.000000e+00  0.000000e+00  0.000000e+00  0.000000e+00  
8.190303e+02  -3.370632e-09  -7.861107e-09  -4.129346e-09  -9.875933e-09  0.000000e+00  0.000000e+00  0.000000e+00  0.000000e+00  
8.405606e+02  -3.208328e-09  -7.446639e-09  -3.939731e-09  -9.360055e-09  0.000000e+00  0.000000e+00  0.000000e+00  0.000000e+00  
8.626568e+02  -3.052768e-09  -7.051411e-09  -3.757016e-09  -8.867091e-09  0.000000e+00  0.000000e+00  0.000000e+00  0.000000e+00  
8.853339e+02  -2.903732e-09  -6.674686e-09  -3.581068e-09  -8.396305e-09  0.000000e+00  0.000000e+00  0.000000e+00  0.000000e+00  
9.086071e+02  -2.761000e-09  -6.315746e-09  -3.411752e-09  -7.946965e-09  0.000000e+00  0.000000e+00  0.000000e+00  0.000000e+00  
9.324921e+02  -2.624363e-09  -5.973892e-09  -3.248921e-09  -7.518345e-09  0.000000e+00  0.000000e+00  0.000000e+00  0.000000e+00  
9.570050e+02  -2.493605e-09  -5.648446e-09  -3.092431e-09  -7.109726e-09  0.000000e+00  0.000000e+00  0.000000e+00  0.000000e+00  
9.821623e+02  -2.368527e-09  -5.338751e-09  -2.942129e-09  -6.720396e-09  0.000000e+00  0.000000e+00  0.000000e+00  0.000000e+00  
1.007981e+03  -2.248929e-09  -5.044169e-09  -2.797860e-09  -6.349655e-09  0.000000e+00  0.000000e+00  0.000000e+00  0.000000e+00  
1.034478e+03  -2.134614e-09  -4.764077e-09  -2.659469e-09  -5.996811e-09  0.000000e+00  0.000000e+00  0.000000e+00  0.000000e+00  
1.061672e+03  -2.025394e-09  -4.497875e-09  -2.526795e-09  -5.661186e-09  0.000000e+00  0.000000e+00  0.000000e+00  0.000000e+00  
1.089581e+03  -1.921082e-09  -4.244983e-09  -2.399679e-09  -5.342112e-09  0.000000e+00  0.000000e+00  0.000000e+00  0.000000e+00  
1.118223e+03  -1.821498e-09  -4.004835e-09  -2.277961e-09  -5.038938e-09  0.000000e+00  0.000000e+00  0.000000e+00  0.000000e+00  
1.147618e+03  -1.726464e-09  -3.776885e-09  -2.161478e-09  -4.751023e-09  0.000000e+00  0.000000e+00  0.000000e+00  0.000000e+00  
1.177786e+03  -1.635809e-09  -3.560606e-09  -2.050069e-09  -4.477743e-09  0.000000e+00  0.000000e+00  0.000000e+00  0.000000e+00  
1.208747e+03  -1.549365e-09  -3.355486e-09  -1.943575e-09  -4.218488e-09  0.000000e+00  0.000000e+00  0.000000e+00  0.000000e+00  
1.240522e+03  -1.466969e-09  -3.161032e-09  -1.841835e-09  -3.972665e-09  0.000000e+00  0.000000e+00  0.000000e+00  0.000000e+00  
1.273132e+03  -1.388464e-09  -2.976767e-09  -1.744690e-09  -3.739695e-09  0.000000e+00  0.000000e+00  0.000000e+00  0.000000e+00  
1.306600e+03  -1.313695e-09  -2.802232e-09  -1.651984e-09  -3.519017e-09  0.000000e+00  0.000000e+00  0.000000e+00  0.000000e+00  
1.340947e+03  -1.242514e-09  -2.636982e-09  -1.563561e-09  -3.310083e-09  0.000000e+00  0.000000e+00  0.000000e+00  0.000000e+00  
1.376197e+03  -1.174775e-09  -2.480589e-09  -1.479269e-09  -3.112366e-09  0.000000e+00  0.000000e+00  0.000000e+00  0.000000e+00  
1.412374e+03  -1.110338e-09  -2.332640e-09  -1.398955e-09  -2.925352e-09  0.000000e+00  0.000000e+00  0.000000e+00  0.000000e+00  
1.449502e+03  -1.049066e-09  -2.192739e-09  -1.322473e-09  -2.748546e-09  0.000000e+00  0.000000e+00  0.000000e+00  0.000000e+00  
1.487606e+03  -9.908287e-10  -2.060503e-09  -1.249676e-09  -2.581468e-09  0.000000e+00  0.000000e+00  0.000000e+00  0.000000e+00  
1.526711e+03  -9.354965e-10  -1.935563e-09  -1.180422e-09  -2.423654e-09  0.000000e+00  0.000000e+00  0.000000e+00  0.000000e+00  
1.566845e+03  -8.829463e-10  -1.817566e-09  -1.114569e-09  -2.274660e-09  0.000000e+00  0.000000e+00  0.000000e+00  0.000000e+00  
1.608033e+03  -8.330584e-10  -1.706172e-09  -1.051984e-09  -2.134053e-09  0.000000e+00  0.000000e+00  0.000000e+00  0.000000e+00  
1.650304e+03  -7.857169e-10  -1.601054e-09  -9.925311e-10  -2.001420e-09  0.000000e+00  0.000000e+00  0.000000e+00  0.000000e+00  
1.693686e+03  -7.408094e-10  -1.501900e-09  -9.360815e-10  -1.876364e-09  0.000000e+00  0.000000e+00  0.000000e+00  0.000000e+00  
1.738209e+03  -6.982284e-10  -1.408407e-09  -8.825080e-10  -1.758500e-09  0.000000e+00  0.000000e+00  0.000000e+00  0.000000e+00  
1.783902e+03  -6.578697e-10  -1.320289e-09  -8.316877e-10  -1.647462e-09  0.000000e+00  0.000000e+00  0.000000e+00  0.000000e+00  
1.830797e+03  -6.196325e-10  -1.237269e-09  -7.835014e-10  -1.542897e-09  0.000000e+00  0.000000e+00  0.000000e+00  0.000000e+00  
1.878924e+03  -5.834195e-10  -1.159083e-09  -7.378327e-10  -1.444468e-09  0.000000e+00  0.000000e+00  0.000000e+00  0.000000e+00  
1.928316e+03  -5.491371e-10  -1.085478e-09  -6.945694e-10  -1.351850e-09  0.000000e+00  0.000000e+00  0.000000e+00  0.000000e+00  
1.979007e+03  -5.166956e-10  -1.016212e-09  -6.536026e-10  -1.264735e-09  0.000000e+00  0.000000e+00  0.000000e+00  0.000000e+00  
2.031030e+03  -4.860080e-10  -9.510535e-10  -6.148273e-10  -1.182826e-09  0.000000e+00  0.000000e+00  0.000000e+00  0.000000e+00  
2.084420e+03  -4.569909e-10  -8.897815e-10  -5.781416e-10  -1.105841e-09  0.000000e+00  0.000000e+00  0.000000e+00  0.000000e+00  
2.139215e+03  -4.295639e-10  -8.321850e-10  -5.434475e-10  -1.033510e-09  0.000000e+00  0.000000e+00  0.000000e+00  0.000000e+00  
2.195449e+03  -4.036501e-10  -7.780624e-10  -5.106505e-10  -9.655750e-10  0.000000e+00  0.000000e+00  0.000000e+00  0.000000e+00  
2.253162e+03  -3.791754e-10  -7.272213e-10  -4.796593e-10  -9.017901e-10  0.000000e+00  0.000000e+00  0.000000e+00  0.000000e+00  
2.312392e+03  -3.560686e-10  -6.794783e-10  -4.503864e-10  -8.419210e-10  0.000000e+00  0.000000e+00  0.000000e+00  0.000000e+00  
2.373179e+03  -3.342616e-10  -6.346581e-10  -4.227473e-10  -7.857443e-10  0.000000e+00  0.000000e+00  0.000000e+00  0.000000e+00  
2.435564e+03  -3.136888e-10  -5.925935e-10  -3.966611e-10  -7.330471e-10  0.000000e+00  0.000000e+00  0.000000e+00  0.000000e+00  
2.499589e+03  -2.942877e-10  -5.531250e-10  -3.720500e-10  -6.836266e-10  0.000000e+00  0.000000e+00  0.000000e+00  0.000000e+00  
2.565297e+03  -2.759983e-10  -5.161003e-10  -3.488395e-10  -6.372894e-10  0.000000e+00  0.000000e+00  0.000000e+00  0.000000e+00  
2.632732e+03  -2.587631e-10  -4.813737e-10  -3.269579e-10  -5.938514e-10  0.000000e+00  0.000000e+00  0.000000e+00  0.000000e+00  
2.701940e+03  -2.425272e-10  -4.488062e-10  -3.063368e-10  -5.531369e-10  0.000000e+00  0.000000e+00  0.000000e+00  0.000000e+00  
2.772967e+03  -2.272380e-10  -4.182643e-10  -2.869106e-10  -5.149783e-10  0.000000e+00  0.000000e+00  0.000000e+00  0.000000e+00  
2.845861e+03  -2.128452e-10  -3.896200e-10  -2.686166e-10  -4.792158e-10  0.000000e+00  0.000000e+00  0.000000e+00  0.000000e+00  
2.920672e+03  -1.993010e-10  -3.627507e-10  -2.513947e-10  -4.456961e-10  0.000000e+00  0.000000e+00  0.000000e+00  0.000000e+00  
2.997449e+03  -1.865595e-10  -3.375379e-10  -2.351875e-10  -4.142728e-10  0.000000e+00  0.000000e+00  0.000000e+00  0.000000e+00  
3.076245e+03  -1.745771e-10  -3.138676e-10  -2.199400e-10  -3.848053e-10  0.000000e+00  0.000000e+00  0.000000e+00  0.000000e+00  
3.157111e+03  -1.633119e-10  -2.916295e-10  -2.055997e-10  -3.571578e-10  0.000000e+00  0.000000e+00  0.000000e+00  0.000000e+00  
3.240104e+03  -1.527239e-10  -2.707164e-10  -1.921159e-10  -3.311995e-10  0.000000e+00  0.000000e+00  0.000000e+00  0.000000e+00  
3.325278e+03  -1.427745e-10  -2.510240e-10  -1.794395e-10  -3.068021e-10  0.000000e+00  0.000000e+00  0.000000e+00  0.000000e+00  
3.412691e+03  -1.334228e-10  -2.324540e-10  -1.675190e-10  -2.838430e-10  0.000000e+00  0.000000e+00  0.000000e+00  0.000000e+00  
3.502402e+03  -1.246206e-10  -2.149146e-10  -1.562948e-10  -2.622035e-10  0.000000e+00  0.000000e+00  0.000000e+00  0.000000e+00  
3.594472e+03  -1.163093e-10  -1.983134e-10  -1.456945e-10  -2.417576e-10  0.000000e+00  0.000000e+00  0.000000e+00  0.000000e+00  
3.688961e+03  -1.083920e-10  -1.824975e-10  -1.355910e-10  -2.222820e-10  0.000000e+00  0.000000e+00  0.000000e+00  0.000000e+00  
3.785935e+03  -1.008393e-10  -1.675280e-10  -1.259427e-10  -2.038129e-10  0.000000e+00  0.000000e+00  0.000000e+00  0.000000e+00  
3.885458e+03  -9.373447e-11  -1.536385e-10  -1.168820e-10  -1.867163e-10  0.000000e+00  0.000000e+00  0.000000e+00  0.000000e+00  
3.987597e+03  -8.702900e-11  -1.407205e-10  -1.083360e-10  -1.708188e-10  0.000000e+00  0.000000e+00  0.000000e+00  0.000000e+00  
4.092421e+03  -8.076576e-11  -1.288455e-10  -1.003552e-10  -1.562039e-10  0.000000e+00  0.000000e+00  0.000000e+00  0.000000e+00  
4.200000e+03  -7.486884e-11  -1.178408e-10  -9.285012e-11  -1.426740e-10  0.000000e+00  0.000000e+00  0.000000e+00  0.000000e+00  
