k,D+(k,0.1)_alpha,D+(k,0.1)_1.05 alpha,D+(k,0.1)_0.95 alpha
0.003003,0.126413,0.126404,0.126422
0.00600601,0.126535,0.126525,0.126546
0.00900901,0.126614,0.126603,0.126625
0.012012,0.126674,0.126663,0.126685
0.015015,0.126728,0.126717,0.126739
0.018018,0.126766,0.126755,0.126777
0.021021,0.126796,0.126784,0.126807
0.024024,0.126819,0.126808,0.12683
0.027027,0.126838,0.126827,0.126849
0.03003,0.126854,0.126843,0.126865
0.033033,0.126866,0.126855,0.126878
0.036036,0.126877,0.126866,0.126888
0.039039,0.126886,0.126875,0.126897
0.042042,0.126893,0.126882,0.126905
0.045045,0.1269,0.126889,0.126911
0.048048,0.126905,0.126894,0.126916
0.0510511,0.12691,0.126899,0.126921
0.0540541,0.126914,0.126903,0.126926
0.0570571,0.126918,0.126907,0.126929
0.0600601,0.126921,0.12691,0.126932
0.0630631,0.126924,0.126913,0.126935
0.0660661,0.126927,0.126916,0.126938
0.0690691,0.126929,0.126918,0.12694
0.0720721,0.126931,0.12692,0.126942
0.0750751,0.126933,0.126922,0.126944
0.0780781,0.126935,0.126923,0.126946
0.0810811,0.126936,0.126925,0.126947
0.0840841,0.126937,0.126926,0.126949
0.0870871,0.126939,0.126928,0.12695
0.0900901,0.12694,0.126929,0.126951
0.0930931,0.126941,0.12693,0.126952
0.0960961,0.126942,0.126931,0.126953
0.0990991,0.126943,0.126932,0.126954
0.102102,0.126944,0.126932,0.126955
0.105105,0.126944,0.126933,0.126956
0.108108,0.126945,0.126934,0.126956
0.111111,0.126946,0.126935,0.126957
0.114114,0.126946,0.126935,0.126958
0.117117,0.126947,0.126936,0.126958
0.12012,0.126947,0.126936,0.126959
0.123123,0.126948,0.126937,0.126959
0.126126,0.126948,0.126937,0.12696
0.129129,0.126949,0.126938,0.12696
0.132132,0.126949,0.126938,0.12696
0.135135,0.12695,0.126938,0.126961
0.138138,0.12695,0.126939,0.126961
0.141141,0.12695,0.126939,0.126961
0.144144,0.126951,0.126939,0.126962
0.147147,0.126951,0.12694,0.126962
0.15015,0.126951,0.12694,0.126962
0.153153,0.126951,0.12694,0.126963
0.156156,0.126952,0.126941,0.126963
0.159159,0.126952,0.126941,0.126963
0.162162,0.126952,0.126941,0.126963
0.165165,0.126952,0.126941,0.126964
0.168168,0.126953,0.126941,0.126964
0.171171,0.126953,0.126942,0.126964
0.174174,0.126953,0.126942,0.126964
0.177177,0.126953,0.126942,0.126964
0.18018,0.126953,0.126942,0.126964
0.183183,0.126953,0.126942,0.126965
0.186186,0.126954,0.126942,0.126965
0.189189,0.126954,0.126943,0.126965
0.192192,0.126954,0.126943,0.126965
0.195195,0.126954,0.126943,0.126965
0.198198,0.126954,0.126943,0.126965
0.201201,0.126954,0.126943,0.126965
0.204204,0.126954,0.126943,0.126966
0.207207,0.126955,0.126943,0.126966
0.21021,0.126955,0.126943,0.126966
0.213213,0.126955,0.126944,0.126966
0.216216,0.126955,0.126944,0.126966
0.219219,0.126955,0.126944,0.126966
0.222222,0.126955,0.126944,0.126966
0.225225,0.126955,0.126944,0.126966
0.228228,0.126955,0.126944,0.126966
0.231231,0.126955,0.126944,0.126966
0.234234,0.126955,0.126944,0.126966
0.237237,0.126955,0.126944,0.126967
0.24024,0.126956,0.126944,0.126967
0.243243,0.126956,0.126944,0.126967
0.246246,0.126956,0.126944,0.126967
0.249249,0.126956,0.126945,0.126967
0.252252,0.126956,0.126945,0.126967
0.255255,0.126956,0.126945,0.126967
0.258258,0.126956,0.126945,0.126967
0.261261,0.126956,0.126945,0.126967
0.264264,0.126956,0.126945,0.126967
0.267267,0.126956,0.126945,0.126967
0.27027,0.126956,0.126945,0.126967
0.273273,0.126956,0.126945,0.126967
0.276276,0.126956,0.126945,0.126967
0.279279,0.126956,0.126945,0.126967
0.282282,0.126956,0.126945,0.126967
0.285285,0.126956,0.126945,0.126967
0.288288,0.126956,0.126945,0.126968
0.291291,0.126956,0.126945,0.126968
0.294294,0.126957,0.126945,0.126968
0.297297,0.126957,0.126945,0.126968
0.3003,0.126957,0.126945,0.126968
0.303303,0.126957,0.126945,0.126968
0.306306,0.126957,0.126945,0.126968
0.309309,0.126957,0.126946,0.126968
0.312312,0.126957,0.126946,0.126968
0.315315,0.126957,0.126946,0.126968
0.318318,0.126957,0.126946,0.126968
0.321321,0.126957,0.126946,0.126968
0.324324,0.126957,0.126946,0.126968
0.327327,0.126957,0.126946,0.126968
0.33033,0.126957,0.126946,0.126968
0.333333,0.126957,0.126946,0.126968
0.336336,0.126957,0.126946,0.126968
0.339339,0.126957,0.126946,0.126968
0.342342,0.126957,0.126946,0.126968
0.345345,0.126957,0.126946,0.126968
0.348348,0.126957,0.126946,0.126968
0.351351,0.126957,0.126946,0.126968
0.354354,0.126957,0.126946,0.126968
0.357357,0.126957,0.126946,0.126968
0.36036,0.126957,0.126946,0.126968
0.363363,0.126957,0.126946,0.126968
0.366366,0.126957,0.126946,0.126968
0.369369,0.126957,0.126946,0.126968
0.372372,0.126957,0.126946,0.126968
0.375375,0.126957,0.126946,0.126968
0.378378,0.126957,0.126946,0.126968
0.381381,0.126957,0.126946,0.126968
0.384384,0.126957,0.126946,0.126968
0.387387,0.126957,0.126946,0.126968
0.39039,0.126957,0.126946,0.126968
0.393393,0.126957,0.126946,0.126969
0.396396,0.126957,0.126946,0.126969
0.399399,0.126957,0.126946,0.126969
0.402402,0.126957,0.126946,0.126969
0.405405,0.126957,0.126946,0.126969
0.408408,0.126957,0.126946,0.126969
0.411411,0.126957,0.126946,0.126969
0.414414,0.126958,0.126946,0.126969
0.417417,0.126958,0.126946,0.126969
0.42042,0.126958,0.126946,0.126969
0.423423,0.126958,0.126946,0.126969
0.426426,0.126958,0.126946,0.126969
0.429429,0.126958,0.126946,0.126969
0.432432,0.126958,0.126946,0.126969
0.435435,0.126958,0.126946,0.126969
0.438438,0.126958,0.126946,0.126969
0.441441,0.126958,0.126946,0.126969
0.444444,0.126958,0.126946,0.126969
0.447447,0.126958,0.126946,0.126969
0.45045,0.126958,0.126946,0.126969
0.453453,0.126958,0.126946,0.126969
0.456456,0.126958,0.126947,0.126969
0.459459,0.126958,0.126947,0.126969
0.462462,0.126958,0.126947,0.126969
0.465465,0.126958,0.126947,0.126969
0.468468,0.126958,0.126947,0.126969
0.471471,0.126958,0.126947,0.126969
0.474474,0.126958,0.126947,0.126969
0.477477,0.126958,0.126947,0.126969
0.48048,0.126958,0.126947,0.126969
0.483483,0.126958,0.126947,0.126969
0.486486,0.126958,0.126947,0.126969
0.489489,0.126958,0.126947,0.126969
0.492492,0.126958,0.126947,0.126969
0.495495,0.126958,0.126947,0.126969
0.498498,0.126958,0.126947,0.126969
0.501502,0.126958,0.126947,0.126969
0.504505,0.126958,0.126947,0.126969
0.507508,0.126958,0.126947,0.126969
0.510511,0.126958,0.126947,0.126969
0.513514,0.126958,0.126947,0.126969
0.516517,0.126958,0.126947,0.126969
0.51952,0.126958,0.126947,0.126969
0.522523,0.126958,0.126947,0.126969
0.525526,0.126958,0.126947,0.126969
0.528529,0.126958,0.126947,0.126969
0.531532,0.126958,0.126947,0.126969
0.534535,0.126958,0.126947,0.126969
0.537538,0.126958,0.126947,0.126969
0.540541,0.126958,0.126947,0.126969
0.543544,0.126958,0.126947,0.126969
0.546547,0.126958,0.126947,0.126969
0.54955,0.126958,0.126947,0.126969
0.552553,0.126958,0.126947,0.126969
0.555556,0.126958,0.126947,0.126969
0.558559,0.126958,0.126947,0.126969
0.561562,0.126958,0.126947,0.126969
0.564565,0.126958,0.126947,0.126969
0.567568,0.126958,0.126947,0.126969
0.570571,0.126958,0.126947,0.126969
0.573574,0.126958,0.126947,0.126969
0.576577,0.126958,0.126947,0.126969
0.57958,0.126958,0.126947,0.126969
0.582583,0.126958,0.126947,0.126969
0.585586,0.126958,0.126947,0.126969
0.588589,0.126958,0.126947,0.126969
0.591592,0.126958,0.126947,0.126969
0.594595,0.126958,0.126947,0.126969
0.597598,0.126958,0.126947,0.126969
0.600601,0.126958,0.126947,0.126969
0.603604,0.126958,0.126947,0.126969
0.606607,0.126958,0.126947,0.126969
0.60961,0.126958,0.126947,0.126969
0.612613,0.126958,0.126947,0.126969
0.615616,0.126958,0.126947,0.126969
0.618619,0.126958,0.126947,0.126969
0.621622,0.126958,0.126947,0.126969
0.624625,0.126958,0.126947,0.126969
0.627628,0.126958,0.126947,0.126969
0.630631,0.126958,0.126947,0.126969
0.633634,0.126958,0.126947,0.126969
0.636637,0.126958,0.126947,0.126969
0.63964,0.126958,0.126947,0.126969
0.642643,0.126958,0.126947,0.126969
0.645646,0.126958,0.126947,0.126969
0.648649,0.126958,0.126947,0.126969
0.651652,0.126958,0.126947,0.126969
0.654655,0.126958,0.126947,0.126969
0.657658,0.126958,0.126947,0.126969
0.660661,0.126958,0.126947,0.126969
0.663664,0.126958,0.126947,0.126969
0.666667,0.126958,0.126947,0.126969
0.66967,0.126958,0.126947,0.126969
0.672673,0.126958,0.126947,0.126969
0.675676,0.126958,0.126947,0.126969
0.678679,0.126958,0.126947,0.126969
0.681682,0.126958,0.126947,0.126969
0.684685,0.126958,0.126947,0.126969
0.687688,0.126958,0.126947,0.126969
0.690691,0.126958,0.126947,0.126969
0.693694,0.126958,0.126947,0.126969
0.696697,0.126958,0.126947,0.126969
0.6997,0.126958,0.126947,0.126969
0.702703,0.126958,0.126947,0.126969
0.705706,0.126958,0.126947,0.126969
0.708709,0.126958,0.126947,0.126969
0.711712,0.126958,0.126947,0.126969
0.714715,0.126958,0.126947,0.126969
0.717718,0.126958,0.126947,0.126969
0.720721,0.126958,0.126947,0.126969
0.723724,0.126958,0.126947,0.126969
0.726727,0.126958,0.126947,0.126969
0.72973,0.126958,0.126947,0.126969
0.732733,0.126958,0.126947,0.126969
0.735736,0.126958,0.126947,0.126969
0.738739,0.126958,0.126947,0.126969
0.741742,0.126958,0.126947,0.126969
0.744745,0.126958,0.126947,0.126969
0.747748,0.126958,0.126947,0.126969
0.750751,0.126958,0.126947,0.126969
0.753754,0.126958,0.126947,0.126969
0.756757,0.126958,0.126947,0.126969
0.75976,0.126958,0.126947,0.126969
0.762763,0.126958,0.126947,0.126969
0.765766,0.126958,0.126947,0.126969
0.768769,0.126958,0.126947,0.126969
0.771772,0.126958,0.126947,0.126969
0.774775,0.126958,0.126947,0.126969
0.777778,0.126958,0.126947,0.126969
0.780781,0.126958,0.126947,0.126969
0.783784,0.126958,0.126947,0.126969
0.786787,0.126958,0.126947,0.126969
0.78979,0.126958,0.126947,0.126969
0.792793,0.126958,0.126947,0.126969
0.795796,0.126958,0.126947,0.126969
0.798799,0.126958,0.126947,0.126969
0.801802,0.126958,0.126947,0.126969
0.804805,0.126958,0.126947,0.126969
0.807808,0.126958,0.126947,0.126969
0.810811,0.126958,0.126947,0.126969
0.813814,0.126958,0.126947,0.126969
0.816817,0.126958,0.126947,0.12697
0.81982,0.126958,0.126947,0.12697
0.822823,0.126958,0.126947,0.12697
0.825826,0.126958,0.126947,0.12697
0.828829,0.126958,0.126947,0.12697
0.831832,0.126958,0.126947,0.12697
0.834835,0.126958,0.126947,0.12697
0.837838,0.126958,0.126947,0.12697
0.840841,0.126958,0.126947,0.12697
0.843844,0.126958,0.126947,0.12697
0.846847,0.126958,0.126947,0.12697
0.84985,0.126958,0.126947,0.12697
0.852853,0.126958,0.126947,0.12697
0.855856,0.126958,0.126947,0.12697
0.858859,0.126958,0.126947,0.12697
0.861862,0.126958,0.126947,0.12697
0.864865,0.126958,0.126947,0.12697
0.867868,0.126958,0.126947,0.12697
0.870871,0.126958,0.126947,0.12697
0.873874,0.126958,0.126947,0.12697
0.876877,0.126958,0.126947,0.12697
0.87988,0.126958,0.126947,0.12697
0.882883,0.126958,0.126947,0.12697
0.885886,0.126958,0.126947,0.12697
0.888889,0.126958,0.126947,0.12697
0.891892,0.126958,0.126947,0.12697
0.894895,0.126958,0.126947,0.12697
0.897898,0.126958,0.126947,0.12697
0.900901,0.126958,0.126947,0.12697
0.903904,0.126958,0.126947,0.12697
0.906907,0.126958,0.126947,0.12697
0.90991,0.126958,0.126947,0.12697
0.912913,0.126958,0.126947,0.12697
0.915916,0.126958,0.126947,0.12697
0.918919,0.126958,0.126947,0.12697
0.921922,0.126958,0.126947,0.12697
0.924925,0.126958,0.126947,0.12697
0.927928,0.126958,0.126947,0.12697
0.930931,0.126958,0.126947,0.12697
0.933934,0.126958,0.126947,0.12697
0.936937,0.126959,0.126947,0.12697
0.93994,0.126959,0.126947,0.12697
0.942943,0.126959,0.126947,0.12697
0.945946,0.126959,0.126947,0.12697
0.948949,0.126959,0.126947,0.12697
0.951952,0.126959,0.126947,0.12697
0.954955,0.126959,0.126947,0.12697
0.957958,0.126959,0.126947,0.12697
0.960961,0.126959,0.126947,0.12697
0.963964,0.126959,0.126947,0.12697
0.966967,0.126959,0.126947,0.12697
0.96997,0.126959,0.126947,0.12697
0.972973,0.126959,0.126947,0.12697
0.975976,0.126959,0.126947,0.12697
0.978979,0.126959,0.126947,0.12697
0.981982,0.126959,0.126947,0.12697
0.984985,0.126959,0.126947,0.12697
0.987988,0.126959,0.126947,0.12697
0.990991,0.126959,0.126947,0.12697
0.993994,0.126959,0.126947,0.12697
0.996997,0.126959,0.126947,0.12697
1,0.126959,0.126947,0.12697
1.003,0.126959,0.126947,0.12697
1.00601,0.126959,0.126947,0.12697
1.00901,0.126959,0.126947,0.12697
1.01201,0.126959,0.126947,0.12697
1.01502,0.126959,0.126947,0.12697
1.01802,0.126959,0.126947,0.12697
1.02102,0.126959,0.126947,0.12697
1.02402,0.126959,0.126947,0.12697
1.02703,0.126959,0.126947,0.12697
1.03003,0.126959,0.126947,0.12697
1.03303,0.126959,0.126947,0.12697
1.03604,0.126959,0.126947,0.12697
1.03904,0.126959,0.126947,0.12697
1.04204,0.126959,0.126947,0.12697
1.04505,0.126959,0.126947,0.12697
1.04805,0.126959,0.126947,0.12697
1.05105,0.126959,0.126947,0.12697
1.05405,0.126959,0.126947,0.12697
1.05706,0.126959,0.126947,0.12697
1.06006,0.126959,0.126947,0.12697
1.06306,0.126959,0.126947,0.12697
1.06607,0.126959,0.126947,0.12697
1.06907,0.126959,0.126947,0.12697
1.07207,0.126959,0.126947,0.12697
1.07508,0.126959,0.126947,0.12697
1.07808,0.126959,0.126947,0.12697
1.08108,0.126959,0.126947,0.12697
1.08408,0.126959,0.126947,0.12697
1.08709,0.126959,0.126947,0.12697
1.09009,0.126959,0.126947,0.12697
1.09309,0.126959,0.126947,0.12697
1.0961,0.126959,0.126947,0.12697
1.0991,0.126959,0.126947,0.12697
1.1021,0.126959,0.126947,0.12697
1.10511,0.126959,0.126947,0.12697
1.10811,0.126959,0.126947,0.12697
1.11111,0.126959,0.126947,0.12697
1.11411,0.126959,0.126947,0.12697
1.11712,0.126959,0.126947,0.12697
1.12012,0.126959,0.126947,0.12697
1.12312,0.126959,0.126947,0.12697
1.12613,0.126959,0.126947,0.12697
1.12913,0.126959,0.126947,0.12697
1.13213,0.126959,0.126947,0.12697
1.13514,0.126959,0.126947,0.12697
1.13814,0.126959,0.126947,0.12697
1.14114,0.126959,0.126947,0.12697
1.14414,0.126959,0.126947,0.12697
1.14715,0.126959,0.126947,0.12697
1.15015,0.126959,0.126947,0.12697
1.15315,0.126959,0.126948,0.12697
1.15616,0.126959,0.126948,0.12697
1.15916,0.126959,0.126948,0.12697
1.16216,0.126959,0.126948,0.12697
1.16517,0.126959,0.126948,0.12697
1.16817,0.126959,0.126948,0.12697
1.17117,0.126959,0.126948,0.12697
1.17417,0.126959,0.126948,0.12697
1.17718,0.126959,0.126948,0.12697
1.18018,0.126959,0.126948,0.12697
1.18318,0.126959,0.126948,0.12697
1.18619,0.126959,0.126948,0.12697
1.18919,0.126959,0.126948,0.12697
1.19219,0.126959,0.126948,0.12697
1.1952,0.126959,0.126948,0.12697
1.1982,0.126959,0.126948,0.12697
1.2012,0.126959,0.126948,0.12697
1.2042,0.126959,0.126948,0.12697
1.20721,0.126959,0.126948,0.12697
1.21021,0.126959,0.126948,0.12697
1.21321,0.126959,0.126948,0.12697
1.21622,0.126959,0.126948,0.12697
1.21922,0.126959,0.126948,0.12697
1.22222,0.126959,0.126948,0.12697
1.22523,0.126959,0.126948,0.12697
1.22823,0.126959,0.126948,0.12697
1.23123,0.126959,0.126948,0.12697
1.23423,0.126959,0.126948,0.12697
1.23724,0.126959,0.126948,0.12697
1.24024,0.126959,0.126948,0.12697
1.24324,0.126959,0.126948,0.12697
1.24625,0.126959,0.126948,0.12697
1.24925,0.126959,0.126948,0.12697
1.25225,0.126959,0.126948,0.12697
1.25526,0.126959,0.126948,0.12697
1.25826,0.126959,0.126948,0.12697
1.26126,0.126959,0.126948,0.12697
1.26426,0.126959,0.126948,0.12697
1.26727,0.126959,0.126948,0.12697
1.27027,0.126959,0.126948,0.12697
1.27327,0.126959,0.126948,0.12697
1.27628,0.126959,0.126948,0.12697
1.27928,0.126959,0.126948,0.12697
1.28228,0.126959,0.126948,0.12697
1.28529,0.126959,0.126948,0.12697
1.28829,0.126959,0.126948,0.12697
1.29129,0.126959,0.126948,0.12697
1.29429,0.126959,0.126948,0.12697
1.2973,0.126959,0.126948,0.12697
1.3003,0.126959,0.126948,0.12697
1.3033,0.126959,0.126948,0.12697
1.30631,0.126959,0.126948,0.12697
1.30931,0.126959,0.126948,0.12697
1.31231,0.126959,0.126948,0.12697
1.31532,0.126959,0.126948,0.12697
1.31832,0.126959,0.126948,0.12697
1.32132,0.126959,0.126948,0.12697
1.32432,0.126959,0.126948,0.12697
1.32733,0.126959,0.126948,0.12697
1.33033,0.126959,0.126948,0.12697
1.33333,0.126959,0.126948,0.12697
1.33634,0.126959,0.126948,0.12697
1.33934,0.126959,0.126948,0.12697
1.34234,0.126959,0.126948,0.12697
1.34535,0.126959,0.126948,0.12697
1.34835,0.126959,0.126948,0.12697
1.35135,0.126959,0.126948,0.12697
1.35435,0.126959,0.126948,0.12697
1.35736,0.126959,0.126948,0.12697
1.36036,0.126959,0.126948,0.12697
1.36336,0.126959,0.126948,0.12697
1.36637,0.126959,0.126948,0.12697
1.36937,0.126959,0.126948,0.12697
1.37237,0.126959,0.126948,0.12697
1.37538,0.126959,0.126948,0.12697
1.37838,0.126959,0.126948,0.12697
1.38138,0.126959,0.126948,0.12697
1.38438,0.126959,0.126948,0.12697
1.38739,0.126959,0.126948,0.12697
1.39039,0.126959,0.126948,0.12697
1.39339,0.126959,0.126948,0.12697
1.3964,0.126959,0.126948,0.12697
1.3994,0.126959,0.126948,0.12697
1.4024,0.126959,0.126948,0.12697
1.40541,0.126959,0.126948,0.12697
1.40841,0.126959,0.126948,0.12697
1.41141,0.126959,0.126948,0.12697
1.41441,0.126959,0.126948,0.12697
1.41742,0.126959,0.126948,0.12697
1.42042,0.126959,0.126948,0.12697
1.42342,0.126959,0.126948,0.12697
1.42643,0.126959,0.126948,0.12697
1.42943,0.126959,0.126948,0.12697
1.43243,0.126959,0.126948,0.12697
1.43544,0.126959,0.126948,0.12697
1.43844,0.126959,0.126948,0.12697
1.44144,0.126959,0.126948,0.12697
1.44444,0.126959,0.126948,0.12697
1.44745,0.126959,0.126948,0.12697
1.45045,0.126959,0.126948,0.12697
1.45345,0.126959,0.126948,0.12697
1.45646,0.126959,0.126948,0.12697
1.45946,0.126959,0.126948,0.12697
1.46246,0.126959,0.126948,0.12697
1.46547,0.126959,0.126948,0.12697
1.46847,0.126959,0.126948,0.12697
1.47147,0.126959,0.126948,0.12697
1.47447,0.126959,0.126948,0.12697
1.47748,0.126959,0.126948,0.12697
1.48048,0.126959,0.126948,0.12697
1.48348,0.126959,0.126948,0.12697
1.48649,0.126959,0.126948,0.12697
1.48949,0.126959,0.126948,0.12697
1.49249,0.126959,0.126948,0.12697
1.4955,0.126959,0.126948,0.12697
1.4985,0.126959,0.126948,0.12697
1.5015,0.126959,0.126948,0.12697
1.5045,0.126959,0.126948,0.12697
1.50751,0.126959,0.126948,0.12697
1.51051,0.126959,0.126948,0.12697
1.51351,0.126959,0.126948,0.12697
1.51652,0.126959,0.126948,0.12697
1.51952,0.126959,0.126948,0.12697
1.52252,0.126959,0.126948,0.12697
1.52553,0.126959,0.126948,0.12697
1.52853,0.126959,0.126948,0.12697
1.53153,0.126959,0.126948,0.12697
1.53453,0.126959,0.126948,0.12697
1.53754,0.126959,0.126948,0.12697
1.54054,0.126959,0.126948,0.12697
1.54354,0.126959,0.126948,0.12697
1.54655,0.126959,0.126948,0.12697
1.54955,0.126959,0.126948,0.12697
1.55255,0.126959,0.126948,0.12697
1.55556,0.126959,0.126948,0.12697
1.55856,0.126959,0.126948,0.12697
1.56156,0.126959,0.126948,0.12697
1.56456,0.126959,0.126948,0.12697
1.56757,0.126959,0.126948,0.12697
1.57057,0.126959,0.126948,0.12697
1.57357,0.126959,0.126948,0.12697
1.57658,0.126959,0.126948,0.12697
1.57958,0.126959,0.126948,0.12697
1.58258,0.126959,0.126948,0.12697
1.58559,0.126959,0.126948,0.12697
1.58859,0.126959,0.126948,0.12697
1.59159,0.126959,0.126948,0.12697
1.59459,0.126959,0.126948,0.12697
1.5976,0.126959,0.126948,0.12697
1.6006,0.126959,0.126948,0.12697
1.6036,0.126959,0.126948,0.12697
1.60661,0.126959,0.126948,0.12697
1.60961,0.126959,0.126948,0.12697
1.61261,0.126959,0.126948,0.12697
1.61562,0.126959,0.126948,0.12697
1.61862,0.126959,0.126948,0.12697
1.62162,0.126959,0.126948,0.12697
1.62462,0.126959,0.126948,0.12697
1.62763,0.126959,0.126948,0.12697
1.63063,0.126959,0.126948,0.12697
1.63363,0.126959,0.126948,0.12697
1.63664,0.126959,0.126948,0.12697
1.63964,0.126959,0.126948,0.12697
1.64264,0.126959,0.126948,0.12697
1.64565,0.126959,0.126948,0.12697
1.64865,0.126959,0.126948,0.12697
1.65165,0.126959,0.126948,0.12697
1.65465,0.126959,0.126948,0.12697
1.65766,0.126959,0.126948,0.12697
1.66066,0.126959,0.126948,0.12697
1.66366,0.126959,0.126948,0.12697
1.66667,0.126959,0.126948,0.12697
1.66967,0.126959,0.126948,0.12697
1.67267,0.126959,0.126948,0.12697
1.67568,0.126959,0.126948,0.12697
1.67868,0.126959,0.126948,0.12697
1.68168,0.126959,0.126948,0.12697
1.68468,0.126959,0.126948,0.12697
1.68769,0.126959,0.126948,0.12697
1.69069,0.126959,0.126948,0.12697
1.69369,0.126959,0.126948,0.12697
1.6967,0.126959,0.126948,0.12697
1.6997,0.126959,0.126948,0.12697
1.7027,0.126959,0.126948,0.12697
1.70571,0.126959,0.126948,0.12697
1.70871,0.126959,0.126948,0.12697
1.71171,0.126959,0.126948,0.12697
1.71471,0.126959,0.126948,0.12697
1.71772,0.126959,0.126948,0.12697
1.72072,0.126959,0.126948,0.12697
1.72372,0.126959,0.126948,0.12697
1.72673,0.126959,0.126948,0.12697
1.72973,0.126959,0.126948,0.12697
1.73273,0.126959,0.126948,0.12697
1.73574,0.126959,0.126948,0.12697
1.73874,0.126959,0.126948,0.12697
1.74174,0.126959,0.126948,0.12697
1.74474,0.126959,0.126948,0.12697
1.74775,0.126959,0.126948,0.12697
1.75075,0.126959,0.126948,0.12697
1.75375,0.126959,0.126948,0.12697
1.75676,0.126959,0.126948,0.12697
1.75976,0.126959,0.126948,0.12697
1.76276,0.126959,0.126948,0.12697
1.76577,0.126959,0.126948,0.12697
1.76877,0.126959,0.126948,0.12697
1.77177,0.126959,0.126948,0.12697
1.77477,0.126959,0.126948,0.12697
1.77778,0.126959,0.126948,0.12697
1.78078,0.126959,0.126948,0.12697
1.78378,0.126959,0.126948,0.12697
1.78679,0.126959,0.126948,0.12697
1.78979,0.126959,0.126948,0.12697
1.79279,0.126959,0.126948,0.12697
1.7958,0.126959,0.126948,0.12697
1.7988,0.126959,0.126948,0.12697
1.8018,0.126959,0.126948,0.12697
1.8048,0.126959,0.126948,0.12697
1.80781,0.126959,0.126948,0.12697
1.81081,0.126959,0.126948,0.12697
1.81381,0.126959,0.126948,0.12697
1.81682,0.126959,0.126948,0.12697
1.81982,0.126959,0.126948,0.12697
1.82282,0.126959,0.126948,0.12697
1.82583,0.126959,0.126948,0.12697
1.82883,0.126959,0.126948,0.12697
1.83183,0.126959,0.126948,0.12697
1.83483,0.126959,0.126948,0.12697
1.83784,0.126959,0.126948,0.12697
1.84084,0.126959,0.126948,0.12697
1.84384,0.126959,0.126948,0.12697
1.84685,0.126959,0.126948,0.12697
1.84985,0.126959,0.126948,0.12697
1.85285,0.126959,0.126948,0.12697
1.85586,0.126959,0.126948,0.12697
1.85886,0.126959,0.126948,0.12697
1.86186,0.126959,0.126948,0.12697
1.86486,0.126959,0.126948,0.12697
1.86787,0.126959,0.126948,0.12697
1.87087,0.126959,0.126948,0.12697
1.87387,0.126959,0.126948,0.12697
1.87688,0.126959,0.126948,0.12697
1.87988,0.126959,0.126948,0.12697
1.88288,0.126959,0.126948,0.12697
1.88589,0.126959,0.126948,0.12697
1.88889,0.126959,0.126948,0.12697
1.89189,0.126959,0.126948,0.12697
1.89489,0.126959,0.126948,0.12697
1.8979,0.126959,0.126948,0.12697
1.9009,0.126959,0.126948,0.12697
1.9039,0.126959,0.126948,0.12697
1.90691,0.126959,0.126948,0.12697
1.90991,0.126959,0.126948,0.12697
1.91291,0.126959,0.126948,0.12697
1.91592,0.126959,0.126948,0.12697
1.91892,0.126959,0.126948,0.12697
1.92192,0.126959,0.126948,0.12697
1.92492,0.126959,0.126948,0.12697
1.92793,0.126959,0.126948,0.126971
1.93093,0.126959,0.126948,0.126971
1.93393,0.126959,0.126948,0.126971
1.93694,0.126959,0.126948,0.126971
1.93994,0.126959,0.126948,0.126971
1.94294,0.126959,0.126948,0.126971
1.94595,0.126959,0.126948,0.126971
1.94895,0.126959,0.126948,0.126971
1.95195,0.126959,0.126948,0.126971
1.95495,0.126959,0.126948,0.126971
1.95796,0.126959,0.126948,0.126971
1.96096,0.126959,0.126948,0.126971
1.96396,0.126959,0.126948,0.126971
1.96697,0.126959,0.126948,0.126971
1.96997,0.126959,0.126948,0.126971
1.97297,0.126959,0.126948,0.126971
1.97598,0.126959,0.126948,0.126971
1.97898,0.126959,0.126948,0.126971
1.98198,0.126959,0.126948,0.126971
1.98498,0.126959,0.126948,0.126971
1.98799,0.126959,0.126948,0.126971
1.99099,0.126959,0.126948,0.126971
1.99399,0.126959,0.126948,0.126971
1.997,0.126959,0.126948,0.126971
2,0.126959,0.126948,0.126971
2.003,0.126959,0.126948,0.126971
2.00601,0.126959,0.126948,0.126971
2.00901,0.126959,0.126948,0.126971
2.01201,0.126959,0.126948,0.126971
2.01502,0.126959,0.126948,0.126971
2.01802,0.126959,0.126948,0.126971
2.02102,0.126959,0.126948,0.126971
2.02402,0.126959,0.126948,0.126971
2.02703,0.126959,0.126948,0.126971
2.03003,0.126959,0.126948,0.126971
2.03303,0.126959,0.126948,0.126971
2.03604,0.126959,0.126948,0.126971
2.03904,0.126959,0.126948,0.126971
2.04204,0.126959,0.126948,0.126971
2.04505,0.12696,0.126948,0.126971
2.04805,0.12696,0.126948,0.126971
2.05105,0.12696,0.126948,0.126971
2.05405,0.12696,0.126948,0.126971
2.05706,0.12696,0.126948,0.126971
2.06006,0.12696,0.126948,0.126971
2.06306,0.12696,0.126948,0.126971
2.06607,0.12696,0.126948,0.126971
2.06907,0.12696,0.126948,0.126971
2.07207,0.12696,0.126948,0.126971
2.07508,0.12696,0.126948,0.126971
2.07808,0.12696,0.126948,0.126971
2.08108,0.12696,0.126948,0.126971
2.08408,0.12696,0.126948,0.126971
2.08709,0.12696,0.126948,0.126971
2.09009,0.12696,0.126948,0.126971
2.09309,0.12696,0.126948,0.126971
2.0961,0.12696,0.126948,0.126971
2.0991,0.12696,0.126948,0.126971
2.1021,0.12696,0.126948,0.126971
2.10511,0.12696,0.126948,0.126971
2.10811,0.12696,0.126948,0.126971
2.11111,0.12696,0.126948,0.126971
2.11411,0.12696,0.126948,0.126971
2.11712,0.12696,0.126948,0.126971
2.12012,0.12696,0.126948,0.126971
2.12312,0.12696,0.126948,0.126971
2.12613,0.12696,0.126948,0.126971
2.12913,0.12696,0.126948,0.126971
2.13213,0.12696,0.126948,0.126971
2.13514,0.12696,0.126948,0.126971
2.13814,0.12696,0.126948,0.126971
2.14114,0.12696,0.126948,0.126971
2.14414,0.12696,0.126948,0.126971
2.14715,0.12696,0.126948,0.126971
2.15015,0.12696,0.126948,0.126971
2.15315,0.12696,0.126948,0.126971
2.15616,0.12696,0.126948,0.126971
2.15916,0.12696,0.126948,0.126971
2.16216,0.12696,0.126948,0.126971
2.16517,0.12696,0.126948,0.126971
2.16817,0.12696,0.126948,0.126971
2.17117,0.12696,0.126948,0.126971
2.17417,0.12696,0.126948,0.126971
2.17718,0.12696,0.126948,0.126971
2.18018,0.12696,0.126948,0.126971
2.18318,0.12696,0.126948,0.126971
2.18619,0.12696,0.126948,0.126971
2.18919,0.12696,0.126948,0.126971
2.19219,0.12696,0.126948,0.126971
2.1952,0.12696,0.126948,0.126971
2.1982,0.12696,0.126948,0.126971
2.2012,0.12696,0.126948,0.126971
2.2042,0.12696,0.126949,0.126971
2.20721,0.12696,0.126949,0.126971
2.21021,0.12696,0.126949,0.126971
2.21321,0.12696,0.126949,0.126971
2.21622,0.12696,0.126949,0.126971
2.21922,0.12696,0.126949,0.126971
2.22222,0.12696,0.126949,0.126971
2.22523,0.12696,0.126949,0.126971
2.22823,0.12696,0.126949,0.126971
2.23123,0.12696,0.126949,0.126971
2.23423,0.12696,0.126949,0.126971
2.23724,0.12696,0.126949,0.126971
2.24024,0.12696,0.126949,0.126971
2.24324,0.12696,0.126949,0.126971
2.24625,0.12696,0.126949,0.126971
2.24925,0.12696,0.126949,0.126971
2.25225,0.12696,0.126949,0.126971
2.25526,0.12696,0.126949,0.126971
2.25826,0.12696,0.126949,0.126971
2.26126,0.12696,0.126949,0.126971
2.26426,0.12696,0.126949,0.126971
2.26727,0.12696,0.126949,0.126971
2.27027,0.12696,0.126949,0.126971
2.27327,0.12696,0.126949,0.126971
2.27628,0.12696,0.126949,0.126971
2.27928,0.12696,0.126949,0.126971
2.28228,0.12696,0.126949,0.126971
2.28529,0.12696,0.126949,0.126971
2.28829,0.12696,0.126949,0.126971
2.29129,0.12696,0.126949,0.126971
2.29429,0.12696,0.126949,0.126971
2.2973,0.12696,0.126949,0.126971
2.3003,0.12696,0.126949,0.126971
2.3033,0.12696,0.126949,0.126971
2.30631,0.12696,0.126949,0.126971
2.30931,0.12696,0.126949,0.126971
2.31231,0.12696,0.126949,0.126971
2.31532,0.12696,0.126949,0.126971
2.31832,0.12696,0.126949,0.126971
2.32132,0.12696,0.126949,0.126971
2.32432,0.12696,0.126949,0.126971
2.32733,0.12696,0.126949,0.126971
2.33033,0.12696,0.126949,0.126971
2.33333,0.12696,0.126949,0.126971
2.33634,0.12696,0.126949,0.126971
2.33934,0.12696,0.126949,0.126971
2.34234,0.12696,0.126949,0.126971
2.34535,0.12696,0.126949,0.126971
2.34835,0.12696,0.126949,0.126971
2.35135,0.12696,0.126949,0.126971
2.35435,0.12696,0.126949,0.126971
2.35736,0.12696,0.126949,0.126971
2.36036,0.12696,0.126949,0.126971
2.36336,0.12696,0.126949,0.126971
2.36637,0.12696,0.126949,0.126971
2.36937,0.12696,0.126949,0.126971
2.37237,0.12696,0.126949,0.126971
2.37538,0.12696,0.126949,0.126971
2.37838,0.12696,0.126949,0.126971
2.38138,0.12696,0.126949,0.126971
2.38438,0.12696,0.126949,0.126971
2.38739,0.12696,0.126949,0.126971
2.39039,0.12696,0.126949,0.126971
2.39339,0.12696,0.126949,0.126971
2.3964,0.12696,0.126949,0.126971
2.3994,0.12696,0.126949,0.126971
2.4024,0.12696,0.126949,0.126971
2.40541,0.12696,0.126949,0.126971
2.40841,0.12696,0.126949,0.126971
2.41141,0.12696,0.126949,0.126971
2.41441,0.12696,0.126949,0.126971
2.41742,0.12696,0.126949,0.126971
2.42042,0.12696,0.126949,0.126971
2.42342,0.12696,0.126949,0.126971
2.42643,0.12696,0.126949,0.126971
2.42943,0.12696,0.126949,0.126971
2.43243,0.12696,0.126949,0.126971
2.43544,0.12696,0.126949,0.126971
2.43844,0.12696,0.126949,0.126971
2.44144,0.12696,0.126949,0.126971
2.44444,0.12696,0.126949,0.126971
2.44745,0.12696,0.126949,0.126971
2.45045,0.12696,0.126949,0.126971
2.45345,0.12696,0.126949,0.126971
2.45646,0.12696,0.126949,0.126971
2.45946,0.12696,0.126949,0.126971
2.46246,0.12696,0.126949,0.126971
2.46547,0.12696,0.126949,0.126971
2.46847,0.12696,0.126949,0.126971
2.47147,0.12696,0.126949,0.126971
2.47447,0.12696,0.126949,0.126971
2.47748,0.12696,0.126949,0.126971
2.48048,0.12696,0.126949,0.126971
2.48348,0.12696,0.126949,0.126971
2.48649,0.12696,0.126949,0.126971
2.48949,0.12696,0.126949,0.126971
2.49249,0.12696,0.126949,0.126971
2.4955,0.12696,0.126949,0.126971
2.4985,0.12696,0.126949,0.126971
2.5015,0.12696,0.126949,0.126971
2.5045,0.12696,0.126949,0.126971
2.50751,0.12696,0.126949,0.126971
2.51051,0.12696,0.126949,0.126971
2.51351,0.12696,0.126949,0.126971
2.51652,0.12696,0.126949,0.126971
2.51952,0.12696,0.126949,0.126971
2.52252,0.12696,0.126949,0.126971
2.52553,0.12696,0.126949,0.126971
2.52853,0.12696,0.126949,0.126971
2.53153,0.12696,0.126949,0.126971
2.53453,0.12696,0.126949,0.126971
2.53754,0.12696,0.126949,0.126971
2.54054,0.12696,0.126949,0.126971
2.54354,0.12696,0.126949,0.126971
2.54655,0.12696,0.126949,0.126971
2.54955,0.12696,0.126949,0.126971
2.55255,0.12696,0.126949,0.126971
2.55556,0.12696,0.126949,0.126971
2.55856,0.12696,0.126949,0.126971
2.56156,0.12696,0.126949,0.126971
2.56456,0.12696,0.126949,0.126971
2.56757,0.12696,0.126949,0.126971
2.57057,0.12696,0.126949,0.126971
2.57357,0.12696,0.126949,0.126971
2.57658,0.12696,0.126949,0.126971
2.57958,0.12696,0.126949,0.126971
2.58258,0.12696,0.126949,0.126971
2.58559,0.12696,0.126949,0.126971
2.58859,0.12696,0.126949,0.126971
2.59159,0.12696,0.126949,0.126971
2.59459,0.12696,0.126949,0.126971
2.5976,0.12696,0.126949,0.126971
2.6006,0.12696,0.126949,0.126971
2.6036,0.12696,0.126949,0.126971
2.60661,0.12696,0.126949,0.126971
2.60961,0.12696,0.126949,0.126971
2.61261,0.12696,0.126949,0.126971
2.61562,0.12696,0.126949,0.126971
2.61862,0.12696,0.126949,0.126971
2.62162,0.12696,0.126949,0.126971
2.62462,0.12696,0.126949,0.126971
2.62763,0.12696,0.126949,0.126971
2.63063,0.12696,0.126949,0.126971
2.63363,0.12696,0.126949,0.126971
2.63664,0.12696,0.126949,0.126971
2.63964,0.12696,0.126949,0.126971
2.64264,0.12696,0.126949,0.126971
2.64565,0.12696,0.126949,0.126971
2.64865,0.12696,0.126949,0.126971
2.65165,0.12696,0.126949,0.126971
2.65465,0.12696,0.126949,0.126971
2.65766,0.12696,0.126949,0.126971
2.66066,0.12696,0.126949,0.126971
2.66366,0.12696,0.126949,0.126971
2.66667,0.12696,0.126949,0.126971
2.66967,0.12696,0.126949,0.126971
2.67267,0.12696,0.126949,0.126971
2.67568,0.12696,0.126949,0.126971
2.67868,0.12696,0.126949,0.126971
2.68168,0.12696,0.126949,0.126971
2.68468,0.12696,0.126949,0.126971
2.68769,0.12696,0.126949,0.126971
2.69069,0.12696,0.126949,0.126971
2.69369,0.12696,0.126949,0.126971
2.6967,0.12696,0.126949,0.126971
2.6997,0.12696,0.126949,0.126971
2.7027,0.12696,0.126949,0.126971
2.70571,0.12696,0.126949,0.126971
2.70871,0.12696,0.126949,0.126971
2.71171,0.12696,0.126949,0.126971
2.71471,0.12696,0.126949,0.126971
2.71772,0.12696,0.126949,0.126971
2.72072,0.12696,0.126949,0.126971
2.72372,0.12696,0.126949,0.126971
2.72673,0.12696,0.126949,0.126971
2.72973,0.12696,0.126949,0.126971
2.73273,0.12696,0.126949,0.126971
2.73574,0.12696,0.126949,0.126971
2.73874,0.12696,0.126949,0.126971
2.74174,0.12696,0.126949,0.126971
2.74474,0.12696,0.126949,0.126971
2.74775,0.12696,0.126949,0.126972
2.75075,0.12696,0.126949,0.126972
2.75375,0.12696,0.126949,0.126972
2.75676,0.12696,0.126949,0.126972
2.75976,0.12696,0.126949,0.126972
2.76276,0.12696,0.126949,0.126972
2.76577,0.12696,0.126949,0.126972
2.76877,0.12696,0.126949,0.126972
2.77177,0.12696,0.126949,0.126972
2.77477,0.12696,0.126949,0.126972
2.77778,0.12696,0.126949,0.126972
2.78078,0.12696,0.126949,0.126972
2.78378,0.12696,0.126949,0.126972
2.78679,0.12696,0.126949,0.126972
2.78979,0.12696,0.126949,0.126972
2.79279,0.12696,0.126949,0.126972
2.7958,0.12696,0.126949,0.126972
2.7988,0.12696,0.126949,0.126972
2.8018,0.12696,0.126949,0.126972
2.8048,0.12696,0.126949,0.126972
2.80781,0.12696,0.126949,0.126972
2.81081,0.12696,0.126949,0.126972
2.81381,0.12696,0.126949,0.126972
2.81682,0.12696,0.126949,0.126972
2.81982,0.12696,0.126949,0.126972
2.82282,0.12696,0.126949,0.126972
2.82583,0.12696,0.126949,0.126972
2.82883,0.12696,0.126949,0.126972
2.83183,0.126961,0.126949,0.126972
2.83483,0.126961,0.126949,0.126972
2.83784,0.126961,0.126949,0.126972
2.84084,0.126961,0.126949,0.126972
2.84384,0.126961,0.126949,0.126972
2.84685,0.126961,0.126949,0.126972
2.84985,0.126961,0.126949,0.126972
2.85285,0.126961,0.126949,0.126972
2.85586,0.126961,0.126949,0.126972
2.85886,0.126961,0.126949,0.126972
2.86186,0.126961,0.126949,0.126972
2.86486,0.126961,0.126949,0.126972
2.86787,0.126961,0.126949,0.126972
2.87087,0.126961,0.126949,0.126972
2.87387,0.126961,0.126949,0.126972
2.87688,0.126961,0.126949,0.126972
2.87988,0.126961,0.126949,0.126972
2.88288,0.126961,0.126949,0.126972
2.88589,0.126961,0.126949,0.126972
2.88889,0.126961,0.126949,0.126972
2.89189,0.126961,0.126949,0.126972
2.89489,0.126961,0.126949,0.126972
2.8979,0.126961,0.126949,0.126972
2.9009,0.126961,0.126949,0.126972
2.9039,0.126961,0.126949,0.126972
2.90691,0.126961,0.126949,0.126972
2.90991,0.126961,0.126949,0.126972
2.91291,0.126961,0.126949,0.126972
2.91592,0.126961,0.126949,0.126972
2.91892,0.126961,0.126949,0.126972
2.92192,0.126961,0.126949,0.126972
2.92492,0.126961,0.126949,0.126972
2.92793,0.126961,0.126949,0.126972
2.93093,0.126961,0.126949,0.126972
2.93393,0.126961,0.126949,0.126972
2.93694,0.126961,0.126949,0.126972
2.93994,0.126961,0.126949,0.126972
2.94294,0.126961,0.126949,0.126972
2.94595,0.126961,0.126949,0.126972
2.94895,0.126961,0.126949,0.126972
2.95195,0.126961,0.126949,0.126972
2.95495,0.126961,0.126949,0.126972
2.95796,0.126961,0.12695,0.126972
2.96096,0.126961,0.12695,0.126972
2.96396,0.126961,0.12695,0.126972
2.96697,0.126961,0.12695,0.126972
2.96997,0.126961,0.12695,0.126972
2.97297,0.126961,0.12695,0.126972
2.97598,0.126961,0.12695,0.126972
2.97898,0.126961,0.12695,0.126972
2.98198,0.126961,0.12695,0.126972
2.98498,0.126961,0.12695,0.126972
2.98799,0.126961,0.12695,0.126972
2.99099,0.126961,0.12695,0.126972
2.99399,0.126961,0.12695,0.126972
2.997,0.126961,0.12695,0.126972
3,0.126961,0.12695,0.126972
