k,D+(k,0.3)_alpha,D+(k,0.3)_1.05 alpha,D+(k,0.3)_0.95 alpha
0.003003,0.374989,0.374895,0.375083
0.00600601,0.375094,0.375005,0.375183
0.00900901,0.375189,0.375101,0.37528
0.012012,0.375282,0.375193,0.375373
0.015015,0.375351,0.375262,0.37544
0.018018,0.37541,0.375322,0.375499
0.021021,0.375459,0.37537,0.375547
0.024024,0.375498,0.37541,0.375587
0.027027,0.375531,0.375443,0.37562
0.03003,0.375559,0.37547,0.375647
0.033033,0.375582,0.375493,0.37567
0.036036,0.375601,0.375513,0.37569
0.039039,0.375618,0.37553,0.375707
0.042042,0.375633,0.375544,0.375721
0.045045,0.375645,0.375557,0.375734
0.048048,0.375656,0.375568,0.375745
0.0510511,0.375666,0.375577,0.375754
0.0540541,0.375674,0.375586,0.375762
0.0570571,0.375681,0.375593,0.37577
0.0600601,0.375688,0.3756,0.375776
0.0630631,0.375694,0.375606,0.375782
0.0660661,0.375699,0.375611,0.375788
0.0690691,0.375704,0.375616,0.375792
0.0720721,0.375708,0.37562,0.375797
0.0750751,0.375712,0.375624,0.3758
0.0780781,0.375715,0.375627,0.375804
0.0810811,0.375719,0.37563,0.375807
0.0840841,0.375722,0.375633,0.37581
0.0870871,0.375724,0.375636,0.375813
0.0900901,0.375727,0.375638,0.375815
0.0930931,0.375729,0.375641,0.375817
0.0960961,0.375731,0.375643,0.375819
0.0990991,0.375733,0.375645,0.375821
0.102102,0.375735,0.375646,0.375823
0.105105,0.375736,0.375648,0.375825
0.108108,0.375738,0.37565,0.375826
0.111111,0.375739,0.375651,0.375828
0.114114,0.37574,0.375652,0.375829
0.117117,0.375742,0.375654,0.37583
0.12012,0.375743,0.375655,0.375831
0.123123,0.375744,0.375656,0.375832
0.126126,0.375745,0.375657,0.375833
0.129129,0.375746,0.375658,0.375834
0.132132,0.375747,0.375659,0.375835
0.135135,0.375748,0.375659,0.375836
0.138138,0.375748,0.37566,0.375837
0.141141,0.375749,0.375661,0.375838
0.144144,0.37575,0.375662,0.375838
0.147147,0.37575,0.375662,0.375839
0.15015,0.375751,0.375663,0.37584
0.153153,0.375752,0.375664,0.37584
0.156156,0.375752,0.375664,0.375841
0.159159,0.375753,0.375665,0.375841
0.162162,0.375753,0.375665,0.375842
0.165165,0.375754,0.375666,0.375842
0.168168,0.375754,0.375666,0.375843
0.171171,0.375755,0.375666,0.375843
0.174174,0.375755,0.375667,0.375844
0.177177,0.375755,0.375667,0.375844
0.18018,0.375756,0.375668,0.375844
0.183183,0.375756,0.375668,0.375845
0.186186,0.375757,0.375668,0.375845
0.189189,0.375757,0.375669,0.375845
0.192192,0.375757,0.375669,0.375846
0.195195,0.375757,0.375669,0.375846
0.198198,0.375758,0.37567,0.375846
0.201201,0.375758,0.37567,0.375847
0.204204,0.375758,0.37567,0.375847
0.207207,0.375759,0.37567,0.375847
0.21021,0.375759,0.375671,0.375847
0.213213,0.375759,0.375671,0.375847
0.216216,0.375759,0.375671,0.375848
0.219219,0.375759,0.375671,0.375848
0.222222,0.37576,0.375672,0.375848
0.225225,0.37576,0.375672,0.375848
0.228228,0.37576,0.375672,0.375849
0.231231,0.37576,0.375672,0.375849
0.234234,0.37576,0.375672,0.375849
0.237237,0.375761,0.375672,0.375849
0.24024,0.375761,0.375673,0.375849
0.243243,0.375761,0.375673,0.375849
0.246246,0.375761,0.375673,0.37585
0.249249,0.375761,0.375673,0.37585
0.252252,0.375761,0.375673,0.37585
0.255255,0.375762,0.375673,0.37585
0.258258,0.375762,0.375673,0.37585
0.261261,0.375762,0.375674,0.37585
0.264264,0.375762,0.375674,0.37585
0.267267,0.375762,0.375674,0.37585
0.27027,0.375762,0.375674,0.375851
0.273273,0.375762,0.375674,0.375851
0.276276,0.375762,0.375674,0.375851
0.279279,0.375762,0.375674,0.375851
0.282282,0.375763,0.375674,0.375851
0.285285,0.375763,0.375675,0.375851
0.288288,0.375763,0.375675,0.375851
0.291291,0.375763,0.375675,0.375851
0.294294,0.375763,0.375675,0.375851
0.297297,0.375763,0.375675,0.375852
0.3003,0.375763,0.375675,0.375852
0.303303,0.375763,0.375675,0.375852
0.306306,0.375763,0.375675,0.375852
0.309309,0.375763,0.375675,0.375852
0.312312,0.375763,0.375675,0.375852
0.315315,0.375764,0.375675,0.375852
0.318318,0.375764,0.375675,0.375852
0.321321,0.375764,0.375676,0.375852
0.324324,0.375764,0.375676,0.375852
0.327327,0.375764,0.375676,0.375852
0.33033,0.375764,0.375676,0.375852
0.333333,0.375764,0.375676,0.375852
0.336336,0.375764,0.375676,0.375852
0.339339,0.375764,0.375676,0.375853
0.342342,0.375764,0.375676,0.375853
0.345345,0.375764,0.375676,0.375853
0.348348,0.375764,0.375676,0.375853
0.351351,0.375764,0.375676,0.375853
0.354354,0.375764,0.375676,0.375853
0.357357,0.375764,0.375676,0.375853
0.36036,0.375764,0.375676,0.375853
0.363363,0.375765,0.375676,0.375853
0.366366,0.375765,0.375676,0.375853
0.369369,0.375765,0.375676,0.375853
0.372372,0.375765,0.375676,0.375853
0.375375,0.375765,0.375677,0.375853
0.378378,0.375765,0.375677,0.375853
0.381381,0.375765,0.375677,0.375853
0.384384,0.375765,0.375677,0.375853
0.387387,0.375765,0.375677,0.375853
0.39039,0.375765,0.375677,0.375853
0.393393,0.375765,0.375677,0.375853
0.396396,0.375765,0.375677,0.375853
0.399399,0.375765,0.375677,0.375853
0.402402,0.375765,0.375677,0.375854
0.405405,0.375765,0.375677,0.375854
0.408408,0.375765,0.375677,0.375854
0.411411,0.375765,0.375677,0.375854
0.414414,0.375765,0.375677,0.375854
0.417417,0.375765,0.375677,0.375854
0.42042,0.375765,0.375677,0.375854
0.423423,0.375765,0.375677,0.375854
0.426426,0.375765,0.375677,0.375854
0.429429,0.375765,0.375677,0.375854
0.432432,0.375765,0.375677,0.375854
0.435435,0.375765,0.375677,0.375854
0.438438,0.375765,0.375677,0.375854
0.441441,0.375765,0.375677,0.375854
0.444444,0.375766,0.375677,0.375854
0.447447,0.375766,0.375677,0.375854
0.45045,0.375766,0.375677,0.375854
0.453453,0.375766,0.375677,0.375854
0.456456,0.375766,0.375677,0.375854
0.459459,0.375766,0.375677,0.375854
0.462462,0.375766,0.375678,0.375854
0.465465,0.375766,0.375678,0.375854
0.468468,0.375766,0.375678,0.375854
0.471471,0.375766,0.375678,0.375854
0.474474,0.375766,0.375678,0.375854
0.477477,0.375766,0.375678,0.375854
0.48048,0.375766,0.375678,0.375854
0.483483,0.375766,0.375678,0.375854
0.486486,0.375766,0.375678,0.375854
0.489489,0.375766,0.375678,0.375854
0.492492,0.375766,0.375678,0.375854
0.495495,0.375766,0.375678,0.375854
0.498498,0.375766,0.375678,0.375854
0.501502,0.375766,0.375678,0.375854
0.504505,0.375766,0.375678,0.375854
0.507508,0.375766,0.375678,0.375854
0.510511,0.375766,0.375678,0.375854
0.513514,0.375766,0.375678,0.375855
0.516517,0.375766,0.375678,0.375855
0.51952,0.375766,0.375678,0.375855
0.522523,0.375766,0.375678,0.375855
0.525526,0.375766,0.375678,0.375855
0.528529,0.375766,0.375678,0.375855
0.531532,0.375766,0.375678,0.375855
0.534535,0.375766,0.375678,0.375855
0.537538,0.375766,0.375678,0.375855
0.540541,0.375766,0.375678,0.375855
0.543544,0.375766,0.375678,0.375855
0.546547,0.375766,0.375678,0.375855
0.54955,0.375766,0.375678,0.375855
0.552553,0.375766,0.375678,0.375855
0.555556,0.375766,0.375678,0.375855
0.558559,0.375766,0.375678,0.375855
0.561562,0.375766,0.375678,0.375855
0.564565,0.375766,0.375678,0.375855
0.567568,0.375766,0.375678,0.375855
0.570571,0.375766,0.375678,0.375855
0.573574,0.375766,0.375678,0.375855
0.576577,0.375766,0.375678,0.375855
0.57958,0.375766,0.375678,0.375855
0.582583,0.375766,0.375678,0.375855
0.585586,0.375766,0.375678,0.375855
0.588589,0.375766,0.375678,0.375855
0.591592,0.375766,0.375678,0.375855
0.594595,0.375766,0.375678,0.375855
0.597598,0.375766,0.375678,0.375855
0.600601,0.375766,0.375678,0.375855
0.603604,0.375766,0.375678,0.375855
0.606607,0.375767,0.375678,0.375855
0.60961,0.375767,0.375678,0.375855
0.612613,0.375767,0.375678,0.375855
0.615616,0.375767,0.375678,0.375855
0.618619,0.375767,0.375678,0.375855
0.621622,0.375767,0.375678,0.375855
0.624625,0.375767,0.375678,0.375855
0.627628,0.375767,0.375678,0.375855
0.630631,0.375767,0.375678,0.375855
0.633634,0.375767,0.375678,0.375855
0.636637,0.375767,0.375678,0.375855
0.63964,0.375767,0.375678,0.375855
0.642643,0.375767,0.375678,0.375855
0.645646,0.375767,0.375678,0.375855
0.648649,0.375767,0.375679,0.375855
0.651652,0.375767,0.375679,0.375855
0.654655,0.375767,0.375679,0.375855
0.657658,0.375767,0.375679,0.375855
0.660661,0.375767,0.375679,0.375855
0.663664,0.375767,0.375679,0.375855
0.666667,0.375767,0.375679,0.375855
0.66967,0.375767,0.375679,0.375855
0.672673,0.375767,0.375679,0.375855
0.675676,0.375767,0.375679,0.375855
0.678679,0.375767,0.375679,0.375855
0.681682,0.375767,0.375679,0.375855
0.684685,0.375767,0.375679,0.375855
0.687688,0.375767,0.375679,0.375855
0.690691,0.375767,0.375679,0.375855
0.693694,0.375767,0.375679,0.375855
0.696697,0.375767,0.375679,0.375855
0.6997,0.375767,0.375679,0.375855
0.702703,0.375767,0.375679,0.375855
0.705706,0.375767,0.375679,0.375855
0.708709,0.375767,0.375679,0.375855
0.711712,0.375767,0.375679,0.375855
0.714715,0.375767,0.375679,0.375855
0.717718,0.375767,0.375679,0.375855
0.720721,0.375767,0.375679,0.375855
0.723724,0.375767,0.375679,0.375855
0.726727,0.375767,0.375679,0.375855
0.72973,0.375767,0.375679,0.375855
0.732733,0.375767,0.375679,0.375855
0.735736,0.375767,0.375679,0.375855
0.738739,0.375767,0.375679,0.375855
0.741742,0.375767,0.375679,0.375855
0.744745,0.375767,0.375679,0.375855
0.747748,0.375767,0.375679,0.375855
0.750751,0.375767,0.375679,0.375855
0.753754,0.375767,0.375679,0.375855
0.756757,0.375767,0.375679,0.375855
0.75976,0.375767,0.375679,0.375855
0.762763,0.375767,0.375679,0.375855
0.765766,0.375767,0.375679,0.375855
0.768769,0.375767,0.375679,0.375855
0.771772,0.375767,0.375679,0.375855
0.774775,0.375767,0.375679,0.375855
0.777778,0.375767,0.375679,0.375855
0.780781,0.375767,0.375679,0.375855
0.783784,0.375767,0.375679,0.375856
0.786787,0.375767,0.375679,0.375856
0.78979,0.375767,0.375679,0.375856
0.792793,0.375767,0.375679,0.375856
0.795796,0.375767,0.375679,0.375856
0.798799,0.375767,0.375679,0.375856
0.801802,0.375767,0.375679,0.375856
0.804805,0.375767,0.375679,0.375856
0.807808,0.375767,0.375679,0.375856
0.810811,0.375767,0.375679,0.375856
0.813814,0.375767,0.375679,0.375856
0.816817,0.375767,0.375679,0.375856
0.81982,0.375767,0.375679,0.375856
0.822823,0.375767,0.375679,0.375856
0.825826,0.375767,0.375679,0.375856
0.828829,0.375767,0.375679,0.375856
0.831832,0.375767,0.375679,0.375856
0.834835,0.375767,0.375679,0.375856
0.837838,0.375767,0.375679,0.375856
0.840841,0.375767,0.375679,0.375856
0.843844,0.375767,0.375679,0.375856
0.846847,0.375767,0.375679,0.375856
0.84985,0.375767,0.375679,0.375856
0.852853,0.375767,0.375679,0.375856
0.855856,0.375767,0.375679,0.375856
0.858859,0.375767,0.375679,0.375856
0.861862,0.375767,0.375679,0.375856
0.864865,0.375767,0.375679,0.375856
0.867868,0.375767,0.375679,0.375856
0.870871,0.375767,0.375679,0.375856
0.873874,0.375767,0.375679,0.375856
0.876877,0.375767,0.375679,0.375856
0.87988,0.375767,0.375679,0.375856
0.882883,0.375767,0.375679,0.375856
0.885886,0.375767,0.375679,0.375856
0.888889,0.375767,0.375679,0.375856
0.891892,0.375767,0.375679,0.375856
0.894895,0.375767,0.375679,0.375856
0.897898,0.375767,0.375679,0.375856
0.900901,0.375767,0.375679,0.375856
0.903904,0.375767,0.375679,0.375856
0.906907,0.375767,0.375679,0.375856
0.90991,0.375767,0.375679,0.375856
0.912913,0.375767,0.375679,0.375856
0.915916,0.375767,0.375679,0.375856
0.918919,0.375767,0.375679,0.375856
0.921922,0.375767,0.375679,0.375856
0.924925,0.375767,0.375679,0.375856
0.927928,0.375767,0.375679,0.375856
0.930931,0.375767,0.375679,0.375856
0.933934,0.375767,0.375679,0.375856
0.936937,0.375767,0.375679,0.375856
0.93994,0.375767,0.375679,0.375856
0.942943,0.375767,0.375679,0.375856
0.945946,0.375767,0.375679,0.375856
0.948949,0.375767,0.375679,0.375856
0.951952,0.375767,0.375679,0.375856
0.954955,0.375767,0.375679,0.375856
0.957958,0.375767,0.375679,0.375856
0.960961,0.375767,0.375679,0.375856
0.963964,0.375767,0.375679,0.375856
0.966967,0.375767,0.375679,0.375856
0.96997,0.375767,0.375679,0.375856
0.972973,0.375767,0.375679,0.375856
0.975976,0.375767,0.375679,0.375856
0.978979,0.375767,0.375679,0.375856
0.981982,0.375767,0.375679,0.375856
0.984985,0.375767,0.375679,0.375856
0.987988,0.375767,0.375679,0.375856
0.990991,0.375767,0.375679,0.375856
0.993994,0.375767,0.375679,0.375856
0.996997,0.375767,0.375679,0.375856
1,0.375767,0.375679,0.375856
1.003,0.375767,0.375679,0.375856
1.00601,0.375767,0.375679,0.375856
1.00901,0.375767,0.375679,0.375856
1.01201,0.375767,0.375679,0.375856
1.01502,0.375767,0.375679,0.375856
1.01802,0.375767,0.375679,0.375856
1.02102,0.375767,0.375679,0.375856
1.02402,0.375767,0.375679,0.375856
1.02703,0.375767,0.375679,0.375856
1.03003,0.375767,0.375679,0.375856
1.03303,0.375767,0.375679,0.375856
1.03604,0.375767,0.375679,0.375856
1.03904,0.375767,0.375679,0.375856
1.04204,0.375767,0.375679,0.375856
1.04505,0.375768,0.375679,0.375856
1.04805,0.375768,0.375679,0.375856
1.05105,0.375768,0.375679,0.375856
1.05405,0.375768,0.375679,0.375856
1.05706,0.375768,0.375679,0.375856
1.06006,0.375768,0.375679,0.375856
1.06306,0.375768,0.375679,0.375856
1.06607,0.375768,0.375679,0.375856
1.06907,0.375768,0.375679,0.375856
1.07207,0.375768,0.375679,0.375856
1.07508,0.375768,0.375679,0.375856
1.07808,0.375768,0.375679,0.375856
1.08108,0.375768,0.375679,0.375856
1.08408,0.375768,0.375679,0.375856
1.08709,0.375768,0.375679,0.375856
1.09009,0.375768,0.375679,0.375856
1.09309,0.375768,0.375679,0.375856
1.0961,0.375768,0.375679,0.375856
1.0991,0.375768,0.375679,0.375856
1.1021,0.375768,0.375679,0.375856
1.10511,0.375768,0.375679,0.375856
1.10811,0.375768,0.375679,0.375856
1.11111,0.375768,0.375679,0.375856
1.11411,0.375768,0.375679,0.375856
1.11712,0.375768,0.375679,0.375856
1.12012,0.375768,0.375679,0.375856
1.12312,0.375768,0.375679,0.375856
1.12613,0.375768,0.375679,0.375856
1.12913,0.375768,0.375679,0.375856
1.13213,0.375768,0.375679,0.375856
1.13514,0.375768,0.375679,0.375856
1.13814,0.375768,0.375679,0.375856
1.14114,0.375768,0.375679,0.375856
1.14414,0.375768,0.375679,0.375856
1.14715,0.375768,0.375679,0.375856
1.15015,0.375768,0.375679,0.375856
1.15315,0.375768,0.375679,0.375856
1.15616,0.375768,0.37568,0.375856
1.15916,0.375768,0.37568,0.375856
1.16216,0.375768,0.37568,0.375856
1.16517,0.375768,0.37568,0.375856
1.16817,0.375768,0.37568,0.375856
1.17117,0.375768,0.37568,0.375856
1.17417,0.375768,0.37568,0.375856
1.17718,0.375768,0.37568,0.375856
1.18018,0.375768,0.37568,0.375856
1.18318,0.375768,0.37568,0.375856
1.18619,0.375768,0.37568,0.375856
1.18919,0.375768,0.37568,0.375856
1.19219,0.375768,0.37568,0.375856
1.1952,0.375768,0.37568,0.375856
1.1982,0.375768,0.37568,0.375856
1.2012,0.375768,0.37568,0.375856
1.2042,0.375768,0.37568,0.375856
1.20721,0.375768,0.37568,0.375856
1.21021,0.375768,0.37568,0.375856
1.21321,0.375768,0.37568,0.375856
1.21622,0.375768,0.37568,0.375856
1.21922,0.375768,0.37568,0.375856
1.22222,0.375768,0.37568,0.375856
1.22523,0.375768,0.37568,0.375856
1.22823,0.375768,0.37568,0.375856
1.23123,0.375768,0.37568,0.375856
1.23423,0.375768,0.37568,0.375856
1.23724,0.375768,0.37568,0.375856
1.24024,0.375768,0.37568,0.375856
1.24324,0.375768,0.37568,0.375856
1.24625,0.375768,0.37568,0.375856
1.24925,0.375768,0.37568,0.375856
1.25225,0.375768,0.37568,0.375856
1.25526,0.375768,0.37568,0.375856
1.25826,0.375768,0.37568,0.375856
1.26126,0.375768,0.37568,0.375856
1.26426,0.375768,0.37568,0.375856
1.26727,0.375768,0.37568,0.375856
1.27027,0.375768,0.37568,0.375856
1.27327,0.375768,0.37568,0.375856
1.27628,0.375768,0.37568,0.375856
1.27928,0.375768,0.37568,0.375856
1.28228,0.375768,0.37568,0.375856
1.28529,0.375768,0.37568,0.375856
1.28829,0.375768,0.37568,0.375856
1.29129,0.375768,0.37568,0.375856
1.29429,0.375768,0.37568,0.375856
1.2973,0.375768,0.37568,0.375856
1.3003,0.375768,0.37568,0.375856
1.3033,0.375768,0.37568,0.375856
1.30631,0.375768,0.37568,0.375856
1.30931,0.375768,0.37568,0.375856
1.31231,0.375768,0.37568,0.375856
1.31532,0.375768,0.37568,0.375856
1.31832,0.375768,0.37568,0.375856
1.32132,0.375768,0.37568,0.375856
1.32432,0.375768,0.37568,0.375856
1.32733,0.375768,0.37568,0.375856
1.33033,0.375768,0.37568,0.375856
1.33333,0.375768,0.37568,0.375856
1.33634,0.375768,0.37568,0.375856
1.33934,0.375768,0.37568,0.375856
1.34234,0.375768,0.37568,0.375856
1.34535,0.375768,0.37568,0.375856
1.34835,0.375768,0.37568,0.375856
1.35135,0.375768,0.37568,0.375856
1.35435,0.375768,0.37568,0.375856
1.35736,0.375768,0.37568,0.375856
1.36036,0.375768,0.37568,0.375856
1.36336,0.375768,0.37568,0.375856
1.36637,0.375768,0.37568,0.375856
1.36937,0.375768,0.37568,0.375856
1.37237,0.375768,0.37568,0.375856
1.37538,0.375768,0.37568,0.375856
1.37838,0.375768,0.37568,0.375856
1.38138,0.375768,0.37568,0.375856
1.38438,0.375768,0.37568,0.375856
1.38739,0.375768,0.37568,0.375856
1.39039,0.375768,0.37568,0.375856
1.39339,0.375768,0.37568,0.375856
1.3964,0.375768,0.37568,0.375856
1.3994,0.375768,0.37568,0.375856
1.4024,0.375768,0.37568,0.375856
1.40541,0.375768,0.37568,0.375856
1.40841,0.375768,0.37568,0.375856
1.41141,0.375768,0.37568,0.375856
1.41441,0.375768,0.37568,0.375856
1.41742,0.375768,0.37568,0.375856
1.42042,0.375768,0.37568,0.375856
1.42342,0.375768,0.37568,0.375856
1.42643,0.375768,0.37568,0.375856
1.42943,0.375768,0.37568,0.375856
1.43243,0.375768,0.37568,0.375856
1.43544,0.375768,0.37568,0.375856
1.43844,0.375768,0.37568,0.375857
1.44144,0.375768,0.37568,0.375857
1.44444,0.375768,0.37568,0.375857
1.44745,0.375768,0.37568,0.375857
1.45045,0.375768,0.37568,0.375857
1.45345,0.375768,0.37568,0.375857
1.45646,0.375768,0.37568,0.375857
1.45946,0.375768,0.37568,0.375857
1.46246,0.375768,0.37568,0.375857
1.46547,0.375768,0.37568,0.375857
1.46847,0.375768,0.37568,0.375857
1.47147,0.375768,0.37568,0.375857
1.47447,0.375768,0.37568,0.375857
1.47748,0.375768,0.37568,0.375857
1.48048,0.375768,0.37568,0.375857
1.48348,0.375768,0.37568,0.375857
1.48649,0.375768,0.37568,0.375857
1.48949,0.375768,0.37568,0.375857
1.49249,0.375768,0.37568,0.375857
1.4955,0.375768,0.37568,0.375857
1.4985,0.375768,0.37568,0.375857
1.5015,0.375768,0.37568,0.375857
1.5045,0.375768,0.37568,0.375857
1.50751,0.375768,0.37568,0.375857
1.51051,0.375768,0.37568,0.375857
1.51351,0.375768,0.37568,0.375857
1.51652,0.375768,0.37568,0.375857
1.51952,0.375768,0.37568,0.375857
1.52252,0.375768,0.37568,0.375857
1.52553,0.375768,0.37568,0.375857
1.52853,0.375768,0.37568,0.375857
1.53153,0.375768,0.37568,0.375857
1.53453,0.375768,0.37568,0.375857
1.53754,0.375768,0.37568,0.375857
1.54054,0.375768,0.37568,0.375857
1.54354,0.375768,0.37568,0.375857
1.54655,0.375768,0.37568,0.375857
1.54955,0.375768,0.37568,0.375857
1.55255,0.375768,0.37568,0.375857
1.55556,0.375768,0.37568,0.375857
1.55856,0.375768,0.37568,0.375857
1.56156,0.375768,0.37568,0.375857
1.56456,0.375768,0.37568,0.375857
1.56757,0.375768,0.37568,0.375857
1.57057,0.375768,0.37568,0.375857
1.57357,0.375768,0.37568,0.375857
1.57658,0.375768,0.37568,0.375857
1.57958,0.375768,0.37568,0.375857
1.58258,0.375768,0.37568,0.375857
1.58559,0.375768,0.37568,0.375857
1.58859,0.375768,0.37568,0.375857
1.59159,0.375768,0.37568,0.375857
1.59459,0.375768,0.37568,0.375857
1.5976,0.375768,0.37568,0.375857
1.6006,0.375768,0.37568,0.375857
1.6036,0.375768,0.37568,0.375857
1.60661,0.375768,0.37568,0.375857
1.60961,0.375768,0.37568,0.375857
1.61261,0.375768,0.37568,0.375857
1.61562,0.375768,0.37568,0.375857
1.61862,0.375768,0.37568,0.375857
1.62162,0.375768,0.37568,0.375857
1.62462,0.375768,0.37568,0.375857
1.62763,0.375768,0.37568,0.375857
1.63063,0.375768,0.37568,0.375857
1.63363,0.375768,0.37568,0.375857
1.63664,0.375768,0.37568,0.375857
1.63964,0.375768,0.37568,0.375857
1.64264,0.375768,0.37568,0.375857
1.64565,0.375768,0.37568,0.375857
1.64865,0.375768,0.37568,0.375857
1.65165,0.375768,0.37568,0.375857
1.65465,0.375768,0.37568,0.375857
1.65766,0.375768,0.37568,0.375857
1.66066,0.375768,0.37568,0.375857
1.66366,0.375768,0.37568,0.375857
1.66667,0.375768,0.37568,0.375857
1.66967,0.375768,0.37568,0.375857
1.67267,0.375768,0.37568,0.375857
1.67568,0.375768,0.37568,0.375857
1.67868,0.375768,0.37568,0.375857
1.68168,0.375768,0.37568,0.375857
1.68468,0.375768,0.37568,0.375857
1.68769,0.375768,0.37568,0.375857
1.69069,0.375768,0.37568,0.375857
1.69369,0.375768,0.37568,0.375857
1.6967,0.375768,0.37568,0.375857
1.6997,0.375768,0.37568,0.375857
1.7027,0.375768,0.37568,0.375857
1.70571,0.375768,0.37568,0.375857
1.70871,0.375768,0.37568,0.375857
1.71171,0.375768,0.37568,0.375857
1.71471,0.375768,0.37568,0.375857
1.71772,0.375768,0.37568,0.375857
1.72072,0.375768,0.37568,0.375857
1.72372,0.375768,0.37568,0.375857
1.72673,0.375768,0.37568,0.375857
1.72973,0.375768,0.37568,0.375857
1.73273,0.375768,0.37568,0.375857
1.73574,0.375768,0.37568,0.375857
1.73874,0.375768,0.37568,0.375857
1.74174,0.375768,0.37568,0.375857
1.74474,0.375768,0.37568,0.375857
1.74775,0.375768,0.37568,0.375857
1.75075,0.375768,0.37568,0.375857
1.75375,0.375768,0.37568,0.375857
1.75676,0.375768,0.37568,0.375857
1.75976,0.375768,0.37568,0.375857
1.76276,0.375768,0.37568,0.375857
1.76577,0.375768,0.37568,0.375857
1.76877,0.375769,0.37568,0.375857
1.77177,0.375769,0.37568,0.375857
1.77477,0.375769,0.37568,0.375857
1.77778,0.375769,0.37568,0.375857
1.78078,0.375769,0.37568,0.375857
1.78378,0.375769,0.37568,0.375857
1.78679,0.375769,0.37568,0.375857
1.78979,0.375769,0.37568,0.375857
1.79279,0.375769,0.37568,0.375857
1.7958,0.375769,0.37568,0.375857
1.7988,0.375769,0.37568,0.375857
1.8018,0.375769,0.37568,0.375857
1.8048,0.375769,0.37568,0.375857
1.80781,0.375769,0.37568,0.375857
1.81081,0.375769,0.37568,0.375857
1.81381,0.375769,0.37568,0.375857
1.81682,0.375769,0.37568,0.375857
1.81982,0.375769,0.37568,0.375857
1.82282,0.375769,0.37568,0.375857
1.82583,0.375769,0.37568,0.375857
1.82883,0.375769,0.37568,0.375857
1.83183,0.375769,0.37568,0.375857
1.83483,0.375769,0.37568,0.375857
1.83784,0.375769,0.37568,0.375857
1.84084,0.375769,0.37568,0.375857
1.84384,0.375769,0.37568,0.375857
1.84685,0.375769,0.37568,0.375857
1.84985,0.375769,0.37568,0.375857
1.85285,0.375769,0.37568,0.375857
1.85586,0.375769,0.37568,0.375857
1.85886,0.375769,0.37568,0.375857
1.86186,0.375769,0.37568,0.375857
1.86486,0.375769,0.37568,0.375857
1.86787,0.375769,0.37568,0.375857
1.87087,0.375769,0.37568,0.375857
1.87387,0.375769,0.37568,0.375857
1.87688,0.375769,0.375681,0.375857
1.87988,0.375769,0.375681,0.375857
1.88288,0.375769,0.375681,0.375857
1.88589,0.375769,0.375681,0.375857
1.88889,0.375769,0.375681,0.375857
1.89189,0.375769,0.375681,0.375857
1.89489,0.375769,0.375681,0.375857
1.8979,0.375769,0.375681,0.375857
1.9009,0.375769,0.375681,0.375857
1.9039,0.375769,0.375681,0.375857
1.90691,0.375769,0.375681,0.375857
1.90991,0.375769,0.375681,0.375857
1.91291,0.375769,0.375681,0.375857
1.91592,0.375769,0.375681,0.375857
1.91892,0.375769,0.375681,0.375857
1.92192,0.375769,0.375681,0.375857
1.92492,0.375769,0.375681,0.375857
1.92793,0.375769,0.375681,0.375857
1.93093,0.375769,0.375681,0.375857
1.93393,0.375769,0.375681,0.375857
1.93694,0.375769,0.375681,0.375857
1.93994,0.375769,0.375681,0.375857
1.94294,0.375769,0.375681,0.375857
1.94595,0.375769,0.375681,0.375857
1.94895,0.375769,0.375681,0.375857
1.95195,0.375769,0.375681,0.375857
1.95495,0.375769,0.375681,0.375857
1.95796,0.375769,0.375681,0.375857
1.96096,0.375769,0.375681,0.375857
1.96396,0.375769,0.375681,0.375857
1.96697,0.375769,0.375681,0.375857
1.96997,0.375769,0.375681,0.375857
1.97297,0.375769,0.375681,0.375857
1.97598,0.375769,0.375681,0.375857
1.97898,0.375769,0.375681,0.375857
1.98198,0.375769,0.375681,0.375857
1.98498,0.375769,0.375681,0.375857
1.98799,0.375769,0.375681,0.375857
1.99099,0.375769,0.375681,0.375857
1.99399,0.375769,0.375681,0.375857
1.997,0.375769,0.375681,0.375857
2,0.375769,0.375681,0.375857
2.003,0.375769,0.375681,0.375857
2.00601,0.375769,0.375681,0.375857
2.00901,0.375769,0.375681,0.375857
2.01201,0.375769,0.375681,0.375857
2.01502,0.375769,0.375681,0.375857
2.01802,0.375769,0.375681,0.375857
2.02102,0.375769,0.375681,0.375857
2.02402,0.375769,0.375681,0.375857
2.02703,0.375769,0.375681,0.375857
2.03003,0.375769,0.375681,0.375857
2.03303,0.375769,0.375681,0.375857
2.03604,0.375769,0.375681,0.375857
2.03904,0.375769,0.375681,0.375857
2.04204,0.375769,0.375681,0.375857
2.04505,0.375769,0.375681,0.375857
2.04805,0.375769,0.375681,0.375857
2.05105,0.375769,0.375681,0.375857
2.05405,0.375769,0.375681,0.375857
2.05706,0.375769,0.375681,0.375857
2.06006,0.375769,0.375681,0.375857
2.06306,0.375769,0.375681,0.375857
2.06607,0.375769,0.375681,0.375857
2.06907,0.375769,0.375681,0.375857
2.07207,0.375769,0.375681,0.375857
2.07508,0.375769,0.375681,0.375857
2.07808,0.375769,0.375681,0.375857
2.08108,0.375769,0.375681,0.375857
2.08408,0.375769,0.375681,0.375857
2.08709,0.375769,0.375681,0.375857
2.09009,0.375769,0.375681,0.375857
2.09309,0.375769,0.375681,0.375857
2.0961,0.375769,0.375681,0.375857
2.0991,0.375769,0.375681,0.375857
2.1021,0.375769,0.375681,0.375857
2.10511,0.375769,0.375681,0.375857
2.10811,0.375769,0.375681,0.375857
2.11111,0.375769,0.375681,0.375857
2.11411,0.375769,0.375681,0.375857
2.11712,0.375769,0.375681,0.375858
2.12012,0.375769,0.375681,0.375858
2.12312,0.375769,0.375681,0.375858
2.12613,0.375769,0.375681,0.375858
2.12913,0.375769,0.375681,0.375858
2.13213,0.375769,0.375681,0.375858
2.13514,0.375769,0.375681,0.375858
2.13814,0.375769,0.375681,0.375858
2.14114,0.375769,0.375681,0.375858
2.14414,0.375769,0.375681,0.375858
2.14715,0.375769,0.375681,0.375858
2.15015,0.375769,0.375681,0.375858
2.15315,0.375769,0.375681,0.375858
2.15616,0.375769,0.375681,0.375858
2.15916,0.375769,0.375681,0.375858
2.16216,0.375769,0.375681,0.375858
2.16517,0.375769,0.375681,0.375858
2.16817,0.375769,0.375681,0.375858
2.17117,0.375769,0.375681,0.375858
2.17417,0.375769,0.375681,0.375858
2.17718,0.375769,0.375681,0.375858
2.18018,0.375769,0.375681,0.375858
2.18318,0.375769,0.375681,0.375858
2.18619,0.375769,0.375681,0.375858
2.18919,0.375769,0.375681,0.375858
2.19219,0.375769,0.375681,0.375858
2.1952,0.375769,0.375681,0.375858
2.1982,0.375769,0.375681,0.375858
2.2012,0.375769,0.375681,0.375858
2.2042,0.375769,0.375681,0.375858
2.20721,0.375769,0.375681,0.375858
2.21021,0.375769,0.375681,0.375858
2.21321,0.375769,0.375681,0.375858
2.21622,0.375769,0.375681,0.375858
2.21922,0.375769,0.375681,0.375858
2.22222,0.375769,0.375681,0.375858
2.22523,0.375769,0.375681,0.375858
2.22823,0.375769,0.375681,0.375858
2.23123,0.375769,0.375681,0.375858
2.23423,0.375769,0.375681,0.375858
2.23724,0.375769,0.375681,0.375858
2.24024,0.375769,0.375681,0.375858
2.24324,0.375769,0.375681,0.375858
2.24625,0.375769,0.375681,0.375858
2.24925,0.375769,0.375681,0.375858
2.25225,0.375769,0.375681,0.375858
2.25526,0.375769,0.375681,0.375858
2.25826,0.375769,0.375681,0.375858
2.26126,0.375769,0.375681,0.375858
2.26426,0.375769,0.375681,0.375858
2.26727,0.375769,0.375681,0.375858
2.27027,0.375769,0.375681,0.375858
2.27327,0.375769,0.375681,0.375858
2.27628,0.375769,0.375681,0.375858
2.27928,0.375769,0.375681,0.375858
2.28228,0.375769,0.375681,0.375858
2.28529,0.375769,0.375681,0.375858
2.28829,0.375769,0.375681,0.375858
2.29129,0.375769,0.375681,0.375858
2.29429,0.375769,0.375681,0.375858
2.2973,0.375769,0.375681,0.375858
2.3003,0.375769,0.375681,0.375858
2.3033,0.375769,0.375681,0.375858
2.30631,0.375769,0.375681,0.375858
2.30931,0.375769,0.375681,0.375858
2.31231,0.375769,0.375681,0.375858
2.31532,0.375769,0.375681,0.375858
2.31832,0.375769,0.375681,0.375858
2.32132,0.375769,0.375681,0.375858
2.32432,0.375769,0.375681,0.375858
2.32733,0.375769,0.375681,0.375858
2.33033,0.375769,0.375681,0.375858
2.33333,0.375769,0.375681,0.375858
2.33634,0.375769,0.375681,0.375858
2.33934,0.375769,0.375681,0.375858
2.34234,0.375769,0.375681,0.375858
2.34535,0.375769,0.375681,0.375858
2.34835,0.375769,0.375681,0.375858
2.35135,0.375769,0.375681,0.375858
2.35435,0.375769,0.375681,0.375858
2.35736,0.375769,0.375681,0.375858
2.36036,0.375769,0.375681,0.375858
2.36336,0.375769,0.375681,0.375858
2.36637,0.375769,0.375681,0.375858
2.36937,0.375769,0.375681,0.375858
2.37237,0.375769,0.375681,0.375858
2.37538,0.375769,0.375681,0.375858
2.37838,0.375769,0.375681,0.375858
2.38138,0.37577,0.375681,0.375858
2.38438,0.37577,0.375681,0.375858
2.38739,0.37577,0.375681,0.375858
2.39039,0.37577,0.375681,0.375858
2.39339,0.37577,0.375681,0.375858
2.3964,0.37577,0.375681,0.375858
2.3994,0.37577,0.375681,0.375858
2.4024,0.37577,0.375681,0.375858
2.40541,0.37577,0.375681,0.375858
2.40841,0.37577,0.375681,0.375858
2.41141,0.37577,0.375681,0.375858
2.41441,0.37577,0.375681,0.375858
2.41742,0.37577,0.375681,0.375858
2.42042,0.37577,0.375681,0.375858
2.42342,0.37577,0.375681,0.375858
2.42643,0.37577,0.375681,0.375858
2.42943,0.37577,0.375681,0.375858
2.43243,0.37577,0.375681,0.375858
2.43544,0.37577,0.375681,0.375858
2.43844,0.37577,0.375681,0.375858
2.44144,0.37577,0.375681,0.375858
2.44444,0.37577,0.375681,0.375858
2.44745,0.37577,0.375681,0.375858
2.45045,0.37577,0.375681,0.375858
2.45345,0.37577,0.375681,0.375858
2.45646,0.37577,0.375681,0.375858
2.45946,0.37577,0.375681,0.375858
2.46246,0.37577,0.375682,0.375858
2.46547,0.37577,0.375682,0.375858
2.46847,0.37577,0.375682,0.375858
2.47147,0.37577,0.375682,0.375858
2.47447,0.37577,0.375682,0.375858
2.47748,0.37577,0.375682,0.375858
2.48048,0.37577,0.375682,0.375858
2.48348,0.37577,0.375682,0.375858
2.48649,0.37577,0.375682,0.375858
2.48949,0.37577,0.375682,0.375858
2.49249,0.37577,0.375682,0.375858
2.4955,0.37577,0.375682,0.375858
2.4985,0.37577,0.375682,0.375858
2.5015,0.37577,0.375682,0.375858
2.5045,0.37577,0.375682,0.375858
2.50751,0.37577,0.375682,0.375858
2.51051,0.37577,0.375682,0.375858
2.51351,0.37577,0.375682,0.375858
2.51652,0.37577,0.375682,0.375858
2.51952,0.37577,0.375682,0.375858
2.52252,0.37577,0.375682,0.375858
2.52553,0.37577,0.375682,0.375858
2.52853,0.37577,0.375682,0.375858
2.53153,0.37577,0.375682,0.375858
2.53453,0.37577,0.375682,0.375858
2.53754,0.37577,0.375682,0.375858
2.54054,0.37577,0.375682,0.375858
2.54354,0.37577,0.375682,0.375858
2.54655,0.37577,0.375682,0.375858
2.54955,0.37577,0.375682,0.375858
2.55255,0.37577,0.375682,0.375858
2.55556,0.37577,0.375682,0.375858
2.55856,0.37577,0.375682,0.375858
2.56156,0.37577,0.375682,0.375858
2.56456,0.37577,0.375682,0.375858
2.56757,0.37577,0.375682,0.375858
2.57057,0.37577,0.375682,0.375858
2.57357,0.37577,0.375682,0.375858
2.57658,0.37577,0.375682,0.375858
2.57958,0.37577,0.375682,0.375858
2.58258,0.37577,0.375682,0.375858
2.58559,0.37577,0.375682,0.375858
2.58859,0.37577,0.375682,0.375858
2.59159,0.37577,0.375682,0.375858
2.59459,0.37577,0.375682,0.375858
2.5976,0.37577,0.375682,0.375858
2.6006,0.37577,0.375682,0.375858
2.6036,0.37577,0.375682,0.375858
2.60661,0.37577,0.375682,0.375858
2.60961,0.37577,0.375682,0.375858
2.61261,0.37577,0.375682,0.375858
2.61562,0.37577,0.375682,0.375858
2.61862,0.37577,0.375682,0.375858
2.62162,0.37577,0.375682,0.375858
2.62462,0.37577,0.375682,0.375858
2.62763,0.37577,0.375682,0.375858
2.63063,0.37577,0.375682,0.375858
2.63363,0.37577,0.375682,0.375858
2.63664,0.37577,0.375682,0.375858
2.63964,0.37577,0.375682,0.375858
2.64264,0.37577,0.375682,0.375858
2.64565,0.37577,0.375682,0.375858
2.64865,0.37577,0.375682,0.375858
2.65165,0.37577,0.375682,0.375858
2.65465,0.37577,0.375682,0.375858
2.65766,0.37577,0.375682,0.375858
2.66066,0.37577,0.375682,0.375859
2.66366,0.37577,0.375682,0.375859
2.66667,0.37577,0.375682,0.375859
2.66967,0.37577,0.375682,0.375859
2.67267,0.37577,0.375682,0.375859
2.67568,0.37577,0.375682,0.375859
2.67868,0.37577,0.375682,0.375859
2.68168,0.37577,0.375682,0.375859
2.68468,0.37577,0.375682,0.375859
2.68769,0.37577,0.375682,0.375859
2.69069,0.37577,0.375682,0.375859
2.69369,0.37577,0.375682,0.375859
2.6967,0.37577,0.375682,0.375859
2.6997,0.37577,0.375682,0.375859
2.7027,0.37577,0.375682,0.375859
2.70571,0.37577,0.375682,0.375859
2.70871,0.37577,0.375682,0.375859
2.71171,0.37577,0.375682,0.375859
2.71471,0.37577,0.375682,0.375859
2.71772,0.37577,0.375682,0.375859
2.72072,0.37577,0.375682,0.375859
2.72372,0.37577,0.375682,0.375859
2.72673,0.37577,0.375682,0.375859
2.72973,0.37577,0.375682,0.375859
2.73273,0.37577,0.375682,0.375859
2.73574,0.37577,0.375682,0.375859
2.73874,0.37577,0.375682,0.375859
2.74174,0.37577,0.375682,0.375859
2.74474,0.37577,0.375682,0.375859
2.74775,0.37577,0.375682,0.375859
2.75075,0.37577,0.375682,0.375859
2.75375,0.37577,0.375682,0.375859
2.75676,0.37577,0.375682,0.375859
2.75976,0.37577,0.375682,0.375859
2.76276,0.37577,0.375682,0.375859
2.76577,0.37577,0.375682,0.375859
2.76877,0.37577,0.375682,0.375859
2.77177,0.37577,0.375682,0.375859
2.77477,0.37577,0.375682,0.375859
2.77778,0.37577,0.375682,0.375859
2.78078,0.37577,0.375682,0.375859
2.78378,0.37577,0.375682,0.375859
2.78679,0.37577,0.375682,0.375859
2.78979,0.37577,0.375682,0.375859
2.79279,0.37577,0.375682,0.375859
2.7958,0.37577,0.375682,0.375859
2.7988,0.37577,0.375682,0.375859
2.8018,0.37577,0.375682,0.375859
2.8048,0.37577,0.375682,0.375859
2.80781,0.37577,0.375682,0.375859
2.81081,0.37577,0.375682,0.375859
2.81381,0.37577,0.375682,0.375859
2.81682,0.37577,0.375682,0.375859
2.81982,0.37577,0.375682,0.375859
2.82282,0.37577,0.375682,0.375859
2.82583,0.37577,0.375682,0.375859
2.82883,0.37577,0.375682,0.375859
2.83183,0.37577,0.375682,0.375859
2.83483,0.37577,0.375682,0.375859
2.83784,0.37577,0.375682,0.375859
2.84084,0.37577,0.375682,0.375859
2.84384,0.37577,0.375682,0.375859
2.84685,0.37577,0.375682,0.375859
2.84985,0.37577,0.375682,0.375859
2.85285,0.37577,0.375682,0.375859
2.85586,0.37577,0.375682,0.375859
2.85886,0.37577,0.375682,0.375859
2.86186,0.37577,0.375682,0.375859
2.86486,0.37577,0.375682,0.375859
2.86787,0.37577,0.375682,0.375859
2.87087,0.37577,0.375682,0.375859
2.87387,0.37577,0.375682,0.375859
2.87688,0.37577,0.375682,0.375859
2.87988,0.37577,0.375682,0.375859
2.88288,0.37577,0.375682,0.375859
2.88589,0.375771,0.375682,0.375859
2.88889,0.375771,0.375682,0.375859
2.89189,0.375771,0.375682,0.375859
2.89489,0.375771,0.375682,0.375859
2.8979,0.375771,0.375682,0.375859
2.9009,0.375771,0.375682,0.375859
2.9039,0.375771,0.375682,0.375859
2.90691,0.375771,0.375682,0.375859
2.90991,0.375771,0.375682,0.375859
2.91291,0.375771,0.375682,0.375859
2.91592,0.375771,0.375682,0.375859
2.91892,0.375771,0.375682,0.375859
2.92192,0.375771,0.375682,0.375859
2.92492,0.375771,0.375682,0.375859
2.92793,0.375771,0.375682,0.375859
2.93093,0.375771,0.375682,0.375859
2.93393,0.375771,0.375682,0.375859
2.93694,0.375771,0.375682,0.375859
2.93994,0.375771,0.375682,0.375859
2.94294,0.375771,0.375682,0.375859
2.94595,0.375771,0.375682,0.375859
2.94895,0.375771,0.375682,0.375859
2.95195,0.375771,0.375682,0.375859
2.95495,0.375771,0.375682,0.375859
2.95796,0.375771,0.375683,0.375859
2.96096,0.375771,0.375683,0.375859
2.96396,0.375771,0.375683,0.375859
2.96697,0.375771,0.375683,0.375859
2.96997,0.375771,0.375683,0.375859
2.97297,0.375771,0.375683,0.375859
2.97598,0.375771,0.375683,0.375859
2.97898,0.375771,0.375683,0.375859
2.98198,0.375771,0.375683,0.375859
2.98498,0.375771,0.375683,0.375859
2.98799,0.375771,0.375683,0.375859
2.99099,0.375771,0.375683,0.375859
2.99399,0.375771,0.375683,0.375859
2.997,0.375771,0.375683,0.375859
3,0.375771,0.375683,0.375859
