k,D+(k,1.0)_alpha,D+(k,1.0)_1.05 alpha,D+(k,1.0)_0.95 alpha
0.003003,1,1,1
0.00600601,1,1,1
0.00900901,1,1,1
0.012012,1,1,1
0.015015,1,1,1
0.018018,1,1,1
0.021021,1,1,1
0.024024,1,1,1
0.027027,1,1,1
0.03003,1,1,1
0.033033,1,1,1
0.036036,1,1,1
0.039039,1,1,1
0.042042,1,1,1
0.045045,1,1,1
0.048048,1,1,1
0.0510511,1,1,1
0.0540541,1,1,1
0.0570571,1,1,1
0.0600601,1,1,1
0.0630631,1,1,1
0.0660661,1,1,1
0.0690691,1,1,1
0.0720721,1,1,1
0.0750751,1,1,1
0.0780781,1,1,1
0.0810811,1,1,1
0.0840841,1,1,1
0.0870871,1,1,1
0.0900901,1,1,1
0.0930931,1,1,1
0.0960961,1,1,1
0.0990991,1,1,1
0.102102,1,1,1
0.105105,1,1,1
0.108108,1,1,1
0.111111,1,1,1
0.114114,1,1,1
0.117117,1,1,1
0.12012,1,1,1
0.123123,1,1,1
0.126126,1,1,1
0.129129,1,1,1
0.132132,1,1,1
0.135135,1,1,1
0.138138,1,1,1
0.141141,1,1,1
0.144144,1,1,1
0.147147,1,1,1
0.15015,1,1,1
0.153153,1,1,1
0.156156,1,1,1
0.159159,1,1,1
0.162162,1,1,1
0.165165,1,1,1
0.168168,1,1,1
0.171171,1,1,1
0.174174,1,1,1
0.177177,1,1,1
0.18018,1,1,1
0.183183,1,1,1
0.186186,1,1,1
0.189189,1,1,1
0.192192,1,1,1
0.195195,1,1,1
0.198198,1,1,1
0.201201,1,1,1
0.204204,1,1,1
0.207207,1,1,1
0.21021,1,1,1
0.213213,1,1,1
0.216216,1,1,1
0.219219,1,1,1
0.222222,1,1,1
0.225225,1,1,1
0.228228,1,1,1
0.231231,1,1,1
0.234234,1,1,1
0.237237,1,1,1
0.24024,1,1,1
0.243243,1,1,1
0.246246,1,1,1
0.249249,1,1,1
0.252252,1,1,1
0.255255,1,1,1
0.258258,1,1,1
0.261261,1,1,1
0.264264,1,1,1
0.267267,1,1,1
0.27027,1,1,1
0.273273,1,1,1
0.276276,1,1,1
0.279279,1,1,1
0.282282,1,1,1
0.285285,1,1,1
0.288288,1,1,1
0.291291,1,1,1
0.294294,1,1,1
0.297297,1,1,1
0.3003,1,1,1
0.303303,1,1,1
0.306306,1,1,1
0.309309,1,1,1
0.312312,1,1,1
0.315315,1,1,1
0.318318,1,1,1
0.321321,1,1,1
0.324324,1,1,1
0.327327,1,1,1
0.33033,1,1,1
0.333333,1,1,1
0.336336,1,1,1
0.339339,1,1,1
0.342342,1,1,1
0.345345,1,1,1
0.348348,1,1,1
0.351351,1,1,1
0.354354,1,1,1
0.357357,1,1,1
0.36036,1,1,1
0.363363,1,1,1
0.366366,1,1,1
0.369369,1,1,1
0.372372,1,1,1
0.375375,1,1,1
0.378378,1,1,1
0.381381,1,1,1
0.384384,1,1,1
0.387387,1,1,1
0.39039,1,1,1
0.393393,1,1,1
0.396396,1,1,1
0.399399,1,1,1
0.402402,1,1,1
0.405405,1,1,1
0.408408,1,1,1
0.411411,1,1,1
0.414414,1,1,1
0.417417,1,1,1
0.42042,1,1,1
0.423423,1,1,1
0.426426,1,1,1
0.429429,1,1,1
0.432432,1,1,1
0.435435,1,1,1
0.438438,1,1,1
0.441441,1,1,1
0.444444,1,1,1
0.447447,1,1,1
0.45045,1,1,1
0.453453,1,1,1
0.456456,1,1,1
0.459459,1,1,1
0.462462,1,1,1
0.465465,1,1,1
0.468468,1,1,1
0.471471,1,1,1
0.474474,1,1,1
0.477477,1,1,1
0.48048,1,1,1
0.483483,1,1,1
0.486486,1,1,1
0.489489,1,1,1
0.492492,1,1,1
0.495495,1,1,1
0.498498,1,1,1
0.501502,1,1,1
0.504505,1,1,1
0.507508,1,1,1
0.510511,1,1,1
0.513514,1,1,1
0.516517,1,1,1
0.51952,1,1,1
0.522523,1,1,1
0.525526,1,1,1
0.528529,1,1,1
0.531532,1,1,1
0.534535,1,1,1
0.537538,1,1,1
0.540541,1,1,1
0.543544,1,1,1
0.546547,1,1,1
0.54955,1,1,1
0.552553,1,1,1
0.555556,1,1,1
0.558559,1,1,1
0.561562,1,1,1
0.564565,1,1,1
0.567568,1,1,1
0.570571,1,1,1
0.573574,1,1,1
0.576577,1,1,1
0.57958,1,1,1
0.582583,1,1,1
0.585586,1,1,1
0.588589,1,1,1
0.591592,1,1,1
0.594595,1,1,1
0.597598,1,1,1
0.600601,1,1,1
0.603604,1,1,1
0.606607,1,1,1
0.60961,1,1,1
0.612613,1,1,1
0.615616,1,1,1
0.618619,1,1,1
0.621622,1,1,1
0.624625,1,1,1
0.627628,1,1,1
0.630631,1,1,1
0.633634,1,1,1
0.636637,1,1,1
0.63964,1,1,1
0.642643,1,1,1
0.645646,1,1,1
0.648649,1,1,1
0.651652,1,1,1
0.654655,1,1,1
0.657658,1,1,1
0.660661,1,1,1
0.663664,1,1,1
0.666667,1,1,1
0.66967,1,1,1
0.672673,1,1,1
0.675676,1,1,1
0.678679,1,1,1
0.681682,1,1,1
0.684685,1,1,1
0.687688,1,1,1
0.690691,1,1,1
0.693694,1,1,1
0.696697,1,1,1
0.6997,1,1,1
0.702703,1,1,1
0.705706,1,1,1
0.708709,1,1,1
0.711712,1,1,1
0.714715,1,1,1
0.717718,1,1,1
0.720721,1,1,1
0.723724,1,1,1
0.726727,1,1,1
0.72973,1,1,1
0.732733,1,1,1
0.735736,1,1,1
0.738739,1,1,1
0.741742,1,1,1
0.744745,1,1,1
0.747748,1,1,1
0.750751,1,1,1
0.753754,1,1,1
0.756757,1,1,1
0.75976,1,1,1
0.762763,1,1,1
0.765766,1,1,1
0.768769,1,1,1
0.771772,1,1,1
0.774775,1,1,1
0.777778,1,1,1
0.780781,1,1,1
0.783784,1,1,1
0.786787,1,1,1
0.78979,1,1,1
0.792793,1,1,1
0.795796,1,1,1
0.798799,1,1,1
0.801802,1,1,1
0.804805,1,1,1
0.807808,1,1,1
0.810811,1,1,1
0.813814,1,1,1
0.816817,1,1,1
0.81982,1,1,1
0.822823,1,1,1
0.825826,1,1,1
0.828829,1,1,1
0.831832,1,1,1
0.834835,1,1,1
0.837838,1,1,1
0.840841,1,1,1
0.843844,1,1,1
0.846847,1,1,1
0.84985,1,1,1
0.852853,1,1,1
0.855856,1,1,1
0.858859,1,1,1
0.861862,1,1,1
0.864865,1,1,1
0.867868,1,1,1
0.870871,1,1,1
0.873874,1,1,1
0.876877,1,1,1
0.87988,1,1,1
0.882883,1,1,1
0.885886,1,1,1
0.888889,1,1,1
0.891892,1,1,1
0.894895,1,1,1
0.897898,1,1,1
0.900901,1,1,1
0.903904,1,1,1
0.906907,1,1,1
0.90991,1,1,1
0.912913,1,1,1
0.915916,1,1,1
0.918919,1,1,1
0.921922,1,1,1
0.924925,1,1,1
0.927928,1,1,1
0.930931,1,1,1
0.933934,1,1,1
0.936937,1,1,1
0.93994,1,1,1
0.942943,1,1,1
0.945946,1,1,1
0.948949,1,1,1
0.951952,1,1,1
0.954955,1,1,1
0.957958,1,1,1
0.960961,1,1,1
0.963964,1,1,1
0.966967,1,1,1
0.96997,1,1,1
0.972973,1,1,1
0.975976,1,1,1
0.978979,1,1,1
0.981982,1,1,1
0.984985,1,1,1
0.987988,1,1,1
0.990991,1,1,1
0.993994,1,1,1
0.996997,1,1,1
1,1,1,1
1.003,1,1,1
1.00601,1,1,1
1.00901,1,1,1
1.01201,1,1,1
1.01502,1,1,1
1.01802,1,1,1
1.02102,1,1,1
1.02402,1,1,1
1.02703,1,1,1
1.03003,1,1,1
1.03303,1,1,1
1.03604,1,1,1
1.03904,1,1,1
1.04204,1,1,1
1.04505,1,1,1
1.04805,1,1,1
1.05105,1,1,1
1.05405,1,1,1
1.05706,1,1,1
1.06006,1,1,1
1.06306,1,1,1
1.06607,1,1,1
1.06907,1,1,1
1.07207,1,1,1
1.07508,1,1,1
1.07808,1,1,1
1.08108,1,1,1
1.08408,1,1,1
1.08709,1,1,1
1.09009,1,1,1
1.09309,1,1,1
1.0961,1,1,1
1.0991,1,1,1
1.1021,1,1,1
1.10511,1,1,1
1.10811,1,1,1
1.11111,1,1,1
1.11411,1,1,1
1.11712,1,1,1
1.12012,1,1,1
1.12312,1,1,1
1.12613,1,1,1
1.12913,1,1,1
1.13213,1,1,1
1.13514,1,1,1
1.13814,1,1,1
1.14114,1,1,1
1.14414,1,1,1
1.14715,1,1,1
1.15015,1,1,1
1.15315,1,1,1
1.15616,1,1,1
1.15916,1,1,1
1.16216,1,1,1
1.16517,1,1,1
1.16817,1,1,1
1.17117,1,1,1
1.17417,1,1,1
1.17718,1,1,1
1.18018,1,1,1
1.18318,1,1,1
1.18619,1,1,1
1.18919,1,1,1
1.19219,1,1,1
1.1952,1,1,1
1.1982,1,1,1
1.2012,1,1,1
1.2042,1,1,1
1.20721,1,1,1
1.21021,1,1,1
1.21321,1,1,1
1.21622,1,1,1
1.21922,1,1,1
1.22222,1,1,1
1.22523,1,1,1
1.22823,1,1,1
1.23123,1,1,1
1.23423,1,1,1
1.23724,1,1,1
1.24024,1,1,1
1.24324,1,1,1
1.24625,1,1,1
1.24925,1,1,1
1.25225,1,1,1
1.25526,1,1,1
1.25826,1,1,1
1.26126,1,1,1
1.26426,1,1,1
1.26727,1,1,1
1.27027,1,1,1
1.27327,1,1,1
1.27628,1,1,1
1.27928,1,1,1
1.28228,1,1,1
1.28529,1,1,1
1.28829,1,1,1
1.29129,1,1,1
1.29429,1,1,1
1.2973,1,1,1
1.3003,1,1,1
1.3033,1,1,1
1.30631,1,1,1
1.30931,1,1,1
1.31231,1,1,1
1.31532,1,1,1
1.31832,1,1,1
1.32132,1,1,1
1.32432,1,1,1
1.32733,1,1,1
1.33033,1,1,1
1.33333,1,1,1
1.33634,1,1,1
1.33934,1,1,1
1.34234,1,1,1
1.34535,1,1,1
1.34835,1,1,1
1.35135,1,1,1
1.35435,1,1,1
1.35736,1,1,1
1.36036,1,1,1
1.36336,1,1,1
1.36637,1,1,1
1.36937,1,1,1
1.37237,1,1,1
1.37538,1,1,1
1.37838,1,1,1
1.38138,1,1,1
1.38438,1,1,1
1.38739,1,1,1
1.39039,1,1,1
1.39339,1,1,1
1.3964,1,1,1
1.3994,1,1,1
1.4024,1,1,1
1.40541,1,1,1
1.40841,1,1,1
1.41141,1,1,1
1.41441,1,1,1
1.41742,1,1,1
1.42042,1,1,1
1.42342,1,1,1
1.42643,1,1,1
1.42943,1,1,1
1.43243,1,1,1
1.43544,1,1,1
1.43844,1,1,1
1.44144,1,1,1
1.44444,1,1,1
1.44745,1,1,1
1.45045,1,1,1
1.45345,1,1,1
1.45646,1,1,1
1.45946,1,1,1
1.46246,1,1,1
1.46547,1,1,1
1.46847,1,1,1
1.47147,1,1,1
1.47447,1,1,1
1.47748,1,1,1
1.48048,1,1,1
1.48348,1,1,1
1.48649,1,1,1
1.48949,1,1,1
1.49249,1,1,1
1.4955,1,1,1
1.4985,1,1,1
1.5015,1,1,1
1.5045,1,1,1
1.50751,1,1,1
1.51051,1,1,1
1.51351,1,1,1
1.51652,1,1,1
1.51952,1,1,1
1.52252,1,1,1
1.52553,1,1,1
1.52853,1,1,1
1.53153,1,1,1
1.53453,1,1,1
1.53754,1,1,1
1.54054,1,1,1
1.54354,1,1,1
1.54655,1,1,1
1.54955,1,1,1
1.55255,1,1,1
1.55556,1,1,1
1.55856,1,1,1
1.56156,1,1,1
1.56456,1,1,1
1.56757,1,1,1
1.57057,1,1,1
1.57357,1,1,1
1.57658,1,1,1
1.57958,1,1,1
1.58258,1,1,1
1.58559,1,1,1
1.58859,1,1,1
1.59159,1,1,1
1.59459,1,1,1
1.5976,1,1,1
1.6006,1,1,1
1.6036,1,1,1
1.60661,1,1,1
1.60961,1,1,1
1.61261,1,1,1
1.61562,1,1,1
1.61862,1,1,1
1.62162,1,1,1
1.62462,1,1,1
1.62763,1,1,1
1.63063,1,1,1
1.63363,1,1,1
1.63664,1,1,1
1.63964,1,1,1
1.64264,1,1,1
1.64565,1,1,1
1.64865,1,1,1
1.65165,1,1,1
1.65465,1,1,1
1.65766,1,1,1
1.66066,1,1,1
1.66366,1,1,1
1.66667,1,1,1
1.66967,1,1,1
1.67267,1,1,1
1.67568,1,1,1
1.67868,1,1,1
1.68168,1,1,1
1.68468,1,1,1
1.68769,1,1,1
1.69069,1,1,1
1.69369,1,1,1
1.6967,1,1,1
1.6997,1,1,1
1.7027,1,1,1
1.70571,1,1,1
1.70871,1,1,1
1.71171,1,1,1
1.71471,1,1,1
1.71772,1,1,1
1.72072,1,1,1
1.72372,1,1,1
1.72673,1,1,1
1.72973,1,1,1
1.73273,1,1,1
1.73574,1,1,1
1.73874,1,1,1
1.74174,1,1,1
1.74474,1,1,1
1.74775,1,1,1
1.75075,1,1,1
1.75375,1,1,1
1.75676,1,1,1
1.75976,1,1,1
1.76276,1,1,1
1.76577,1,1,1
1.76877,1,1,1
1.77177,1,1,1
1.77477,1,1,1
1.77778,1,1,1
1.78078,1,1,1
1.78378,1,1,1
1.78679,1,1,1
1.78979,1,1,1
1.79279,1,1,1
1.7958,1,1,1
1.7988,1,1,1
1.8018,1,1,1
1.8048,1,1,1
1.80781,1,1,1
1.81081,1,1,1
1.81381,1,1,1
1.81682,1,1,1
1.81982,1,1,1
1.82282,1,1,1
1.82583,1,1,1
1.82883,1,1,1
1.83183,1,1,1
1.83483,1,1,1
1.83784,1,1,1
1.84084,1,1,1
1.84384,1,1,1
1.84685,1,1,1
1.84985,1,1,1
1.85285,1,1,1
1.85586,1,1,1
1.85886,1,1,1
1.86186,1,1,1
1.86486,1,1,1
1.86787,1,1,1
1.87087,1,1,1
1.87387,1,1,1
1.87688,1,1,1
1.87988,1,1,1
1.88288,1,1,1
1.88589,1,1,1
1.88889,1,1,1
1.89189,1,1,1
1.89489,1,1,1
1.8979,1,1,1
1.9009,1,1,1
1.9039,1,1,1
1.90691,1,1,1
1.90991,1,1,1
1.91291,1,1,1
1.91592,1,1,1
1.91892,1,1,1
1.92192,1,1,1
1.92492,1,1,1
1.92793,1,1,1
1.93093,1,1,1
1.93393,1,1,1
1.93694,1,1,1
1.93994,1,1,1
1.94294,1,1,1
1.94595,1,1,1
1.94895,1,1,1
1.95195,1,1,1
1.95495,1,1,1
1.95796,1,1,1
1.96096,1,1,1
1.96396,1,1,1
1.96697,1,1,1
1.96997,1,1,1
1.97297,1,1,1
1.97598,1,1,1
1.97898,1,1,1
1.98198,1,1,1
1.98498,1,1,1
1.98799,1,1,1
1.99099,1,1,1
1.99399,1,1,1
1.997,1,1,1
2,1,1,1
2.003,1,1,1
2.00601,1,1,1
2.00901,1,1,1
2.01201,1,1,1
2.01502,1,1,1
2.01802,1,1,1
2.02102,1,1,1
2.02402,1,1,1
2.02703,1,1,1
2.03003,1,1,1
2.03303,1,1,1
2.03604,1,1,1
2.03904,1,1,1
2.04204,1,1,1
2.04505,1,1,1
2.04805,1,1,1
2.05105,1,1,1
2.05405,1,1,1
2.05706,1,1,1
2.06006,1,1,1
2.06306,1,1,1
2.06607,1,1,1
2.06907,1,1,1
2.07207,1,1,1
2.07508,1,1,1
2.07808,1,1,1
2.08108,1,1,1
2.08408,1,1,1
2.08709,1,1,1
2.09009,1,1,1
2.09309,1,1,1
2.0961,1,1,1
2.0991,1,1,1
2.1021,1,1,1
2.10511,1,1,1
2.10811,1,1,1
2.11111,1,1,1
2.11411,1,1,1
2.11712,1,1,1
2.12012,1,1,1
2.12312,1,1,1
2.12613,1,1,1
2.12913,1,1,1
2.13213,1,1,1
2.13514,1,1,1
2.13814,1,1,1
2.14114,1,1,1
2.14414,1,1,1
2.14715,1,1,1
2.15015,1,1,1
2.15315,1,1,1
2.15616,1,1,1
2.15916,1,1,1
2.16216,1,1,1
2.16517,1,1,1
2.16817,1,1,1
2.17117,1,1,1
2.17417,1,1,1
2.17718,1,1,1
2.18018,1,1,1
2.18318,1,1,1
2.18619,1,1,1
2.18919,1,1,1
2.19219,1,1,1
2.1952,1,1,1
2.1982,1,1,1
2.2012,1,1,1
2.2042,1,1,1
2.20721,1,1,1
2.21021,1,1,1
2.21321,1,1,1
2.21622,1,1,1
2.21922,1,1,1
2.22222,1,1,1
2.22523,1,1,1
2.22823,1,1,1
2.23123,1,1,1
2.23423,1,1,1
2.23724,1,1,1
2.24024,1,1,1
2.24324,1,1,1
2.24625,1,1,1
2.24925,1,1,1
2.25225,1,1,1
2.25526,1,1,1
2.25826,1,1,1
2.26126,1,1,1
2.26426,1,1,1
2.26727,1,1,1
2.27027,1,1,1
2.27327,1,1,1
2.27628,1,1,1
2.27928,1,1,1
2.28228,1,1,1
2.28529,1,1,1
2.28829,1,1,1
2.29129,1,1,1
2.29429,1,1,1
2.2973,1,1,1
2.3003,1,1,1
2.3033,1,1,1
2.30631,1,1,1
2.30931,1,1,1
2.31231,1,1,1
2.31532,1,1,1
2.31832,1,1,1
2.32132,1,1,1
2.32432,1,1,1
2.32733,1,1,1
2.33033,1,1,1
2.33333,1,1,1
2.33634,1,1,1
2.33934,1,1,1
2.34234,1,1,1
2.34535,1,1,1
2.34835,1,1,1
2.35135,1,1,1
2.35435,1,1,1
2.35736,1,1,1
2.36036,1,1,1
2.36336,1,1,1
2.36637,1,1,1
2.36937,1,1,1
2.37237,1,1,1
2.37538,1,1,1
2.37838,1,1,1
2.38138,1,1,1
2.38438,1,1,1
2.38739,1,1,1
2.39039,1,1,1
2.39339,1,1,1
2.3964,1,1,1
2.3994,1,1,1
2.4024,1,1,1
2.40541,1,1,1
2.40841,1,1,1
2.41141,1,1,1
2.41441,1,1,1
2.41742,1,1,1
2.42042,1,1,1
2.42342,1,1,1
2.42643,1,1,1
2.42943,1,1,1
2.43243,1,1,1
2.43544,1,1,1
2.43844,1,1,1
2.44144,1,1,1
2.44444,1,1,1
2.44745,1,1,1
2.45045,1,1,1
2.45345,1,1,1
2.45646,1,1,1
2.45946,1,1,1
2.46246,1,1,1
2.46547,1,1,1
2.46847,1,1,1
2.47147,1,1,1
2.47447,1,1,1
2.47748,1,1,1
2.48048,1,1,1
2.48348,1,1,1
2.48649,1,1,1
2.48949,1,1,1
2.49249,1,1,1
2.4955,1,1,1
2.4985,1,1,1
2.5015,1,1,1
2.5045,1,1,1
2.50751,1,1,1
2.51051,1,1,1
2.51351,1,1,1
2.51652,1,1,1
2.51952,1,1,1
2.52252,1,1,1
2.52553,1,1,1
2.52853,1,1,1
2.53153,1,1,1
2.53453,1,1,1
2.53754,1,1,1
2.54054,1,1,1
2.54354,1,1,1
2.54655,1,1,1
2.54955,1,1,1
2.55255,1,1,1
2.55556,1,1,1
2.55856,1,1,1
2.56156,1,1,1
2.56456,1,1,1
2.56757,1,1,1
2.57057,1,1,1
2.57357,1,1,1
2.57658,1,1,1
2.57958,1,1,1
2.58258,1,1,1
2.58559,1,1,1
2.58859,1,1,1
2.59159,1,1,1
2.59459,1,1,1
2.5976,1,1,1
2.6006,1,1,1
2.6036,1,1,1
2.60661,1,1,1
2.60961,1,1,1
2.61261,1,1,1
2.61562,1,1,1
2.61862,1,1,1
2.62162,1,1,1
2.62462,1,1,1
2.62763,1,1,1
2.63063,1,1,1
2.63363,1,1,1
2.63664,1,1,1
2.63964,1,1,1
2.64264,1,1,1
2.64565,1,1,1
2.64865,1,1,1
2.65165,1,1,1
2.65465,1,1,1
2.65766,1,1,1
2.66066,1,1,1
2.66366,1,1,1
2.66667,1,1,1
2.66967,1,1,1
2.67267,1,1,1
2.67568,1,1,1
2.67868,1,1,1
2.68168,1,1,1
2.68468,1,1,1
2.68769,1,1,1
2.69069,1,1,1
2.69369,1,1,1
2.6967,1,1,1
2.6997,1,1,1
2.7027,1,1,1
2.70571,1,1,1
2.70871,1,1,1
2.71171,1,1,1
2.71471,1,1,1
2.71772,1,1,1
2.72072,1,1,1
2.72372,1,1,1
2.72673,1,1,1
2.72973,1,1,1
2.73273,1,1,1
2.73574,1,1,1
2.73874,1,1,1
2.74174,1,1,1
2.74474,1,1,1
2.74775,1,1,1
2.75075,1,1,1
2.75375,1,1,1
2.75676,1,1,1
2.75976,1,1,1
2.76276,1,1,1
2.76577,1,1,1
2.76877,1,1,1
2.77177,1,1,1
2.77477,1,1,1
2.77778,1,1,1
2.78078,1,1,1
2.78378,1,1,1
2.78679,1,1,1
2.78979,1,1,1
2.79279,1,1,1
2.7958,1,1,1
2.7988,1,1,1
2.8018,1,1,1
2.8048,1,1,1
2.80781,1,1,1
2.81081,1,1,1
2.81381,1,1,1
2.81682,1,1,1
2.81982,1,1,1
2.82282,1,1,1
2.82583,1,1,1
2.82883,1,1,1
2.83183,1,1,1
2.83483,1,1,1
2.83784,1,1,1
2.84084,1,1,1
2.84384,1,1,1
2.84685,1,1,1
2.84985,1,1,1
2.85285,1,1,1
2.85586,1,1,1
2.85886,1,1,1
2.86186,1,1,1
2.86486,1,1,1
2.86787,1,1,1
2.87087,1,1,1
2.87387,1,1,1
2.87688,1,1,1
2.87988,1,1,1
2.88288,1,1,1
2.88589,1,1,1
2.88889,1,1,1
2.89189,1,1,1
2.89489,1,1,1
2.8979,1,1,1
2.9009,1,1,1
2.9039,1,1,1
2.90691,1,1,1
2.90991,1,1,1
2.91291,1,1,1
2.91592,1,1,1
2.91892,1,1,1
2.92192,1,1,1
2.92492,1,1,1
2.92793,1,1,1
2.93093,1,1,1
2.93393,1,1,1
2.93694,1,1,1
2.93994,1,1,1
2.94294,1,1,1
2.94595,1,1,1
2.94895,1,1,1
2.95195,1,1,1
2.95495,1,1,1
2.95796,1,1,1
2.96096,1,1,1
2.96396,1,1,1
2.96697,1,1,1
2.96997,1,1,1
2.97297,1,1,1
2.97598,1,1,1
2.97898,1,1,1
2.98198,1,1,1
2.98498,1,1,1
2.98799,1,1,1
2.99099,1,1,1
2.99399,1,1,1
2.997,1,1,1
3,1,1,1
