k,D+(k,0.6)_alpha,D+(k,0.6)_1.05 alpha,D+(k,0.6)_0.95 alpha
0.003003,0.705327,0.705288,0.705366
0.00600601,0.705392,0.705349,0.705434
0.00900901,0.705451,0.705407,0.705494
0.012012,0.705507,0.705463,0.70555
0.015015,0.705552,0.705508,0.705595
0.018018,0.705591,0.705547,0.705635
0.021021,0.705624,0.705581,0.705668
0.024024,0.705652,0.705609,0.705696
0.027027,0.705676,0.705633,0.70572
0.03003,0.705697,0.705653,0.705741
0.033033,0.705715,0.705671,0.705758
0.036036,0.70573,0.705686,0.705773
0.039039,0.705743,0.705699,0.705787
0.042042,0.705755,0.705711,0.705798
0.045045,0.705765,0.705721,0.705808
0.048048,0.705774,0.70573,0.705817
0.0510511,0.705782,0.705738,0.705825
0.0540541,0.705789,0.705745,0.705832
0.0570571,0.705795,0.705751,0.705839
0.0600601,0.705801,0.705757,0.705844
0.0630631,0.705806,0.705762,0.705849
0.0660661,0.70581,0.705767,0.705854
0.0690691,0.705815,0.705771,0.705858
0.0720721,0.705818,0.705775,0.705862
0.0750751,0.705822,0.705778,0.705865
0.0780781,0.705825,0.705781,0.705868
0.0810811,0.705828,0.705784,0.705871
0.0840841,0.70583,0.705787,0.705874
0.0870871,0.705833,0.705789,0.705876
0.0900901,0.705835,0.705791,0.705879
0.0930931,0.705837,0.705793,0.705881
0.0960961,0.705839,0.705795,0.705883
0.0990991,0.705841,0.705797,0.705884
0.102102,0.705843,0.705799,0.705886
0.105105,0.705844,0.7058,0.705888
0.108108,0.705846,0.705802,0.705889
0.111111,0.705847,0.705803,0.70589
0.114114,0.705848,0.705804,0.705892
0.117117,0.705849,0.705806,0.705893
0.12012,0.70585,0.705807,0.705894
0.123123,0.705851,0.705808,0.705895
0.126126,0.705852,0.705809,0.705896
0.129129,0.705853,0.70581,0.705897
0.132132,0.705854,0.70581,0.705898
0.135135,0.705855,0.705811,0.705898
0.138138,0.705856,0.705812,0.705899
0.141141,0.705856,0.705813,0.7059
0.144144,0.705857,0.705813,0.705901
0.147147,0.705858,0.705814,0.705901
0.15015,0.705858,0.705815,0.705902
0.153153,0.705859,0.705815,0.705903
0.156156,0.70586,0.705816,0.705903
0.159159,0.70586,0.705816,0.705904
0.162162,0.705861,0.705817,0.705904
0.165165,0.705861,0.705817,0.705905
0.168168,0.705861,0.705818,0.705905
0.171171,0.705862,0.705818,0.705905
0.174174,0.705862,0.705819,0.705906
0.177177,0.705863,0.705819,0.705906
0.18018,0.705863,0.705819,0.705907
0.183183,0.705863,0.70582,0.705907
0.186186,0.705864,0.70582,0.705907
0.189189,0.705864,0.70582,0.705908
0.192192,0.705864,0.705821,0.705908
0.195195,0.705865,0.705821,0.705908
0.198198,0.705865,0.705821,0.705909
0.201201,0.705865,0.705822,0.705909
0.204204,0.705866,0.705822,0.705909
0.207207,0.705866,0.705822,0.705909
0.21021,0.705866,0.705822,0.70591
0.213213,0.705866,0.705823,0.70591
0.216216,0.705867,0.705823,0.70591
0.219219,0.705867,0.705823,0.70591
0.222222,0.705867,0.705823,0.70591
0.225225,0.705867,0.705823,0.705911
0.228228,0.705867,0.705824,0.705911
0.231231,0.705868,0.705824,0.705911
0.234234,0.705868,0.705824,0.705911
0.237237,0.705868,0.705824,0.705911
0.24024,0.705868,0.705824,0.705912
0.243243,0.705868,0.705825,0.705912
0.246246,0.705868,0.705825,0.705912
0.249249,0.705869,0.705825,0.705912
0.252252,0.705869,0.705825,0.705912
0.255255,0.705869,0.705825,0.705912
0.258258,0.705869,0.705825,0.705912
0.261261,0.705869,0.705825,0.705913
0.264264,0.705869,0.705826,0.705913
0.267267,0.705869,0.705826,0.705913
0.27027,0.705869,0.705826,0.705913
0.273273,0.70587,0.705826,0.705913
0.276276,0.70587,0.705826,0.705913
0.279279,0.70587,0.705826,0.705913
0.282282,0.70587,0.705826,0.705913
0.285285,0.70587,0.705826,0.705914
0.288288,0.70587,0.705826,0.705914
0.291291,0.70587,0.705827,0.705914
0.294294,0.70587,0.705827,0.705914
0.297297,0.70587,0.705827,0.705914
0.3003,0.70587,0.705827,0.705914
0.303303,0.705871,0.705827,0.705914
0.306306,0.705871,0.705827,0.705914
0.309309,0.705871,0.705827,0.705914
0.312312,0.705871,0.705827,0.705914
0.315315,0.705871,0.705827,0.705914
0.318318,0.705871,0.705827,0.705914
0.321321,0.705871,0.705827,0.705915
0.324324,0.705871,0.705827,0.705915
0.327327,0.705871,0.705827,0.705915
0.33033,0.705871,0.705828,0.705915
0.333333,0.705871,0.705828,0.705915
0.336336,0.705871,0.705828,0.705915
0.339339,0.705871,0.705828,0.705915
0.342342,0.705872,0.705828,0.705915
0.345345,0.705872,0.705828,0.705915
0.348348,0.705872,0.705828,0.705915
0.351351,0.705872,0.705828,0.705915
0.354354,0.705872,0.705828,0.705915
0.357357,0.705872,0.705828,0.705915
0.36036,0.705872,0.705828,0.705915
0.363363,0.705872,0.705828,0.705915
0.366366,0.705872,0.705828,0.705915
0.369369,0.705872,0.705828,0.705915
0.372372,0.705872,0.705828,0.705916
0.375375,0.705872,0.705828,0.705916
0.378378,0.705872,0.705828,0.705916
0.381381,0.705872,0.705828,0.705916
0.384384,0.705872,0.705829,0.705916
0.387387,0.705872,0.705829,0.705916
0.39039,0.705872,0.705829,0.705916
0.393393,0.705872,0.705829,0.705916
0.396396,0.705872,0.705829,0.705916
0.399399,0.705872,0.705829,0.705916
0.402402,0.705872,0.705829,0.705916
0.405405,0.705873,0.705829,0.705916
0.408408,0.705873,0.705829,0.705916
0.411411,0.705873,0.705829,0.705916
0.414414,0.705873,0.705829,0.705916
0.417417,0.705873,0.705829,0.705916
0.42042,0.705873,0.705829,0.705916
0.423423,0.705873,0.705829,0.705916
0.426426,0.705873,0.705829,0.705916
0.429429,0.705873,0.705829,0.705916
0.432432,0.705873,0.705829,0.705916
0.435435,0.705873,0.705829,0.705916
0.438438,0.705873,0.705829,0.705916
0.441441,0.705873,0.705829,0.705916
0.444444,0.705873,0.705829,0.705916
0.447447,0.705873,0.705829,0.705916
0.45045,0.705873,0.705829,0.705916
0.453453,0.705873,0.705829,0.705917
0.456456,0.705873,0.705829,0.705917
0.459459,0.705873,0.705829,0.705917
0.462462,0.705873,0.705829,0.705917
0.465465,0.705873,0.705829,0.705917
0.468468,0.705873,0.705829,0.705917
0.471471,0.705873,0.705829,0.705917
0.474474,0.705873,0.705829,0.705917
0.477477,0.705873,0.70583,0.705917
0.48048,0.705873,0.70583,0.705917
0.483483,0.705873,0.70583,0.705917
0.486486,0.705873,0.70583,0.705917
0.489489,0.705873,0.70583,0.705917
0.492492,0.705873,0.70583,0.705917
0.495495,0.705873,0.70583,0.705917
0.498498,0.705873,0.70583,0.705917
0.501502,0.705873,0.70583,0.705917
0.504505,0.705873,0.70583,0.705917
0.507508,0.705873,0.70583,0.705917
0.510511,0.705873,0.70583,0.705917
0.513514,0.705873,0.70583,0.705917
0.516517,0.705873,0.70583,0.705917
0.51952,0.705874,0.70583,0.705917
0.522523,0.705874,0.70583,0.705917
0.525526,0.705874,0.70583,0.705917
0.528529,0.705874,0.70583,0.705917
0.531532,0.705874,0.70583,0.705917
0.534535,0.705874,0.70583,0.705917
0.537538,0.705874,0.70583,0.705917
0.540541,0.705874,0.70583,0.705917
0.543544,0.705874,0.70583,0.705917
0.546547,0.705874,0.70583,0.705917
0.54955,0.705874,0.70583,0.705917
0.552553,0.705874,0.70583,0.705917
0.555556,0.705874,0.70583,0.705917
0.558559,0.705874,0.70583,0.705917
0.561562,0.705874,0.70583,0.705917
0.564565,0.705874,0.70583,0.705917
0.567568,0.705874,0.70583,0.705917
0.570571,0.705874,0.70583,0.705917
0.573574,0.705874,0.70583,0.705917
0.576577,0.705874,0.70583,0.705917
0.57958,0.705874,0.70583,0.705917
0.582583,0.705874,0.70583,0.705917
0.585586,0.705874,0.70583,0.705917
0.588589,0.705874,0.70583,0.705917
0.591592,0.705874,0.70583,0.705917
0.594595,0.705874,0.70583,0.705917
0.597598,0.705874,0.70583,0.705917
0.600601,0.705874,0.70583,0.705917
0.603604,0.705874,0.70583,0.705917
0.606607,0.705874,0.70583,0.705917
0.60961,0.705874,0.70583,0.705917
0.612613,0.705874,0.70583,0.705917
0.615616,0.705874,0.70583,0.705917
0.618619,0.705874,0.70583,0.705917
0.621622,0.705874,0.70583,0.705917
0.624625,0.705874,0.70583,0.705918
0.627628,0.705874,0.70583,0.705918
0.630631,0.705874,0.70583,0.705918
0.633634,0.705874,0.70583,0.705918
0.636637,0.705874,0.70583,0.705918
0.63964,0.705874,0.70583,0.705918
0.642643,0.705874,0.70583,0.705918
0.645646,0.705874,0.70583,0.705918
0.648649,0.705874,0.70583,0.705918
0.651652,0.705874,0.70583,0.705918
0.654655,0.705874,0.70583,0.705918
0.657658,0.705874,0.70583,0.705918
0.660661,0.705874,0.70583,0.705918
0.663664,0.705874,0.70583,0.705918
0.666667,0.705874,0.70583,0.705918
0.66967,0.705874,0.70583,0.705918
0.672673,0.705874,0.70583,0.705918
0.675676,0.705874,0.70583,0.705918
0.678679,0.705874,0.70583,0.705918
0.681682,0.705874,0.70583,0.705918
0.684685,0.705874,0.705831,0.705918
0.687688,0.705874,0.705831,0.705918
0.690691,0.705874,0.705831,0.705918
0.693694,0.705874,0.705831,0.705918
0.696697,0.705874,0.705831,0.705918
0.6997,0.705874,0.705831,0.705918
0.702703,0.705874,0.705831,0.705918
0.705706,0.705874,0.705831,0.705918
0.708709,0.705874,0.705831,0.705918
0.711712,0.705874,0.705831,0.705918
0.714715,0.705874,0.705831,0.705918
0.717718,0.705874,0.705831,0.705918
0.720721,0.705874,0.705831,0.705918
0.723724,0.705874,0.705831,0.705918
0.726727,0.705874,0.705831,0.705918
0.72973,0.705874,0.705831,0.705918
0.732733,0.705874,0.705831,0.705918
0.735736,0.705874,0.705831,0.705918
0.738739,0.705874,0.705831,0.705918
0.741742,0.705874,0.705831,0.705918
0.744745,0.705874,0.705831,0.705918
0.747748,0.705874,0.705831,0.705918
0.750751,0.705874,0.705831,0.705918
0.753754,0.705874,0.705831,0.705918
0.756757,0.705874,0.705831,0.705918
0.75976,0.705874,0.705831,0.705918
0.762763,0.705874,0.705831,0.705918
0.765766,0.705874,0.705831,0.705918
0.768769,0.705874,0.705831,0.705918
0.771772,0.705874,0.705831,0.705918
0.774775,0.705874,0.705831,0.705918
0.777778,0.705874,0.705831,0.705918
0.780781,0.705874,0.705831,0.705918
0.783784,0.705874,0.705831,0.705918
0.786787,0.705874,0.705831,0.705918
0.78979,0.705874,0.705831,0.705918
0.792793,0.705874,0.705831,0.705918
0.795796,0.705874,0.705831,0.705918
0.798799,0.705874,0.705831,0.705918
0.801802,0.705874,0.705831,0.705918
0.804805,0.705874,0.705831,0.705918
0.807808,0.705874,0.705831,0.705918
0.810811,0.705874,0.705831,0.705918
0.813814,0.705875,0.705831,0.705918
0.816817,0.705875,0.705831,0.705918
0.81982,0.705875,0.705831,0.705918
0.822823,0.705875,0.705831,0.705918
0.825826,0.705875,0.705831,0.705918
0.828829,0.705875,0.705831,0.705918
0.831832,0.705875,0.705831,0.705918
0.834835,0.705875,0.705831,0.705918
0.837838,0.705875,0.705831,0.705918
0.840841,0.705875,0.705831,0.705918
0.843844,0.705875,0.705831,0.705918
0.846847,0.705875,0.705831,0.705918
0.84985,0.705875,0.705831,0.705918
0.852853,0.705875,0.705831,0.705918
0.855856,0.705875,0.705831,0.705918
0.858859,0.705875,0.705831,0.705918
0.861862,0.705875,0.705831,0.705918
0.864865,0.705875,0.705831,0.705918
0.867868,0.705875,0.705831,0.705918
0.870871,0.705875,0.705831,0.705918
0.873874,0.705875,0.705831,0.705918
0.876877,0.705875,0.705831,0.705918
0.87988,0.705875,0.705831,0.705918
0.882883,0.705875,0.705831,0.705918
0.885886,0.705875,0.705831,0.705918
0.888889,0.705875,0.705831,0.705918
0.891892,0.705875,0.705831,0.705918
0.894895,0.705875,0.705831,0.705918
0.897898,0.705875,0.705831,0.705918
0.900901,0.705875,0.705831,0.705918
0.903904,0.705875,0.705831,0.705918
0.906907,0.705875,0.705831,0.705918
0.90991,0.705875,0.705831,0.705918
0.912913,0.705875,0.705831,0.705918
0.915916,0.705875,0.705831,0.705918
0.918919,0.705875,0.705831,0.705918
0.921922,0.705875,0.705831,0.705918
0.924925,0.705875,0.705831,0.705918
0.927928,0.705875,0.705831,0.705918
0.930931,0.705875,0.705831,0.705918
0.933934,0.705875,0.705831,0.705918
0.936937,0.705875,0.705831,0.705918
0.93994,0.705875,0.705831,0.705918
0.942943,0.705875,0.705831,0.705918
0.945946,0.705875,0.705831,0.705918
0.948949,0.705875,0.705831,0.705918
0.951952,0.705875,0.705831,0.705918
0.954955,0.705875,0.705831,0.705918
0.957958,0.705875,0.705831,0.705918
0.960961,0.705875,0.705831,0.705918
0.963964,0.705875,0.705831,0.705918
0.966967,0.705875,0.705831,0.705918
0.96997,0.705875,0.705831,0.705918
0.972973,0.705875,0.705831,0.705918
0.975976,0.705875,0.705831,0.705918
0.978979,0.705875,0.705831,0.705918
0.981982,0.705875,0.705831,0.705918
0.984985,0.705875,0.705831,0.705918
0.987988,0.705875,0.705831,0.705918
0.990991,0.705875,0.705831,0.705918
0.993994,0.705875,0.705831,0.705918
0.996997,0.705875,0.705831,0.705918
1,0.705875,0.705831,0.705918
1.003,0.705875,0.705831,0.705918
1.00601,0.705875,0.705831,0.705918
1.00901,0.705875,0.705831,0.705918
1.01201,0.705875,0.705831,0.705918
1.01502,0.705875,0.705831,0.705918
1.01802,0.705875,0.705831,0.705918
1.02102,0.705875,0.705831,0.705918
1.02402,0.705875,0.705831,0.705918
1.02703,0.705875,0.705831,0.705918
1.03003,0.705875,0.705831,0.705918
1.03303,0.705875,0.705831,0.705918
1.03604,0.705875,0.705831,0.705918
1.03904,0.705875,0.705831,0.705918
1.04204,0.705875,0.705831,0.705918
1.04505,0.705875,0.705831,0.705918
1.04805,0.705875,0.705831,0.705918
1.05105,0.705875,0.705831,0.705918
1.05405,0.705875,0.705831,0.705918
1.05706,0.705875,0.705831,0.705918
1.06006,0.705875,0.705831,0.705918
1.06306,0.705875,0.705831,0.705918
1.06607,0.705875,0.705831,0.705918
1.06907,0.705875,0.705831,0.705918
1.07207,0.705875,0.705831,0.705918
1.07508,0.705875,0.705831,0.705918
1.07808,0.705875,0.705831,0.705918
1.08108,0.705875,0.705831,0.705918
1.08408,0.705875,0.705831,0.705918
1.08709,0.705875,0.705831,0.705918
1.09009,0.705875,0.705831,0.705918
1.09309,0.705875,0.705831,0.705918
1.0961,0.705875,0.705831,0.705918
1.0991,0.705875,0.705831,0.705918
1.1021,0.705875,0.705831,0.705918
1.10511,0.705875,0.705831,0.705918
1.10811,0.705875,0.705831,0.705918
1.11111,0.705875,0.705831,0.705918
1.11411,0.705875,0.705831,0.705918
1.11712,0.705875,0.705831,0.705918
1.12012,0.705875,0.705831,0.705918
1.12312,0.705875,0.705831,0.705918
1.12613,0.705875,0.705831,0.705918
1.12913,0.705875,0.705831,0.705918
1.13213,0.705875,0.705831,0.705918
1.13514,0.705875,0.705831,0.705918
1.13814,0.705875,0.705831,0.705918
1.14114,0.705875,0.705831,0.705918
1.14414,0.705875,0.705831,0.705918
1.14715,0.705875,0.705831,0.705918
1.15015,0.705875,0.705831,0.705918
1.15315,0.705875,0.705831,0.705918
1.15616,0.705875,0.705831,0.705918
1.15916,0.705875,0.705831,0.705918
1.16216,0.705875,0.705831,0.705918
1.16517,0.705875,0.705831,0.705918
1.16817,0.705875,0.705831,0.705918
1.17117,0.705875,0.705831,0.705918
1.17417,0.705875,0.705831,0.705918
1.17718,0.705875,0.705831,0.705918
1.18018,0.705875,0.705831,0.705918
1.18318,0.705875,0.705831,0.705918
1.18619,0.705875,0.705831,0.705918
1.18919,0.705875,0.705831,0.705918
1.19219,0.705875,0.705831,0.705918
1.1952,0.705875,0.705831,0.705918
1.1982,0.705875,0.705831,0.705918
1.2012,0.705875,0.705831,0.705919
1.2042,0.705875,0.705831,0.705919
1.20721,0.705875,0.705831,0.705919
1.21021,0.705875,0.705831,0.705919
1.21321,0.705875,0.705831,0.705919
1.21622,0.705875,0.705831,0.705919
1.21922,0.705875,0.705831,0.705919
1.22222,0.705875,0.705831,0.705919
1.22523,0.705875,0.705831,0.705919
1.22823,0.705875,0.705831,0.705919
1.23123,0.705875,0.705831,0.705919
1.23423,0.705875,0.705831,0.705919
1.23724,0.705875,0.705831,0.705919
1.24024,0.705875,0.705831,0.705919
1.24324,0.705875,0.705831,0.705919
1.24625,0.705875,0.705831,0.705919
1.24925,0.705875,0.705831,0.705919
1.25225,0.705875,0.705831,0.705919
1.25526,0.705875,0.705831,0.705919
1.25826,0.705875,0.705831,0.705919
1.26126,0.705875,0.705831,0.705919
1.26426,0.705875,0.705831,0.705919
1.26727,0.705875,0.705831,0.705919
1.27027,0.705875,0.705831,0.705919
1.27327,0.705875,0.705831,0.705919
1.27628,0.705875,0.705831,0.705919
1.27928,0.705875,0.705831,0.705919
1.28228,0.705875,0.705831,0.705919
1.28529,0.705875,0.705831,0.705919
1.28829,0.705875,0.705831,0.705919
1.29129,0.705875,0.705831,0.705919
1.29429,0.705875,0.705831,0.705919
1.2973,0.705875,0.705831,0.705919
1.3003,0.705875,0.705831,0.705919
1.3033,0.705875,0.705831,0.705919
1.30631,0.705875,0.705831,0.705919
1.30931,0.705875,0.705831,0.705919
1.31231,0.705875,0.705831,0.705919
1.31532,0.705875,0.705831,0.705919
1.31832,0.705875,0.705831,0.705919
1.32132,0.705875,0.705831,0.705919
1.32432,0.705875,0.705831,0.705919
1.32733,0.705875,0.705831,0.705919
1.33033,0.705875,0.705831,0.705919
1.33333,0.705875,0.705831,0.705919
1.33634,0.705875,0.705831,0.705919
1.33934,0.705875,0.705831,0.705919
1.34234,0.705875,0.705831,0.705919
1.34535,0.705875,0.705831,0.705919
1.34835,0.705875,0.705831,0.705919
1.35135,0.705875,0.705831,0.705919
1.35435,0.705875,0.705831,0.705919
1.35736,0.705875,0.705831,0.705919
1.36036,0.705875,0.705831,0.705919
1.36336,0.705875,0.705831,0.705919
1.36637,0.705875,0.705831,0.705919
1.36937,0.705875,0.705831,0.705919
1.37237,0.705875,0.705831,0.705919
1.37538,0.705875,0.705831,0.705919
1.37838,0.705875,0.705831,0.705919
1.38138,0.705875,0.705831,0.705919
1.38438,0.705875,0.705831,0.705919
1.38739,0.705875,0.705831,0.705919
1.39039,0.705875,0.705831,0.705919
1.39339,0.705875,0.705831,0.705919
1.3964,0.705875,0.705831,0.705919
1.3994,0.705875,0.705831,0.705919
1.4024,0.705875,0.705831,0.705919
1.40541,0.705875,0.705831,0.705919
1.40841,0.705875,0.705831,0.705919
1.41141,0.705875,0.705832,0.705919
1.41441,0.705875,0.705832,0.705919
1.41742,0.705875,0.705832,0.705919
1.42042,0.705875,0.705832,0.705919
1.42342,0.705875,0.705832,0.705919
1.42643,0.705875,0.705832,0.705919
1.42943,0.705875,0.705832,0.705919
1.43243,0.705875,0.705832,0.705919
1.43544,0.705875,0.705832,0.705919
1.43844,0.705875,0.705832,0.705919
1.44144,0.705875,0.705832,0.705919
1.44444,0.705875,0.705832,0.705919
1.44745,0.705875,0.705832,0.705919
1.45045,0.705875,0.705832,0.705919
1.45345,0.705875,0.705832,0.705919
1.45646,0.705875,0.705832,0.705919
1.45946,0.705875,0.705832,0.705919
1.46246,0.705875,0.705832,0.705919
1.46547,0.705875,0.705832,0.705919
1.46847,0.705875,0.705832,0.705919
1.47147,0.705875,0.705832,0.705919
1.47447,0.705875,0.705832,0.705919
1.47748,0.705875,0.705832,0.705919
1.48048,0.705875,0.705832,0.705919
1.48348,0.705875,0.705832,0.705919
1.48649,0.705875,0.705832,0.705919
1.48949,0.705875,0.705832,0.705919
1.49249,0.705875,0.705832,0.705919
1.4955,0.705875,0.705832,0.705919
1.4985,0.705875,0.705832,0.705919
1.5015,0.705875,0.705832,0.705919
1.5045,0.705875,0.705832,0.705919
1.50751,0.705875,0.705832,0.705919
1.51051,0.705875,0.705832,0.705919
1.51351,0.705875,0.705832,0.705919
1.51652,0.705875,0.705832,0.705919
1.51952,0.705875,0.705832,0.705919
1.52252,0.705875,0.705832,0.705919
1.52553,0.705875,0.705832,0.705919
1.52853,0.705875,0.705832,0.705919
1.53153,0.705875,0.705832,0.705919
1.53453,0.705875,0.705832,0.705919
1.53754,0.705875,0.705832,0.705919
1.54054,0.705875,0.705832,0.705919
1.54354,0.705875,0.705832,0.705919
1.54655,0.705875,0.705832,0.705919
1.54955,0.705875,0.705832,0.705919
1.55255,0.705875,0.705832,0.705919
1.55556,0.705875,0.705832,0.705919
1.55856,0.705875,0.705832,0.705919
1.56156,0.705875,0.705832,0.705919
1.56456,0.705875,0.705832,0.705919
1.56757,0.705875,0.705832,0.705919
1.57057,0.705875,0.705832,0.705919
1.57357,0.705875,0.705832,0.705919
1.57658,0.705875,0.705832,0.705919
1.57958,0.705875,0.705832,0.705919
1.58258,0.705875,0.705832,0.705919
1.58559,0.705875,0.705832,0.705919
1.58859,0.705875,0.705832,0.705919
1.59159,0.705875,0.705832,0.705919
1.59459,0.705875,0.705832,0.705919
1.5976,0.705875,0.705832,0.705919
1.6006,0.705875,0.705832,0.705919
1.6036,0.705875,0.705832,0.705919
1.60661,0.705875,0.705832,0.705919
1.60961,0.705875,0.705832,0.705919
1.61261,0.705875,0.705832,0.705919
1.61562,0.705875,0.705832,0.705919
1.61862,0.705875,0.705832,0.705919
1.62162,0.705875,0.705832,0.705919
1.62462,0.705875,0.705832,0.705919
1.62763,0.705875,0.705832,0.705919
1.63063,0.705875,0.705832,0.705919
1.63363,0.705875,0.705832,0.705919
1.63664,0.705875,0.705832,0.705919
1.63964,0.705875,0.705832,0.705919
1.64264,0.705875,0.705832,0.705919
1.64565,0.705875,0.705832,0.705919
1.64865,0.705875,0.705832,0.705919
1.65165,0.705875,0.705832,0.705919
1.65465,0.705875,0.705832,0.705919
1.65766,0.705875,0.705832,0.705919
1.66066,0.705875,0.705832,0.705919
1.66366,0.705875,0.705832,0.705919
1.66667,0.705875,0.705832,0.705919
1.66967,0.705875,0.705832,0.705919
1.67267,0.705875,0.705832,0.705919
1.67568,0.705875,0.705832,0.705919
1.67868,0.705875,0.705832,0.705919
1.68168,0.705875,0.705832,0.705919
1.68468,0.705875,0.705832,0.705919
1.68769,0.705875,0.705832,0.705919
1.69069,0.705875,0.705832,0.705919
1.69369,0.705875,0.705832,0.705919
1.6967,0.705875,0.705832,0.705919
1.6997,0.705875,0.705832,0.705919
1.7027,0.705875,0.705832,0.705919
1.70571,0.705875,0.705832,0.705919
1.70871,0.705875,0.705832,0.705919
1.71171,0.705875,0.705832,0.705919
1.71471,0.705875,0.705832,0.705919
1.71772,0.705875,0.705832,0.705919
1.72072,0.705875,0.705832,0.705919
1.72372,0.705875,0.705832,0.705919
1.72673,0.705875,0.705832,0.705919
1.72973,0.705875,0.705832,0.705919
1.73273,0.705875,0.705832,0.705919
1.73574,0.705875,0.705832,0.705919
1.73874,0.705875,0.705832,0.705919
1.74174,0.705875,0.705832,0.705919
1.74474,0.705875,0.705832,0.705919
1.74775,0.705875,0.705832,0.705919
1.75075,0.705875,0.705832,0.705919
1.75375,0.705875,0.705832,0.705919
1.75676,0.705875,0.705832,0.705919
1.75976,0.705875,0.705832,0.705919
1.76276,0.705875,0.705832,0.705919
1.76577,0.705876,0.705832,0.705919
1.76877,0.705876,0.705832,0.705919
1.77177,0.705876,0.705832,0.705919
1.77477,0.705876,0.705832,0.705919
1.77778,0.705876,0.705832,0.705919
1.78078,0.705876,0.705832,0.705919
1.78378,0.705876,0.705832,0.705919
1.78679,0.705876,0.705832,0.705919
1.78979,0.705876,0.705832,0.705919
1.79279,0.705876,0.705832,0.705919
1.7958,0.705876,0.705832,0.705919
1.7988,0.705876,0.705832,0.705919
1.8018,0.705876,0.705832,0.705919
1.8048,0.705876,0.705832,0.705919
1.80781,0.705876,0.705832,0.705919
1.81081,0.705876,0.705832,0.705919
1.81381,0.705876,0.705832,0.705919
1.81682,0.705876,0.705832,0.705919
1.81982,0.705876,0.705832,0.705919
1.82282,0.705876,0.705832,0.705919
1.82583,0.705876,0.705832,0.705919
1.82883,0.705876,0.705832,0.705919
1.83183,0.705876,0.705832,0.705919
1.83483,0.705876,0.705832,0.705919
1.83784,0.705876,0.705832,0.705919
1.84084,0.705876,0.705832,0.705919
1.84384,0.705876,0.705832,0.705919
1.84685,0.705876,0.705832,0.705919
1.84985,0.705876,0.705832,0.705919
1.85285,0.705876,0.705832,0.705919
1.85586,0.705876,0.705832,0.705919
1.85886,0.705876,0.705832,0.705919
1.86186,0.705876,0.705832,0.705919
1.86486,0.705876,0.705832,0.705919
1.86787,0.705876,0.705832,0.705919
1.87087,0.705876,0.705832,0.705919
1.87387,0.705876,0.705832,0.705919
1.87688,0.705876,0.705832,0.705919
1.87988,0.705876,0.705832,0.705919
1.88288,0.705876,0.705832,0.705919
1.88589,0.705876,0.705832,0.705919
1.88889,0.705876,0.705832,0.705919
1.89189,0.705876,0.705832,0.705919
1.89489,0.705876,0.705832,0.705919
1.8979,0.705876,0.705832,0.705919
1.9009,0.705876,0.705832,0.705919
1.9039,0.705876,0.705832,0.705919
1.90691,0.705876,0.705832,0.705919
1.90991,0.705876,0.705832,0.705919
1.91291,0.705876,0.705832,0.705919
1.91592,0.705876,0.705832,0.705919
1.91892,0.705876,0.705832,0.705919
1.92192,0.705876,0.705832,0.705919
1.92492,0.705876,0.705832,0.705919
1.92793,0.705876,0.705832,0.705919
1.93093,0.705876,0.705832,0.705919
1.93393,0.705876,0.705832,0.705919
1.93694,0.705876,0.705832,0.705919
1.93994,0.705876,0.705832,0.705919
1.94294,0.705876,0.705832,0.705919
1.94595,0.705876,0.705832,0.705919
1.94895,0.705876,0.705832,0.705919
1.95195,0.705876,0.705832,0.705919
1.95495,0.705876,0.705832,0.705919
1.95796,0.705876,0.705832,0.705919
1.96096,0.705876,0.705832,0.705919
1.96396,0.705876,0.705832,0.705919
1.96697,0.705876,0.705832,0.705919
1.96997,0.705876,0.705832,0.705919
1.97297,0.705876,0.705832,0.705919
1.97598,0.705876,0.705832,0.705919
1.97898,0.705876,0.705832,0.705919
1.98198,0.705876,0.705832,0.705919
1.98498,0.705876,0.705832,0.705919
1.98799,0.705876,0.705832,0.705919
1.99099,0.705876,0.705832,0.705919
1.99399,0.705876,0.705832,0.705919
1.997,0.705876,0.705832,0.705919
2,0.705876,0.705832,0.705919
2.003,0.705876,0.705832,0.705919
2.00601,0.705876,0.705832,0.705919
2.00901,0.705876,0.705832,0.705919
2.01201,0.705876,0.705832,0.705919
2.01502,0.705876,0.705832,0.705919
2.01802,0.705876,0.705832,0.705919
2.02102,0.705876,0.705832,0.705919
2.02402,0.705876,0.705832,0.705919
2.02703,0.705876,0.705832,0.705919
2.03003,0.705876,0.705832,0.705919
2.03303,0.705876,0.705832,0.705919
2.03604,0.705876,0.705832,0.705919
2.03904,0.705876,0.705832,0.705919
2.04204,0.705876,0.705832,0.705919
2.04505,0.705876,0.705832,0.705919
2.04805,0.705876,0.705832,0.705919
2.05105,0.705876,0.705832,0.705919
2.05405,0.705876,0.705832,0.705919
2.05706,0.705876,0.705832,0.705919
2.06006,0.705876,0.705832,0.705919
2.06306,0.705876,0.705832,0.705919
2.06607,0.705876,0.705832,0.705919
2.06907,0.705876,0.705832,0.705919
2.07207,0.705876,0.705832,0.705919
2.07508,0.705876,0.705832,0.705919
2.07808,0.705876,0.705832,0.705919
2.08108,0.705876,0.705832,0.705919
2.08408,0.705876,0.705832,0.705919
2.08709,0.705876,0.705832,0.705919
2.09009,0.705876,0.705832,0.705919
2.09309,0.705876,0.705832,0.705919
2.0961,0.705876,0.705832,0.705919
2.0991,0.705876,0.705832,0.705919
2.1021,0.705876,0.705832,0.705919
2.10511,0.705876,0.705832,0.705919
2.10811,0.705876,0.705832,0.705919
2.11111,0.705876,0.705832,0.705919
2.11411,0.705876,0.705832,0.705919
2.11712,0.705876,0.705832,0.705919
2.12012,0.705876,0.705832,0.705919
2.12312,0.705876,0.705832,0.705919
2.12613,0.705876,0.705832,0.705919
2.12913,0.705876,0.705832,0.705919
2.13213,0.705876,0.705832,0.705919
2.13514,0.705876,0.705832,0.705919
2.13814,0.705876,0.705832,0.705919
2.14114,0.705876,0.705832,0.705919
2.14414,0.705876,0.705832,0.705919
2.14715,0.705876,0.705832,0.705919
2.15015,0.705876,0.705832,0.705919
2.15315,0.705876,0.705832,0.705919
2.15616,0.705876,0.705832,0.705919
2.15916,0.705876,0.705832,0.705919
2.16216,0.705876,0.705832,0.705919
2.16517,0.705876,0.705832,0.705919
2.16817,0.705876,0.705832,0.705919
2.17117,0.705876,0.705832,0.705919
2.17417,0.705876,0.705832,0.705919
2.17718,0.705876,0.705832,0.705919
2.18018,0.705876,0.705832,0.705919
2.18318,0.705876,0.705832,0.705919
2.18619,0.705876,0.705832,0.705919
2.18919,0.705876,0.705832,0.705919
2.19219,0.705876,0.705832,0.705919
2.1952,0.705876,0.705832,0.705919
2.1982,0.705876,0.705832,0.705919
2.2012,0.705876,0.705832,0.705919
2.2042,0.705876,0.705832,0.705919
2.20721,0.705876,0.705832,0.705919
2.21021,0.705876,0.705832,0.705919
2.21321,0.705876,0.705832,0.705919
2.21622,0.705876,0.705832,0.705919
2.21922,0.705876,0.705832,0.705919
2.22222,0.705876,0.705832,0.705919
2.22523,0.705876,0.705832,0.705919
2.22823,0.705876,0.705832,0.705919
2.23123,0.705876,0.705832,0.705919
2.23423,0.705876,0.705832,0.705919
2.23724,0.705876,0.705832,0.705919
2.24024,0.705876,0.705832,0.705919
2.24324,0.705876,0.705832,0.705919
2.24625,0.705876,0.705832,0.705919
2.24925,0.705876,0.705832,0.705919
2.25225,0.705876,0.705832,0.705919
2.25526,0.705876,0.705832,0.705919
2.25826,0.705876,0.705832,0.705919
2.26126,0.705876,0.705832,0.705919
2.26426,0.705876,0.705832,0.705919
2.26727,0.705876,0.705832,0.705919
2.27027,0.705876,0.705832,0.705919
2.27327,0.705876,0.705832,0.705919
2.27628,0.705876,0.705832,0.705919
2.27928,0.705876,0.705832,0.705919
2.28228,0.705876,0.705832,0.705919
2.28529,0.705876,0.705832,0.705919
2.28829,0.705876,0.705832,0.705919
2.29129,0.705876,0.705832,0.705919
2.29429,0.705876,0.705832,0.705919
2.2973,0.705876,0.705832,0.705919
2.3003,0.705876,0.705832,0.705919
2.3033,0.705876,0.705832,0.705919
2.30631,0.705876,0.705832,0.705919
2.30931,0.705876,0.705832,0.705919
2.31231,0.705876,0.705832,0.705919
2.31532,0.705876,0.705832,0.70592
2.31832,0.705876,0.705832,0.70592
2.32132,0.705876,0.705832,0.70592
2.32432,0.705876,0.705832,0.70592
2.32733,0.705876,0.705832,0.70592
2.33033,0.705876,0.705832,0.70592
2.33333,0.705876,0.705832,0.70592
2.33634,0.705876,0.705832,0.70592
2.33934,0.705876,0.705832,0.70592
2.34234,0.705876,0.705832,0.70592
2.34535,0.705876,0.705832,0.70592
2.34835,0.705876,0.705832,0.70592
2.35135,0.705876,0.705832,0.70592
2.35435,0.705876,0.705832,0.70592
2.35736,0.705876,0.705832,0.70592
2.36036,0.705876,0.705832,0.70592
2.36336,0.705876,0.705832,0.70592
2.36637,0.705876,0.705832,0.70592
2.36937,0.705876,0.705832,0.70592
2.37237,0.705876,0.705832,0.70592
2.37538,0.705876,0.705832,0.70592
2.37838,0.705876,0.705832,0.70592
2.38138,0.705876,0.705832,0.70592
2.38438,0.705876,0.705832,0.70592
2.38739,0.705876,0.705832,0.70592
2.39039,0.705876,0.705832,0.70592
2.39339,0.705876,0.705832,0.70592
2.3964,0.705876,0.705832,0.70592
2.3994,0.705876,0.705832,0.70592
2.4024,0.705876,0.705832,0.70592
2.40541,0.705876,0.705832,0.70592
2.40841,0.705876,0.705832,0.70592
2.41141,0.705876,0.705832,0.70592
2.41441,0.705876,0.705832,0.70592
2.41742,0.705876,0.705832,0.70592
2.42042,0.705876,0.705832,0.70592
2.42342,0.705876,0.705832,0.70592
2.42643,0.705876,0.705832,0.70592
2.42943,0.705876,0.705832,0.70592
2.43243,0.705876,0.705832,0.70592
2.43544,0.705876,0.705832,0.70592
2.43844,0.705876,0.705832,0.70592
2.44144,0.705876,0.705832,0.70592
2.44444,0.705876,0.705832,0.70592
2.44745,0.705876,0.705832,0.70592
2.45045,0.705876,0.705832,0.70592
2.45345,0.705876,0.705832,0.70592
2.45646,0.705876,0.705832,0.70592
2.45946,0.705876,0.705832,0.70592
2.46246,0.705876,0.705832,0.70592
2.46547,0.705876,0.705832,0.70592
2.46847,0.705876,0.705832,0.70592
2.47147,0.705876,0.705832,0.70592
2.47447,0.705876,0.705832,0.70592
2.47748,0.705876,0.705832,0.70592
2.48048,0.705876,0.705832,0.70592
2.48348,0.705876,0.705832,0.70592
2.48649,0.705876,0.705832,0.70592
2.48949,0.705876,0.705832,0.70592
2.49249,0.705876,0.705833,0.70592
2.4955,0.705876,0.705833,0.70592
2.4985,0.705876,0.705833,0.70592
2.5015,0.705876,0.705833,0.70592
2.5045,0.705876,0.705833,0.70592
2.50751,0.705876,0.705833,0.70592
2.51051,0.705876,0.705833,0.70592
2.51351,0.705876,0.705833,0.70592
2.51652,0.705876,0.705833,0.70592
2.51952,0.705876,0.705833,0.70592
2.52252,0.705876,0.705833,0.70592
2.52553,0.705876,0.705833,0.70592
2.52853,0.705876,0.705833,0.70592
2.53153,0.705876,0.705833,0.70592
2.53453,0.705876,0.705833,0.70592
2.53754,0.705876,0.705833,0.70592
2.54054,0.705876,0.705833,0.70592
2.54354,0.705876,0.705833,0.70592
2.54655,0.705876,0.705833,0.70592
2.54955,0.705876,0.705833,0.70592
2.55255,0.705876,0.705833,0.70592
2.55556,0.705876,0.705833,0.70592
2.55856,0.705876,0.705833,0.70592
2.56156,0.705876,0.705833,0.70592
2.56456,0.705876,0.705833,0.70592
2.56757,0.705876,0.705833,0.70592
2.57057,0.705876,0.705833,0.70592
2.57357,0.705876,0.705833,0.70592
2.57658,0.705876,0.705833,0.70592
2.57958,0.705876,0.705833,0.70592
2.58258,0.705876,0.705833,0.70592
2.58559,0.705876,0.705833,0.70592
2.58859,0.705876,0.705833,0.70592
2.59159,0.705876,0.705833,0.70592
2.59459,0.705876,0.705833,0.70592
2.5976,0.705876,0.705833,0.70592
2.6006,0.705876,0.705833,0.70592
2.6036,0.705876,0.705833,0.70592
2.60661,0.705876,0.705833,0.70592
2.60961,0.705876,0.705833,0.70592
2.61261,0.705876,0.705833,0.70592
2.61562,0.705876,0.705833,0.70592
2.61862,0.705876,0.705833,0.70592
2.62162,0.705876,0.705833,0.70592
2.62462,0.705876,0.705833,0.70592
2.62763,0.705876,0.705833,0.70592
2.63063,0.705876,0.705833,0.70592
2.63363,0.705876,0.705833,0.70592
2.63664,0.705876,0.705833,0.70592
2.63964,0.705876,0.705833,0.70592
2.64264,0.705876,0.705833,0.70592
2.64565,0.705876,0.705833,0.70592
2.64865,0.705876,0.705833,0.70592
2.65165,0.705876,0.705833,0.70592
2.65465,0.705876,0.705833,0.70592
2.65766,0.705876,0.705833,0.70592
2.66066,0.705876,0.705833,0.70592
2.66366,0.705876,0.705833,0.70592
2.66667,0.705876,0.705833,0.70592
2.66967,0.705876,0.705833,0.70592
2.67267,0.705876,0.705833,0.70592
2.67568,0.705876,0.705833,0.70592
2.67868,0.705876,0.705833,0.70592
2.68168,0.705876,0.705833,0.70592
2.68468,0.705876,0.705833,0.70592
2.68769,0.705876,0.705833,0.70592
2.69069,0.705876,0.705833,0.70592
2.69369,0.705876,0.705833,0.70592
2.6967,0.705876,0.705833,0.70592
2.6997,0.705876,0.705833,0.70592
2.7027,0.705876,0.705833,0.70592
2.70571,0.705876,0.705833,0.70592
2.70871,0.705876,0.705833,0.70592
2.71171,0.705876,0.705833,0.70592
2.71471,0.705876,0.705833,0.70592
2.71772,0.705876,0.705833,0.70592
2.72072,0.705876,0.705833,0.70592
2.72372,0.705876,0.705833,0.70592
2.72673,0.705876,0.705833,0.70592
2.72973,0.705876,0.705833,0.70592
2.73273,0.705876,0.705833,0.70592
2.73574,0.705876,0.705833,0.70592
2.73874,0.705876,0.705833,0.70592
2.74174,0.705876,0.705833,0.70592
2.74474,0.705876,0.705833,0.70592
2.74775,0.705876,0.705833,0.70592
2.75075,0.705876,0.705833,0.70592
2.75375,0.705876,0.705833,0.70592
2.75676,0.705876,0.705833,0.70592
2.75976,0.705876,0.705833,0.70592
2.76276,0.705876,0.705833,0.70592
2.76577,0.705876,0.705833,0.70592
2.76877,0.705877,0.705833,0.70592
2.77177,0.705877,0.705833,0.70592
2.77477,0.705877,0.705833,0.70592
2.77778,0.705877,0.705833,0.70592
2.78078,0.705877,0.705833,0.70592
2.78378,0.705877,0.705833,0.70592
2.78679,0.705877,0.705833,0.70592
2.78979,0.705877,0.705833,0.70592
2.79279,0.705877,0.705833,0.70592
2.7958,0.705877,0.705833,0.70592
2.7988,0.705877,0.705833,0.70592
2.8018,0.705877,0.705833,0.70592
2.8048,0.705877,0.705833,0.70592
2.80781,0.705877,0.705833,0.70592
2.81081,0.705877,0.705833,0.70592
2.81381,0.705877,0.705833,0.70592
2.81682,0.705877,0.705833,0.70592
2.81982,0.705877,0.705833,0.70592
2.82282,0.705877,0.705833,0.70592
2.82583,0.705877,0.705833,0.70592
2.82883,0.705877,0.705833,0.70592
2.83183,0.705877,0.705833,0.70592
2.83483,0.705877,0.705833,0.70592
2.83784,0.705877,0.705833,0.70592
2.84084,0.705877,0.705833,0.70592
2.84384,0.705877,0.705833,0.70592
2.84685,0.705877,0.705833,0.70592
2.84985,0.705877,0.705833,0.70592
2.85285,0.705877,0.705833,0.70592
2.85586,0.705877,0.705833,0.70592
2.85886,0.705877,0.705833,0.70592
2.86186,0.705877,0.705833,0.70592
2.86486,0.705877,0.705833,0.70592
2.86787,0.705877,0.705833,0.70592
2.87087,0.705877,0.705833,0.70592
2.87387,0.705877,0.705833,0.70592
2.87688,0.705877,0.705833,0.70592
2.87988,0.705877,0.705833,0.70592
2.88288,0.705877,0.705833,0.70592
2.88589,0.705877,0.705833,0.70592
2.88889,0.705877,0.705833,0.70592
2.89189,0.705877,0.705833,0.70592
2.89489,0.705877,0.705833,0.70592
2.8979,0.705877,0.705833,0.70592
2.9009,0.705877,0.705833,0.70592
2.9039,0.705877,0.705833,0.70592
2.90691,0.705877,0.705833,0.70592
2.90991,0.705877,0.705833,0.70592
2.91291,0.705877,0.705833,0.70592
2.91592,0.705877,0.705833,0.70592
2.91892,0.705877,0.705833,0.70592
2.92192,0.705877,0.705833,0.70592
2.92492,0.705877,0.705833,0.70592
2.92793,0.705877,0.705833,0.70592
2.93093,0.705877,0.705833,0.70592
2.93393,0.705877,0.705833,0.70592
2.93694,0.705877,0.705833,0.70592
2.93994,0.705877,0.705833,0.70592
2.94294,0.705877,0.705833,0.70592
2.94595,0.705877,0.705833,0.70592
2.94895,0.705877,0.705833,0.70592
2.95195,0.705877,0.705833,0.70592
2.95495,0.705877,0.705833,0.70592
2.95796,0.705877,0.705833,0.70592
2.96096,0.705877,0.705833,0.70592
2.96396,0.705877,0.705833,0.70592
2.96697,0.705877,0.705833,0.70592
2.96997,0.705877,0.705833,0.70592
2.97297,0.705877,0.705833,0.70592
2.97598,0.705877,0.705833,0.70592
2.97898,0.705877,0.705833,0.70592
2.98198,0.705877,0.705833,0.70592
2.98498,0.705877,0.705833,0.70592
2.98799,0.705877,0.705833,0.70592
2.99099,0.705877,0.705833,0.70592
2.99399,0.705877,0.705833,0.70592
2.997,0.705877,0.705833,0.70592
3,0.705877,0.705833,0.70592