k,D+(k,0.8)_alpha,D+(k,0.8)_1.05 alpha,D+(k,0.8)_0.95 alpha
0.003003,0.874109,0.874047,0.874172
0.00600601,0.874142,0.874082,0.874203
0.00900901,0.87417,0.87411,0.87423
0.012012,0.874195,0.874136,0.874256
0.015015,0.874216,0.874157,0.874276
0.018018,0.874235,0.874175,0.874295
0.021021,0.874251,0.874191,0.874311
0.024024,0.874264,0.874205,0.874324
0.027027,0.874276,0.874216,0.874336
0.03003,0.874286,0.874226,0.874346
0.033033,0.874295,0.874235,0.874354
0.036036,0.874302,0.874243,0.874362
0.039039,0.874309,0.874249,0.874369
0.042042,0.874315,0.874255,0.874374
0.045045,0.87432,0.87426,0.87438
0.048048,0.874324,0.874265,0.874384
0.0510511,0.874329,0.874269,0.874388
0.0540541,0.874332,0.874273,0.874392
0.0570571,0.874336,0.874276,0.874395
0.0600601,0.874338,0.874279,0.874398
0.0630631,0.874341,0.874282,0.874401
0.0660661,0.874344,0.874284,0.874403
0.0690691,0.874346,0.874286,0.874406
0.0720721,0.874348,0.874288,0.874408
0.0750751,0.87435,0.87429,0.874409
0.0780781,0.874351,0.874292,0.874411
0.0810811,0.874353,0.874294,0.874413
0.0840841,0.874354,0.874295,0.874414
0.0870871,0.874356,0.874296,0.874415
0.0900901,0.874357,0.874298,0.874417
0.0930931,0.874358,0.874299,0.874418
0.0960961,0.874359,0.8743,0.874419
0.0990991,0.87436,0.874301,0.87442
0.102102,0.874361,0.874302,0.874421
0.105105,0.874362,0.874303,0.874422
0.108108,0.874363,0.874303,0.874422
0.111111,0.874363,0.874304,0.874423
0.114114,0.874364,0.874305,0.874424
0.117117,0.874365,0.874305,0.874424
0.12012,0.874365,0.874306,0.874425
0.123123,0.874366,0.874307,0.874426
0.126126,0.874367,0.874307,0.874426
0.129129,0.874367,0.874308,0.874427
0.132132,0.874368,0.874308,0.874427
0.135135,0.874368,0.874309,0.874428
0.138138,0.874368,0.874309,0.874428
0.141141,0.874369,0.87431,0.874428
0.144144,0.874369,0.87431,0.874429
0.147147,0.87437,0.87431,0.874429
0.15015,0.87437,0.874311,0.87443
0.153153,0.87437,0.874311,0.87443
0.156156,0.874371,0.874311,0.87443
0.159159,0.874371,0.874312,0.874431
0.162162,0.874371,0.874312,0.874431
0.165165,0.874371,0.874312,0.874431
0.168168,0.874372,0.874312,0.874431
0.171171,0.874372,0.874313,0.874432
0.174174,0.874372,0.874313,0.874432
0.177177,0.874372,0.874313,0.874432
0.18018,0.874373,0.874313,0.874432
0.183183,0.874373,0.874314,0.874432
0.186186,0.874373,0.874314,0.874433
0.189189,0.874373,0.874314,0.874433
0.192192,0.874373,0.874314,0.874433
0.195195,0.874374,0.874314,0.874433
0.198198,0.874374,0.874314,0.874433
0.201201,0.874374,0.874315,0.874434
0.204204,0.874374,0.874315,0.874434
0.207207,0.874374,0.874315,0.874434
0.21021,0.874374,0.874315,0.874434
0.213213,0.874374,0.874315,0.874434
0.216216,0.874375,0.874315,0.874434
0.219219,0.874375,0.874315,0.874434
0.222222,0.874375,0.874316,0.874435
0.225225,0.874375,0.874316,0.874435
0.228228,0.874375,0.874316,0.874435
0.231231,0.874375,0.874316,0.874435
0.234234,0.874375,0.874316,0.874435
0.237237,0.874375,0.874316,0.874435
0.24024,0.874376,0.874316,0.874435
0.243243,0.874376,0.874316,0.874435
0.246246,0.874376,0.874316,0.874435
0.249249,0.874376,0.874316,0.874435
0.252252,0.874376,0.874317,0.874436
0.255255,0.874376,0.874317,0.874436
0.258258,0.874376,0.874317,0.874436
0.261261,0.874376,0.874317,0.874436
0.264264,0.874376,0.874317,0.874436
0.267267,0.874376,0.874317,0.874436
0.27027,0.874376,0.874317,0.874436
0.273273,0.874376,0.874317,0.874436
0.276276,0.874376,0.874317,0.874436
0.279279,0.874377,0.874317,0.874436
0.282282,0.874377,0.874317,0.874436
0.285285,0.874377,0.874317,0.874436
0.288288,0.874377,0.874317,0.874436
0.291291,0.874377,0.874317,0.874436
0.294294,0.874377,0.874318,0.874436
0.297297,0.874377,0.874318,0.874437
0.3003,0.874377,0.874318,0.874437
0.303303,0.874377,0.874318,0.874437
0.306306,0.874377,0.874318,0.874437
0.309309,0.874377,0.874318,0.874437
0.312312,0.874377,0.874318,0.874437
0.315315,0.874377,0.874318,0.874437
0.318318,0.874377,0.874318,0.874437
0.321321,0.874377,0.874318,0.874437
0.324324,0.874377,0.874318,0.874437
0.327327,0.874377,0.874318,0.874437
0.33033,0.874377,0.874318,0.874437
0.333333,0.874377,0.874318,0.874437
0.336336,0.874377,0.874318,0.874437
0.339339,0.874377,0.874318,0.874437
0.342342,0.874378,0.874318,0.874437
0.345345,0.874378,0.874318,0.874437
0.348348,0.874378,0.874318,0.874437
0.351351,0.874378,0.874318,0.874437
0.354354,0.874378,0.874318,0.874437
0.357357,0.874378,0.874318,0.874437
0.36036,0.874378,0.874318,0.874437
0.363363,0.874378,0.874318,0.874437
0.366366,0.874378,0.874319,0.874437
0.369369,0.874378,0.874319,0.874437
0.372372,0.874378,0.874319,0.874438
0.375375,0.874378,0.874319,0.874438
0.378378,0.874378,0.874319,0.874438
0.381381,0.874378,0.874319,0.874438
0.384384,0.874378,0.874319,0.874438
0.387387,0.874378,0.874319,0.874438
0.39039,0.874378,0.874319,0.874438
0.393393,0.874378,0.874319,0.874438
0.396396,0.874378,0.874319,0.874438
0.399399,0.874378,0.874319,0.874438
0.402402,0.874378,0.874319,0.874438
0.405405,0.874378,0.874319,0.874438
0.408408,0.874378,0.874319,0.874438
0.411411,0.874378,0.874319,0.874438
0.414414,0.874378,0.874319,0.874438
0.417417,0.874378,0.874319,0.874438
0.42042,0.874378,0.874319,0.874438
0.423423,0.874378,0.874319,0.874438
0.426426,0.874378,0.874319,0.874438
0.429429,0.874378,0.874319,0.874438
0.432432,0.874378,0.874319,0.874438
0.435435,0.874378,0.874319,0.874438
0.438438,0.874378,0.874319,0.874438
0.441441,0.874378,0.874319,0.874438
0.444444,0.874378,0.874319,0.874438
0.447447,0.874378,0.874319,0.874438
0.45045,0.874378,0.874319,0.874438
0.453453,0.874378,0.874319,0.874438
0.456456,0.874378,0.874319,0.874438
0.459459,0.874378,0.874319,0.874438
0.462462,0.874378,0.874319,0.874438
0.465465,0.874378,0.874319,0.874438
0.468468,0.874379,0.874319,0.874438
0.471471,0.874379,0.874319,0.874438
0.474474,0.874379,0.874319,0.874438
0.477477,0.874379,0.874319,0.874438
0.48048,0.874379,0.874319,0.874438
0.483483,0.874379,0.874319,0.874438
0.486486,0.874379,0.874319,0.874438
0.489489,0.874379,0.874319,0.874438
0.492492,0.874379,0.874319,0.874438
0.495495,0.874379,0.874319,0.874438
0.498498,0.874379,0.874319,0.874438
0.501502,0.874379,0.874319,0.874438
0.504505,0.874379,0.874319,0.874438
0.507508,0.874379,0.874319,0.874438
0.510511,0.874379,0.874319,0.874438
0.513514,0.874379,0.874319,0.874438
0.516517,0.874379,0.874319,0.874438
0.51952,0.874379,0.874319,0.874438
0.522523,0.874379,0.874319,0.874438
0.525526,0.874379,0.874319,0.874438
0.528529,0.874379,0.874319,0.874438
0.531532,0.874379,0.874319,0.874438
0.534535,0.874379,0.874319,0.874438
0.537538,0.874379,0.874319,0.874438
0.540541,0.874379,0.87432,0.874438
0.543544,0.874379,0.87432,0.874438
0.546547,0.874379,0.87432,0.874438
0.54955,0.874379,0.87432,0.874438
0.552553,0.874379,0.87432,0.874438
0.555556,0.874379,0.87432,0.874438
0.558559,0.874379,0.87432,0.874438
0.561562,0.874379,0.87432,0.874439
0.564565,0.874379,0.87432,0.874439
0.567568,0.874379,0.87432,0.874439
0.570571,0.874379,0.87432,0.874439
0.573574,0.874379,0.87432,0.874439
0.576577,0.874379,0.87432,0.874439
0.57958,0.874379,0.87432,0.874439
0.582583,0.874379,0.87432,0.874439
0.585586,0.874379,0.87432,0.874439
0.588589,0.874379,0.87432,0.874439
0.591592,0.874379,0.87432,0.874439
0.594595,0.874379,0.87432,0.874439
0.597598,0.874379,0.87432,0.874439
0.600601,0.874379,0.87432,0.874439
0.603604,0.874379,0.87432,0.874439
0.606607,0.874379,0.87432,0.874439
0.60961,0.874379,0.87432,0.874439
0.612613,0.874379,0.87432,0.874439
0.615616,0.874379,0.87432,0.874439
0.618619,0.874379,0.87432,0.874439
0.621622,0.874379,0.87432,0.874439
0.624625,0.874379,0.87432,0.874439
0.627628,0.874379,0.87432,0.874439
0.630631,0.874379,0.87432,0.874439
0.633634,0.874379,0.87432,0.874439
0.636637,0.874379,0.87432,0.874439
0.63964,0.874379,0.87432,0.874439
0.642643,0.874379,0.87432,0.874439
0.645646,0.874379,0.87432,0.874439
0.648649,0.874379,0.87432,0.874439
0.651652,0.874379,0.87432,0.874439
0.654655,0.874379,0.87432,0.874439
0.657658,0.874379,0.87432,0.874439
0.660661,0.874379,0.87432,0.874439
0.663664,0.874379,0.87432,0.874439
0.666667,0.874379,0.87432,0.874439
0.66967,0.874379,0.87432,0.874439
0.672673,0.874379,0.87432,0.874439
0.675676,0.874379,0.87432,0.874439
0.678679,0.874379,0.87432,0.874439
0.681682,0.874379,0.87432,0.874439
0.684685,0.874379,0.87432,0.874439
0.687688,0.874379,0.87432,0.874439
0.690691,0.874379,0.87432,0.874439
0.693694,0.874379,0.87432,0.874439
0.696697,0.874379,0.87432,0.874439
0.6997,0.874379,0.87432,0.874439
0.702703,0.874379,0.87432,0.874439
0.705706,0.874379,0.87432,0.874439
0.708709,0.874379,0.87432,0.874439
0.711712,0.874379,0.87432,0.874439
0.714715,0.874379,0.87432,0.874439
0.717718,0.874379,0.87432,0.874439
0.720721,0.874379,0.87432,0.874439
0.723724,0.874379,0.87432,0.874439
0.726727,0.874379,0.87432,0.874439
0.72973,0.874379,0.87432,0.874439
0.732733,0.874379,0.87432,0.874439
0.735736,0.874379,0.87432,0.874439
0.738739,0.874379,0.87432,0.874439
0.741742,0.874379,0.87432,0.874439
0.744745,0.874379,0.87432,0.874439
0.747748,0.874379,0.87432,0.874439
0.750751,0.874379,0.87432,0.874439
0.753754,0.874379,0.87432,0.874439
0.756757,0.874379,0.87432,0.874439
0.75976,0.874379,0.87432,0.874439
0.762763,0.874379,0.87432,0.874439
0.765766,0.874379,0.87432,0.874439
0.768769,0.874379,0.87432,0.874439
0.771772,0.874379,0.87432,0.874439
0.774775,0.874379,0.87432,0.874439
0.777778,0.874379,0.87432,0.874439
0.780781,0.874379,0.87432,0.874439
0.783784,0.874379,0.87432,0.874439
0.786787,0.874379,0.87432,0.874439
0.78979,0.874379,0.87432,0.874439
0.792793,0.874379,0.87432,0.874439
0.795796,0.874379,0.87432,0.874439
0.798799,0.874379,0.87432,0.874439
0.801802,0.874379,0.87432,0.874439
0.804805,0.874379,0.87432,0.874439
0.807808,0.874379,0.87432,0.874439
0.810811,0.874379,0.87432,0.874439
0.813814,0.874379,0.87432,0.874439
0.816817,0.874379,0.87432,0.874439
0.81982,0.874379,0.87432,0.874439
0.822823,0.874379,0.87432,0.874439
0.825826,0.874379,0.87432,0.874439
0.828829,0.874379,0.87432,0.874439
0.831832,0.874379,0.87432,0.874439
0.834835,0.874379,0.87432,0.874439
0.837838,0.874379,0.87432,0.874439
0.840841,0.874379,0.87432,0.874439
0.843844,0.874379,0.87432,0.874439
0.846847,0.874379,0.87432,0.874439
0.84985,0.874379,0.87432,0.874439
0.852853,0.874379,0.87432,0.874439
0.855856,0.874379,0.87432,0.874439
0.858859,0.874379,0.87432,0.874439
0.861862,0.874379,0.87432,0.874439
0.864865,0.874379,0.87432,0.874439
0.867868,0.874379,0.87432,0.874439
0.870871,0.874379,0.87432,0.874439
0.873874,0.874379,0.87432,0.874439
0.876877,0.874379,0.87432,0.874439
0.87988,0.874379,0.87432,0.874439
0.882883,0.874379,0.87432,0.874439
0.885886,0.874379,0.87432,0.874439
0.888889,0.874379,0.87432,0.874439
0.891892,0.874379,0.87432,0.874439
0.894895,0.874379,0.87432,0.874439
0.897898,0.874379,0.87432,0.874439
0.900901,0.874379,0.87432,0.874439
0.903904,0.874379,0.87432,0.874439
0.906907,0.874379,0.87432,0.874439
0.90991,0.874379,0.87432,0.874439
0.912913,0.874379,0.87432,0.874439
0.915916,0.874379,0.87432,0.874439
0.918919,0.874379,0.87432,0.874439
0.921922,0.874379,0.87432,0.874439
0.924925,0.874379,0.87432,0.874439
0.927928,0.874379,0.87432,0.874439
0.930931,0.874379,0.87432,0.874439
0.933934,0.874379,0.87432,0.874439
0.936937,0.874379,0.87432,0.874439
0.93994,0.874379,0.87432,0.874439
0.942943,0.874379,0.87432,0.874439
0.945946,0.874379,0.87432,0.874439
0.948949,0.874379,0.87432,0.874439
0.951952,0.874379,0.87432,0.874439
0.954955,0.874379,0.87432,0.874439
0.957958,0.874379,0.87432,0.874439
0.960961,0.874379,0.87432,0.874439
0.963964,0.874379,0.87432,0.874439
0.966967,0.874379,0.87432,0.874439
0.96997,0.874379,0.87432,0.874439
0.972973,0.874379,0.87432,0.874439
0.975976,0.874379,0.87432,0.874439
0.978979,0.874379,0.87432,0.874439
0.981982,0.874379,0.87432,0.874439
0.984985,0.874379,0.87432,0.874439
0.987988,0.874379,0.87432,0.874439
0.990991,0.874379,0.87432,0.874439
0.993994,0.874379,0.87432,0.874439
0.996997,0.874379,0.87432,0.874439
1,0.874379,0.87432,0.874439
1.003,0.874379,0.87432,0.874439
1.00601,0.874379,0.87432,0.874439
1.00901,0.874379,0.87432,0.874439
1.01201,0.874379,0.87432,0.874439
1.01502,0.874379,0.87432,0.874439
1.01802,0.874379,0.87432,0.874439
1.02102,0.874379,0.87432,0.874439
1.02402,0.874379,0.87432,0.874439
1.02703,0.874379,0.87432,0.874439
1.03003,0.874379,0.87432,0.874439
1.03303,0.874379,0.87432,0.874439
1.03604,0.874379,0.87432,0.874439
1.03904,0.874379,0.87432,0.874439
1.04204,0.874379,0.87432,0.874439
1.04505,0.874379,0.87432,0.874439
1.04805,0.874379,0.87432,0.874439
1.05105,0.874379,0.87432,0.874439
1.05405,0.874379,0.87432,0.874439
1.05706,0.87438,0.87432,0.874439
1.06006,0.87438,0.87432,0.874439
1.06306,0.87438,0.87432,0.874439
1.06607,0.87438,0.87432,0.874439
1.06907,0.87438,0.87432,0.874439
1.07207,0.87438,0.87432,0.874439
1.07508,0.87438,0.87432,0.874439
1.07808,0.87438,0.87432,0.874439
1.08108,0.87438,0.87432,0.874439
1.08408,0.87438,0.87432,0.874439
1.08709,0.87438,0.87432,0.874439
1.09009,0.87438,0.87432,0.874439
1.09309,0.87438,0.87432,0.874439
1.0961,0.87438,0.87432,0.874439
1.0991,0.87438,0.87432,0.874439
1.1021,0.87438,0.87432,0.874439
1.10511,0.87438,0.87432,0.874439
1.10811,0.87438,0.87432,0.874439
1.11111,0.87438,0.87432,0.874439
1.11411,0.87438,0.87432,0.874439
1.11712,0.87438,0.87432,0.874439
1.12012,0.87438,0.87432,0.874439
1.12312,0.87438,0.87432,0.874439
1.12613,0.87438,0.87432,0.874439
1.12913,0.87438,0.87432,0.874439
1.13213,0.87438,0.87432,0.874439
1.13514,0.87438,0.87432,0.874439
1.13814,0.87438,0.87432,0.874439
1.14114,0.87438,0.87432,0.874439
1.14414,0.87438,0.87432,0.874439
1.14715,0.87438,0.87432,0.874439
1.15015,0.87438,0.87432,0.874439
1.15315,0.87438,0.87432,0.874439
1.15616,0.87438,0.87432,0.874439
1.15916,0.87438,0.87432,0.874439
1.16216,0.87438,0.87432,0.874439
1.16517,0.87438,0.87432,0.874439
1.16817,0.87438,0.87432,0.874439
1.17117,0.87438,0.87432,0.874439
1.17417,0.87438,0.87432,0.874439
1.17718,0.87438,0.87432,0.874439
1.18018,0.87438,0.87432,0.874439
1.18318,0.87438,0.87432,0.874439
1.18619,0.87438,0.87432,0.874439
1.18919,0.87438,0.87432,0.874439
1.19219,0.87438,0.87432,0.874439
1.1952,0.87438,0.87432,0.874439
1.1982,0.87438,0.87432,0.874439
1.2012,0.87438,0.87432,0.874439
1.2042,0.87438,0.87432,0.874439
1.20721,0.87438,0.87432,0.874439
1.21021,0.87438,0.87432,0.874439
1.21321,0.87438,0.87432,0.874439
1.21622,0.87438,0.87432,0.874439
1.21922,0.87438,0.87432,0.874439
1.22222,0.87438,0.87432,0.874439
1.22523,0.87438,0.87432,0.874439
1.22823,0.87438,0.87432,0.874439
1.23123,0.87438,0.87432,0.874439
1.23423,0.87438,0.87432,0.874439
1.23724,0.87438,0.87432,0.874439
1.24024,0.87438,0.87432,0.874439
1.24324,0.87438,0.87432,0.874439
1.24625,0.87438,0.87432,0.874439
1.24925,0.87438,0.87432,0.874439
1.25225,0.87438,0.87432,0.874439
1.25526,0.87438,0.87432,0.874439
1.25826,0.87438,0.87432,0.874439
1.26126,0.87438,0.87432,0.874439
1.26426,0.87438,0.87432,0.874439
1.26727,0.87438,0.87432,0.874439
1.27027,0.87438,0.87432,0.874439
1.27327,0.87438,0.87432,0.874439
1.27628,0.87438,0.87432,0.874439
1.27928,0.87438,0.87432,0.874439
1.28228,0.87438,0.87432,0.874439
1.28529,0.87438,0.87432,0.874439
1.28829,0.87438,0.87432,0.874439
1.29129,0.87438,0.87432,0.874439
1.29429,0.87438,0.87432,0.874439
1.2973,0.87438,0.87432,0.874439
1.3003,0.87438,0.87432,0.874439
1.3033,0.87438,0.87432,0.874439
1.30631,0.87438,0.87432,0.874439
1.30931,0.87438,0.87432,0.874439
1.31231,0.87438,0.87432,0.874439
1.31532,0.87438,0.87432,0.874439
1.31832,0.87438,0.87432,0.874439
1.32132,0.87438,0.87432,0.874439
1.32432,0.87438,0.87432,0.874439
1.32733,0.87438,0.87432,0.874439
1.33033,0.87438,0.87432,0.874439
1.33333,0.87438,0.87432,0.874439
1.33634,0.87438,0.87432,0.874439
1.33934,0.87438,0.87432,0.874439
1.34234,0.87438,0.87432,0.874439
1.34535,0.87438,0.87432,0.874439
1.34835,0.87438,0.87432,0.874439
1.35135,0.87438,0.87432,0.874439
1.35435,0.87438,0.87432,0.874439
1.35736,0.87438,0.87432,0.874439
1.36036,0.87438,0.87432,0.874439
1.36336,0.87438,0.87432,0.874439
1.36637,0.87438,0.87432,0.874439
1.36937,0.87438,0.87432,0.874439
1.37237,0.87438,0.87432,0.874439
1.37538,0.87438,0.87432,0.874439
1.37838,0.87438,0.87432,0.874439
1.38138,0.87438,0.87432,0.874439
1.38438,0.87438,0.87432,0.874439
1.38739,0.87438,0.87432,0.874439
1.39039,0.87438,0.87432,0.874439
1.39339,0.87438,0.87432,0.874439
1.3964,0.87438,0.87432,0.874439
1.3994,0.87438,0.87432,0.874439
1.4024,0.87438,0.87432,0.874439
1.40541,0.87438,0.87432,0.874439
1.40841,0.87438,0.87432,0.874439
1.41141,0.87438,0.87432,0.874439
1.41441,0.87438,0.87432,0.874439
1.41742,0.87438,0.87432,0.874439
1.42042,0.87438,0.87432,0.874439
1.42342,0.87438,0.87432,0.874439
1.42643,0.87438,0.87432,0.874439
1.42943,0.87438,0.87432,0.874439
1.43243,0.87438,0.87432,0.874439
1.43544,0.87438,0.87432,0.874439
1.43844,0.87438,0.87432,0.874439
1.44144,0.87438,0.87432,0.874439
1.44444,0.87438,0.87432,0.874439
1.44745,0.87438,0.87432,0.874439
1.45045,0.87438,0.87432,0.874439
1.45345,0.87438,0.87432,0.874439
1.45646,0.87438,0.87432,0.874439
1.45946,0.87438,0.87432,0.874439
1.46246,0.87438,0.87432,0.874439
1.46547,0.87438,0.87432,0.874439
1.46847,0.87438,0.87432,0.874439
1.47147,0.87438,0.87432,0.874439
1.47447,0.87438,0.87432,0.874439
1.47748,0.87438,0.87432,0.874439
1.48048,0.87438,0.87432,0.874439
1.48348,0.87438,0.87432,0.874439
1.48649,0.87438,0.87432,0.874439
1.48949,0.87438,0.87432,0.874439
1.49249,0.87438,0.87432,0.874439
1.4955,0.87438,0.87432,0.874439
1.4985,0.87438,0.87432,0.874439
1.5015,0.87438,0.87432,0.874439
1.5045,0.87438,0.87432,0.874439
1.50751,0.87438,0.87432,0.874439
1.51051,0.87438,0.87432,0.874439
1.51351,0.87438,0.87432,0.874439
1.51652,0.87438,0.87432,0.874439
1.51952,0.87438,0.87432,0.874439
1.52252,0.87438,0.87432,0.874439
1.52553,0.87438,0.87432,0.874439
1.52853,0.87438,0.87432,0.874439
1.53153,0.87438,0.87432,0.874439
1.53453,0.87438,0.87432,0.874439
1.53754,0.87438,0.87432,0.874439
1.54054,0.87438,0.87432,0.874439
1.54354,0.87438,0.87432,0.874439
1.54655,0.87438,0.87432,0.874439
1.54955,0.87438,0.87432,0.874439
1.55255,0.87438,0.87432,0.874439
1.55556,0.87438,0.87432,0.874439
1.55856,0.87438,0.87432,0.874439
1.56156,0.87438,0.87432,0.874439
1.56456,0.87438,0.87432,0.874439
1.56757,0.87438,0.87432,0.874439
1.57057,0.87438,0.87432,0.874439
1.57357,0.87438,0.87432,0.874439
1.57658,0.87438,0.87432,0.874439
1.57958,0.87438,0.87432,0.874439
1.58258,0.87438,0.87432,0.874439
1.58559,0.87438,0.87432,0.874439
1.58859,0.87438,0.87432,0.874439
1.59159,0.87438,0.87432,0.874439
1.59459,0.87438,0.87432,0.874439
1.5976,0.87438,0.87432,0.874439
1.6006,0.87438,0.87432,0.874439
1.6036,0.87438,0.87432,0.874439
1.60661,0.87438,0.87432,0.874439
1.60961,0.87438,0.87432,0.874439
1.61261,0.87438,0.87432,0.874439
1.61562,0.87438,0.87432,0.874439
1.61862,0.87438,0.87432,0.874439
1.62162,0.87438,0.87432,0.874439
1.62462,0.87438,0.87432,0.874439
1.62763,0.87438,0.87432,0.874439
1.63063,0.87438,0.87432,0.874439
1.63363,0.87438,0.87432,0.874439
1.63664,0.87438,0.87432,0.874439
1.63964,0.87438,0.87432,0.874439
1.64264,0.87438,0.87432,0.874439
1.64565,0.87438,0.87432,0.874439
1.64865,0.87438,0.87432,0.874439
1.65165,0.87438,0.87432,0.874439
1.65465,0.87438,0.87432,0.874439
1.65766,0.87438,0.87432,0.874439
1.66066,0.87438,0.87432,0.874439
1.66366,0.87438,0.87432,0.874439
1.66667,0.87438,0.87432,0.874439
1.66967,0.87438,0.87432,0.874439
1.67267,0.87438,0.87432,0.874439
1.67568,0.87438,0.87432,0.874439
1.67868,0.87438,0.874321,0.874439
1.68168,0.87438,0.874321,0.874439
1.68468,0.87438,0.874321,0.874439
1.68769,0.87438,0.874321,0.874439
1.69069,0.87438,0.874321,0.874439
1.69369,0.87438,0.874321,0.874439
1.6967,0.87438,0.874321,0.874439
1.6997,0.87438,0.874321,0.874439
1.7027,0.87438,0.874321,0.874439
1.70571,0.87438,0.874321,0.874439
1.70871,0.87438,0.874321,0.874439
1.71171,0.87438,0.874321,0.874439
1.71471,0.87438,0.874321,0.874439
1.71772,0.87438,0.874321,0.874439
1.72072,0.87438,0.874321,0.874439
1.72372,0.87438,0.874321,0.874439
1.72673,0.87438,0.874321,0.874439
1.72973,0.87438,0.874321,0.874439
1.73273,0.87438,0.874321,0.874439
1.73574,0.87438,0.874321,0.874439
1.73874,0.87438,0.874321,0.874439
1.74174,0.87438,0.874321,0.874439
1.74474,0.87438,0.874321,0.874439
1.74775,0.87438,0.874321,0.874439
1.75075,0.87438,0.874321,0.874439
1.75375,0.87438,0.874321,0.874439
1.75676,0.87438,0.874321,0.874439
1.75976,0.87438,0.874321,0.874439
1.76276,0.87438,0.874321,0.874439
1.76577,0.87438,0.874321,0.874439
1.76877,0.87438,0.874321,0.874439
1.77177,0.87438,0.874321,0.874439
1.77477,0.87438,0.874321,0.874439
1.77778,0.87438,0.874321,0.874439
1.78078,0.87438,0.874321,0.874439
1.78378,0.87438,0.874321,0.874439
1.78679,0.87438,0.874321,0.874439
1.78979,0.87438,0.874321,0.874439
1.79279,0.87438,0.874321,0.874439
1.7958,0.87438,0.874321,0.874439
1.7988,0.87438,0.874321,0.874439
1.8018,0.87438,0.874321,0.874439
1.8048,0.87438,0.874321,0.874439
1.80781,0.87438,0.874321,0.874439
1.81081,0.87438,0.874321,0.874439
1.81381,0.87438,0.874321,0.874439
1.81682,0.87438,0.874321,0.874439
1.81982,0.87438,0.874321,0.874439
1.82282,0.87438,0.874321,0.874439
1.82583,0.87438,0.874321,0.874439
1.82883,0.87438,0.874321,0.874439
1.83183,0.87438,0.874321,0.874439
1.83483,0.87438,0.874321,0.874439
1.83784,0.87438,0.874321,0.874439
1.84084,0.87438,0.874321,0.87444
1.84384,0.87438,0.874321,0.87444
1.84685,0.87438,0.874321,0.87444
1.84985,0.87438,0.874321,0.87444
1.85285,0.87438,0.874321,0.87444
1.85586,0.87438,0.874321,0.87444
1.85886,0.87438,0.874321,0.87444
1.86186,0.87438,0.874321,0.87444
1.86486,0.87438,0.874321,0.87444
1.86787,0.87438,0.874321,0.87444
1.87087,0.87438,0.874321,0.87444
1.87387,0.87438,0.874321,0.87444
1.87688,0.87438,0.874321,0.87444
1.87988,0.87438,0.874321,0.87444
1.88288,0.87438,0.874321,0.87444
1.88589,0.87438,0.874321,0.87444
1.88889,0.87438,0.874321,0.87444
1.89189,0.87438,0.874321,0.87444
1.89489,0.87438,0.874321,0.87444
1.8979,0.87438,0.874321,0.87444
1.9009,0.87438,0.874321,0.87444
1.9039,0.87438,0.874321,0.87444
1.90691,0.87438,0.874321,0.87444
1.90991,0.87438,0.874321,0.87444
1.91291,0.87438,0.874321,0.87444
1.91592,0.87438,0.874321,0.87444
1.91892,0.87438,0.874321,0.87444
1.92192,0.87438,0.874321,0.87444
1.92492,0.87438,0.874321,0.87444
1.92793,0.87438,0.874321,0.87444
1.93093,0.87438,0.874321,0.87444
1.93393,0.87438,0.874321,0.87444
1.93694,0.87438,0.874321,0.87444
1.93994,0.87438,0.874321,0.87444
1.94294,0.87438,0.874321,0.87444
1.94595,0.87438,0.874321,0.87444
1.94895,0.87438,0.874321,0.87444
1.95195,0.87438,0.874321,0.87444
1.95495,0.87438,0.874321,0.87444
1.95796,0.87438,0.874321,0.87444
1.96096,0.87438,0.874321,0.87444
1.96396,0.87438,0.874321,0.87444
1.96697,0.87438,0.874321,0.87444
1.96997,0.87438,0.874321,0.87444
1.97297,0.87438,0.874321,0.87444
1.97598,0.87438,0.874321,0.87444
1.97898,0.87438,0.874321,0.87444
1.98198,0.87438,0.874321,0.87444
1.98498,0.87438,0.874321,0.87444
1.98799,0.87438,0.874321,0.87444
1.99099,0.87438,0.874321,0.87444
1.99399,0.87438,0.874321,0.87444
1.997,0.87438,0.874321,0.87444
2,0.87438,0.874321,0.87444
2.003,0.87438,0.874321,0.87444
2.00601,0.87438,0.874321,0.87444
2.00901,0.87438,0.874321,0.87444
2.01201,0.87438,0.874321,0.87444
2.01502,0.87438,0.874321,0.87444
2.01802,0.87438,0.874321,0.87444
2.02102,0.87438,0.874321,0.87444
2.02402,0.87438,0.874321,0.87444
2.02703,0.87438,0.874321,0.87444
2.03003,0.87438,0.874321,0.87444
2.03303,0.87438,0.874321,0.87444
2.03604,0.87438,0.874321,0.87444
2.03904,0.87438,0.874321,0.87444
2.04204,0.87438,0.874321,0.87444
2.04505,0.87438,0.874321,0.87444
2.04805,0.87438,0.874321,0.87444
2.05105,0.87438,0.874321,0.87444
2.05405,0.87438,0.874321,0.87444
2.05706,0.87438,0.874321,0.87444
2.06006,0.87438,0.874321,0.87444
2.06306,0.87438,0.874321,0.87444
2.06607,0.87438,0.874321,0.87444
2.06907,0.87438,0.874321,0.87444
2.07207,0.87438,0.874321,0.87444
2.07508,0.87438,0.874321,0.87444
2.07808,0.87438,0.874321,0.87444
2.08108,0.87438,0.874321,0.87444
2.08408,0.87438,0.874321,0.87444
2.08709,0.87438,0.874321,0.87444
2.09009,0.87438,0.874321,0.87444
2.09309,0.87438,0.874321,0.87444
2.0961,0.87438,0.874321,0.87444
2.0991,0.87438,0.874321,0.87444
2.1021,0.87438,0.874321,0.87444
2.10511,0.87438,0.874321,0.87444
2.10811,0.87438,0.874321,0.87444
2.11111,0.87438,0.874321,0.87444
2.11411,0.87438,0.874321,0.87444
2.11712,0.87438,0.874321,0.87444
2.12012,0.87438,0.874321,0.87444
2.12312,0.87438,0.874321,0.87444
2.12613,0.87438,0.874321,0.87444
2.12913,0.87438,0.874321,0.87444
2.13213,0.87438,0.874321,0.87444
2.13514,0.87438,0.874321,0.87444
2.13814,0.87438,0.874321,0.87444
2.14114,0.87438,0.874321,0.87444
2.14414,0.87438,0.874321,0.87444
2.14715,0.87438,0.874321,0.87444
2.15015,0.87438,0.874321,0.87444
2.15315,0.87438,0.874321,0.87444
2.15616,0.87438,0.874321,0.87444
2.15916,0.87438,0.874321,0.87444
2.16216,0.87438,0.874321,0.87444
2.16517,0.87438,0.874321,0.87444
2.16817,0.87438,0.874321,0.87444
2.17117,0.87438,0.874321,0.87444
2.17417,0.87438,0.874321,0.87444
2.17718,0.87438,0.874321,0.87444
2.18018,0.87438,0.874321,0.87444
2.18318,0.87438,0.874321,0.87444
2.18619,0.87438,0.874321,0.87444
2.18919,0.87438,0.874321,0.87444
2.19219,0.87438,0.874321,0.87444
2.1952,0.87438,0.874321,0.87444
2.1982,0.87438,0.874321,0.87444
2.2012,0.87438,0.874321,0.87444
2.2042,0.87438,0.874321,0.87444
2.20721,0.87438,0.874321,0.87444
2.21021,0.87438,0.874321,0.87444
2.21321,0.87438,0.874321,0.87444
2.21622,0.87438,0.874321,0.87444
2.21922,0.87438,0.874321,0.87444
2.22222,0.87438,0.874321,0.87444
2.22523,0.87438,0.874321,0.87444
2.22823,0.87438,0.874321,0.87444
2.23123,0.87438,0.874321,0.87444
2.23423,0.87438,0.874321,0.87444
2.23724,0.87438,0.874321,0.87444
2.24024,0.87438,0.874321,0.87444
2.24324,0.87438,0.874321,0.87444
2.24625,0.87438,0.874321,0.87444
2.24925,0.87438,0.874321,0.87444
2.25225,0.87438,0.874321,0.87444
2.25526,0.87438,0.874321,0.87444
2.25826,0.87438,0.874321,0.87444
2.26126,0.87438,0.874321,0.87444
2.26426,0.87438,0.874321,0.87444
2.26727,0.87438,0.874321,0.87444
2.27027,0.87438,0.874321,0.87444
2.27327,0.87438,0.874321,0.87444
2.27628,0.87438,0.874321,0.87444
2.27928,0.87438,0.874321,0.87444
2.28228,0.87438,0.874321,0.87444
2.28529,0.87438,0.874321,0.87444
2.28829,0.87438,0.874321,0.87444
2.29129,0.87438,0.874321,0.87444
2.29429,0.87438,0.874321,0.87444
2.2973,0.87438,0.874321,0.87444
2.3003,0.87438,0.874321,0.87444
2.3033,0.87438,0.874321,0.87444
2.30631,0.87438,0.874321,0.87444
2.30931,0.87438,0.874321,0.87444
2.31231,0.87438,0.874321,0.87444
2.31532,0.87438,0.874321,0.87444
2.31832,0.87438,0.874321,0.87444
2.32132,0.87438,0.874321,0.87444
2.32432,0.87438,0.874321,0.87444
2.32733,0.87438,0.874321,0.87444
2.33033,0.87438,0.874321,0.87444
2.33333,0.87438,0.874321,0.87444
2.33634,0.87438,0.874321,0.87444
2.33934,0.87438,0.874321,0.87444
2.34234,0.87438,0.874321,0.87444
2.34535,0.87438,0.874321,0.87444
2.34835,0.87438,0.874321,0.87444
2.35135,0.87438,0.874321,0.87444
2.35435,0.87438,0.874321,0.87444
2.35736,0.87438,0.874321,0.87444
2.36036,0.87438,0.874321,0.87444
2.36336,0.87438,0.874321,0.87444
2.36637,0.87438,0.874321,0.87444
2.36937,0.87438,0.874321,0.87444
2.37237,0.87438,0.874321,0.87444
2.37538,0.87438,0.874321,0.87444
2.37838,0.87438,0.874321,0.87444
2.38138,0.87438,0.874321,0.87444
2.38438,0.87438,0.874321,0.87444
2.38739,0.87438,0.874321,0.87444
2.39039,0.87438,0.874321,0.87444
2.39339,0.87438,0.874321,0.87444
2.3964,0.87438,0.874321,0.87444
2.3994,0.87438,0.874321,0.87444
2.4024,0.87438,0.874321,0.87444
2.40541,0.87438,0.874321,0.87444
2.40841,0.87438,0.874321,0.87444
2.41141,0.87438,0.874321,0.87444
2.41441,0.87438,0.874321,0.87444
2.41742,0.87438,0.874321,0.87444
2.42042,0.87438,0.874321,0.87444
2.42342,0.87438,0.874321,0.87444
2.42643,0.87438,0.874321,0.87444
2.42943,0.87438,0.874321,0.87444
2.43243,0.87438,0.874321,0.87444
2.43544,0.87438,0.874321,0.87444
2.43844,0.87438,0.874321,0.87444
2.44144,0.87438,0.874321,0.87444
2.44444,0.87438,0.874321,0.87444
2.44745,0.87438,0.874321,0.87444
2.45045,0.87438,0.874321,0.87444
2.45345,0.87438,0.874321,0.87444
2.45646,0.87438,0.874321,0.87444
2.45946,0.87438,0.874321,0.87444
2.46246,0.87438,0.874321,0.87444
2.46547,0.87438,0.874321,0.87444
2.46847,0.87438,0.874321,0.87444
2.47147,0.87438,0.874321,0.87444
2.47447,0.87438,0.874321,0.87444
2.47748,0.87438,0.874321,0.87444
2.48048,0.87438,0.874321,0.87444
2.48348,0.87438,0.874321,0.87444
2.48649,0.87438,0.874321,0.87444
2.48949,0.87438,0.874321,0.87444
2.49249,0.87438,0.874321,0.87444
2.4955,0.87438,0.874321,0.87444
2.4985,0.87438,0.874321,0.87444
2.5015,0.87438,0.874321,0.87444
2.5045,0.87438,0.874321,0.87444
2.50751,0.87438,0.874321,0.87444
2.51051,0.87438,0.874321,0.87444
2.51351,0.87438,0.874321,0.87444
2.51652,0.87438,0.874321,0.87444
2.51952,0.87438,0.874321,0.87444
2.52252,0.87438,0.874321,0.87444
2.52553,0.87438,0.874321,0.87444
2.52853,0.87438,0.874321,0.87444
2.53153,0.87438,0.874321,0.87444
2.53453,0.87438,0.874321,0.87444
2.53754,0.87438,0.874321,0.87444
2.54054,0.87438,0.874321,0.87444
2.54354,0.87438,0.874321,0.87444
2.54655,0.87438,0.874321,0.87444
2.54955,0.87438,0.874321,0.87444
2.55255,0.87438,0.874321,0.87444
2.55556,0.87438,0.874321,0.87444
2.55856,0.87438,0.874321,0.87444
2.56156,0.87438,0.874321,0.87444
2.56456,0.87438,0.874321,0.87444
2.56757,0.87438,0.874321,0.87444
2.57057,0.87438,0.874321,0.87444
2.57357,0.87438,0.874321,0.87444
2.57658,0.87438,0.874321,0.87444
2.57958,0.87438,0.874321,0.87444
2.58258,0.87438,0.874321,0.87444
2.58559,0.87438,0.874321,0.87444
2.58859,0.87438,0.874321,0.87444
2.59159,0.87438,0.874321,0.87444
2.59459,0.87438,0.874321,0.87444
2.5976,0.87438,0.874321,0.87444
2.6006,0.87438,0.874321,0.87444
2.6036,0.87438,0.874321,0.87444
2.60661,0.87438,0.874321,0.87444
2.60961,0.87438,0.874321,0.87444
2.61261,0.87438,0.874321,0.87444
2.61562,0.87438,0.874321,0.87444
2.61862,0.87438,0.874321,0.87444
2.62162,0.87438,0.874321,0.87444
2.62462,0.87438,0.874321,0.87444
2.62763,0.87438,0.874321,0.87444
2.63063,0.87438,0.874321,0.87444
2.63363,0.87438,0.874321,0.87444
2.63664,0.87438,0.874321,0.87444
2.63964,0.87438,0.874321,0.87444
2.64264,0.87438,0.874321,0.87444
2.64565,0.87438,0.874321,0.87444
2.64865,0.87438,0.874321,0.87444
2.65165,0.87438,0.874321,0.87444
2.65465,0.87438,0.874321,0.87444
2.65766,0.87438,0.874321,0.87444
2.66066,0.87438,0.874321,0.87444
2.66366,0.87438,0.874321,0.87444
2.66667,0.87438,0.874321,0.87444
2.66967,0.87438,0.874321,0.87444
2.67267,0.87438,0.874321,0.87444
2.67568,0.87438,0.874321,0.87444
2.67868,0.87438,0.874321,0.87444
2.68168,0.87438,0.874321,0.87444
2.68468,0.87438,0.874321,0.87444
2.68769,0.87438,0.874321,0.87444
2.69069,0.87438,0.874321,0.87444
2.69369,0.87438,0.874321,0.87444
2.6967,0.87438,0.874321,0.87444
2.6997,0.87438,0.874321,0.87444
2.7027,0.87438,0.874321,0.87444
2.70571,0.87438,0.874321,0.87444
2.70871,0.87438,0.874321,0.87444
2.71171,0.87438,0.874321,0.87444
2.71471,0.87438,0.874321,0.87444
2.71772,0.87438,0.874321,0.87444
2.72072,0.87438,0.874321,0.87444
2.72372,0.87438,0.874321,0.87444
2.72673,0.87438,0.874321,0.87444
2.72973,0.87438,0.874321,0.87444
2.73273,0.87438,0.874321,0.87444
2.73574,0.87438,0.874321,0.87444
2.73874,0.87438,0.874321,0.87444
2.74174,0.87438,0.874321,0.87444
2.74474,0.87438,0.874321,0.87444
2.74775,0.87438,0.874321,0.87444
2.75075,0.87438,0.874321,0.87444
2.75375,0.87438,0.874321,0.87444
2.75676,0.87438,0.874321,0.87444
2.75976,0.87438,0.874321,0.87444
2.76276,0.87438,0.874321,0.87444
2.76577,0.87438,0.874321,0.87444
2.76877,0.87438,0.874321,0.87444
2.77177,0.87438,0.874321,0.87444
2.77477,0.87438,0.874321,0.87444
2.77778,0.87438,0.874321,0.87444
2.78078,0.87438,0.874321,0.87444
2.78378,0.87438,0.874321,0.87444
2.78679,0.87438,0.874321,0.87444
2.78979,0.87438,0.874321,0.87444
2.79279,0.87438,0.874321,0.87444
2.7958,0.87438,0.874321,0.87444
2.7988,0.87438,0.874321,0.87444
2.8018,0.87438,0.874321,0.87444
2.8048,0.87438,0.874321,0.87444
2.80781,0.87438,0.874321,0.87444
2.81081,0.87438,0.874321,0.87444
2.81381,0.87438,0.874321,0.87444
2.81682,0.87438,0.874321,0.87444
2.81982,0.87438,0.874321,0.87444
2.82282,0.87438,0.874321,0.87444
2.82583,0.87438,0.874321,0.87444
2.82883,0.87438,0.874321,0.87444
2.83183,0.87438,0.874321,0.87444
2.83483,0.87438,0.874321,0.87444
2.83784,0.87438,0.874321,0.87444
2.84084,0.87438,0.874321,0.87444
2.84384,0.87438,0.874321,0.87444
2.84685,0.87438,0.874321,0.87444
2.84985,0.87438,0.874321,0.87444
2.85285,0.87438,0.874321,0.87444
2.85586,0.87438,0.874321,0.87444
2.85886,0.87438,0.874321,0.87444
2.86186,0.87438,0.874321,0.87444
2.86486,0.87438,0.874321,0.87444
2.86787,0.87438,0.874321,0.87444
2.87087,0.87438,0.874321,0.87444
2.87387,0.87438,0.874321,0.87444
2.87688,0.87438,0.874321,0.87444
2.87988,0.87438,0.874321,0.87444
2.88288,0.87438,0.874321,0.87444
2.88589,0.87438,0.874321,0.87444
2.88889,0.87438,0.874321,0.87444
2.89189,0.87438,0.874321,0.87444
2.89489,0.87438,0.874321,0.87444
2.8979,0.87438,0.874321,0.87444
2.9009,0.87438,0.874321,0.87444
2.9039,0.87438,0.874321,0.87444
2.90691,0.87438,0.874321,0.87444
2.90991,0.87438,0.874321,0.87444
2.91291,0.87438,0.874321,0.87444
2.91592,0.87438,0.874321,0.87444
2.91892,0.87438,0.874321,0.87444
2.92192,0.87438,0.874321,0.87444
2.92492,0.87438,0.874321,0.87444
2.92793,0.87438,0.874321,0.87444
2.93093,0.87438,0.874321,0.87444
2.93393,0.87438,0.874321,0.87444
2.93694,0.87438,0.874321,0.87444
2.93994,0.87438,0.874321,0.87444
2.94294,0.87438,0.874321,0.87444
2.94595,0.87438,0.874321,0.87444
2.94895,0.87438,0.874321,0.87444
2.95195,0.87438,0.874321,0.87444
2.95495,0.87438,0.874321,0.87444
2.95796,0.87438,0.874321,0.87444
2.96096,0.87438,0.874321,0.87444
2.96396,0.87438,0.874321,0.87444
2.96697,0.87438,0.874321,0.87444
2.96997,0.87438,0.874321,0.87444
2.97297,0.87438,0.874321,0.87444
2.97598,0.87438,0.874321,0.87444
2.97898,0.87438,0.874321,0.87444
2.98198,0.87438,0.874321,0.87444
2.98498,0.87438,0.874321,0.87444
2.98799,0.87438,0.874321,0.87444
2.99099,0.87438,0.874321,0.87444
2.99399,0.87438,0.874321,0.87444
2.997,0.87438,0.874321,0.87444
3,0.87438,0.874321,0.87444
